%YAML 1.1
%TAG !u! tag:unity3d.com,2011:
--- !u!21 &2100000
Material:
  serializedVersion: 6
  m_ObjectHideFlags: 0
  m_CorrespondingSourceObject: {fileID: 0}
  m_PrefabInternal: {fileID: 0}
  m_Name: lockerBrick 1
  m_Shader: {fileID: 46, guid: 0000000000000000f000000000000000, type: 0}
  m_ShaderKeywords: OUTLINE_BLENDING TCP2_SPEC_TOON _NORMALMAP _PARALLAXMAP _SPECGLOSSMAP
  m_LightmapFlags: 4
  m_EnableInstancingVariants: 1
  m_DoubleSidedGI: 0
  m_CustomRenderQueue: -1
  stringTagMap: {}
  disabledShaderPasses: []
  m_SavedProperties:
    serializedVersion: 3
    m_TexEnvs:
    - _BumpMap:
        m_Texture: {fileID: 2800000, guid: 5087f45c58a2bfb4f991f86a54140a67, type: 3}
        m_Scale: {x: 1, y: 1}
        m_Offset: {x: 0, y: 0}
    - _DetailAlbedoMap:
        m_Texture: {fileID: 0}
        m_Scale: {x: 1, y: 1}
        m_Offset: {x: 0, y: 0}
    - _DetailMask:
        m_Texture: {fileID: 0}
        m_Scale: {x: 1, y: 1}
        m_Offset: {x: 0, y: 0}
    - _DetailNormalMap:
        m_Texture: {fileID: 0}
        m_Scale: {x: 1, y: 1}
        m_Offset: {x: 0, y: 0}
    - _EmissionMap:
        m_Texture: {fileID: 0}
        m_Scale: {x: 5, y: 5}
        m_Offset: {x: 0, y: 0.14}
    - _MainTex:
        m_Texture: {fileID: 2800000, guid: 94b9398d0d09a9a46b73f512ca9a47fd, type: 3}
        m_Scale: {x: 5, y: 5}
        m_Offset: {x: 0, y: 0.14}
    - _MetallicGlossMap:
        m_Texture: {fileID: 0}
        m_Scale: {x: 1, y: 1}
        m_Offset: {x: 0, y: 0}
    - _OcclusionMap:
        m_Texture: {fileID: 0}
        m_Scale: {x: 1, y: 1}
        m_Offset: {x: 0, y: 0}
    - _ParallaxMap:
        m_Texture: {fileID: 2800000, guid: dfea43e58482e2746ad18e968e820817, type: 3}
        m_Scale: {x: 1, y: 1}
        m_Offset: {x: 0, y: 0}
    - _Ramp:
        m_Texture: {fileID: 2800000, guid: abc83c21d57d4a74cabe12065fa1a8b2, type: 3}
        m_Scale: {x: 1, y: 1}
        m_Offset: {x: 0, y: 0}
    - _SpecGlossMap:
        m_Texture: {fileID: 2800000, guid: 6740e91ffc431be4a9df2cbe6d8f9c72, type: 3}
        m_Scale: {x: 1, y: 1}
        m_Offset: {x: 0, y: 0}
    m_Floats:
    - _BumpScale: 1
    - _Cutoff: 0.5
    - _DetailNormalMapScale: 1
    - _DstBlend: 0
    - _DstBlendOutline: 10
    - _GlossMapScale: 0.69
    - _Glossiness: 0.097
    - _GlossyReflections: 1
    - _Metallic: 0
    - _Mode: 0
    - _OcclusionStrength: 1
    - _Offset1: 0
    - _Offset2: 0
    - _Outline: 1
    - _Parallax: 0.0184
    - _RampSmooth: 0.033
    - _RampThreshold: 0.534
    - _Shininess: 0.09
    - _SmoothnessTextureChannel: 0
    - _SpecSmooth: 0
    - _SpecularHighlights: 1
    - _SrcBlend: 1
    - _SrcBlendOutline: 5
    - _TexLod: 5
    - _UVSec: 0
    - _ZSmooth: -0.5
    - _ZWrite: 1
    m_Colors:
    - _Color: {r: 1, g: 1, b: 1, a: 1}
    - _EmissionColor: {r: 0, g: 0, b: 0, a: 1}
    - _HColor: {r: 0.785, g: 0.785, b: 0.785, a: 1}
    - _OutlineColor: {r: 0.007352948, g: 0.0060013034, b: 0.0060013034, a: 1}
    - _SColor: {r: 0.19499996, g: 0.19499996, b: 0.19499996, a: 1}
    - _SpecColor: {r: 0.77205884, g: 0.6698746, b: 0.6698746, a: 1}
