mtllib newgroundA.mtl
o newgroundA.obj
v -105.920883 0.000011 -311.587646
v -64.636795 0.000011 229.315948
v -282.475586 0.000011 -104.229080
v -191.959427 0.000011 47.267075
v -257.460571 0.000011 -188.139481
v -165.217850 0.000011 137.851944
v -183.911835 0.000011 -261.857544
v -247.590530 0.000011 -64.045662
v 105.920883 0.000011 -311.587646
v 64.636795 0.000011 229.315948
v 282.475586 0.000011 -104.229080
v 191.959427 0.000011 47.267075
v 257.460571 0.000011 -188.139481
v 165.217850 0.000011 137.851944
v 183.911835 0.000011 -261.857544
v 247.590530 0.000011 -64.045662
v -178.588638 0.000011 83.378120
v 178.588638 0.000011 83.378120
v -185.274033 0.000011 65.322601
v 185.274033 0.000011 65.322601
v -174.551331 0.000011 99.826508
v 174.551331 0.000011 99.826508
v -19.186359 0.000011 -321.032806
v 19.186359 0.000011 -321.032806
v -19.299786 0.000011 229.315948
v 19.299786 0.000011 229.315948
v -19.298843 0.000011 -101.627312
v 19.298843 0.000011 -101.627312
v -19.299091 0.000011 45.801239
v 19.299091 0.000011 45.801239
v -19.274055 0.000011 -200.451096
v 19.274055 0.000011 -200.451096
v -19.298998 0.000011 139.169937
v 19.298998 0.000011 139.169937
v -19.299732 0.000011 -262.239899
v 19.299732 0.000011 -262.239899
v -19.298697 0.000011 -61.619808
v 19.298697 0.000011 -61.619808
v -28.177685 0.000011 83.750923
v 28.177685 0.000011 83.750923
v -19.299582 0.000011 64.561874
v 19.299582 0.000011 64.561874
v -19.299734 0.000011 100.184647
v 19.299734 0.000011 100.184647
v 0.000000 0.000011 139.169937
v 0.000000 0.000011 229.315948
v 0.000000 0.000011 -200.451096
v 0.000000 0.000011 -101.627312
v 0.000000 0.000011 -61.619808
v 0.000000 0.000011 45.801239
v 0.000000 0.000011 -262.239899
v 0.000000 0.000011 108.377884
v 0.000000 0.000011 -321.032806
v 0.000000 0.000011 56.368637
v 6.367254 0.002011 70.331673
v 6.372782 0.002011 70.334373
v 7.762567 0.002011 71.114784
v 9.217206 0.002011 72.202393
v 10.240436 0.002011 73.103256
v 11.301326 0.002011 74.286476
v 12.228945 0.002011 75.581161
v 13.012383 0.002011 76.976303
v 13.640728 0.002011 78.461082
v 14.103064 0.002011 80.024513
v 14.388472 0.002011 81.655724
v 14.486040 0.002011 83.343781
v 14.388472 0.002011 85.031837
v 14.103064 0.002011 86.663048
v 13.640728 0.002011 88.226479
v 13.012383 0.002011 89.711258
v 12.228945 0.002011 91.106400
v 11.301326 0.002011 92.401085
v 10.240436 0.002011 93.584305
v 9.217206 0.002011 94.485168
v 7.762567 0.002011 95.572777
v 7.757038 0.002011 95.575478
v 6.367254 0.002011 96.355888
v 6.361684 0.002011 96.358612
v 4.882656 0.002011 96.984520
v 3.319227 0.002011 97.446846
v 1.688037 0.002011 97.732246
v -13.012383 0.002011 76.976303
v -12.228945 0.002011 75.581161
v -11.301326 0.002011 74.286476
v -10.240436 0.002011 73.103256
v -9.217206 0.002011 72.202393
v -7.762567 0.002011 71.114784
v -7.757038 0.002011 71.112083
v -6.367254 0.002011 70.331673
v -6.361684 0.002011 70.328949
v -4.882656 0.002011 69.703041
v -3.319227 0.002011 69.240715
v -1.688037 0.002011 68.955315
v -0.000004 0.002011 68.857742
v -14.486040 0.002011 83.343781
v -14.388472 0.002011 85.031837
v -14.103063 0.002011 86.663048
v -13.640728 0.002011 88.226479
v -13.012383 0.002011 89.711258
v -12.228945 0.002011 91.106400
v -11.301326 0.002011 92.401085
v -10.240436 0.002011 93.584305
v -9.217206 0.002011 94.485168
v -7.762567 0.002011 95.572777
v -6.372782 0.002011 96.353188
v -6.367254 0.002011 96.355888
v -4.888226 0.002011 96.981796
v -4.882656 0.002011 96.984520
v -3.319227 0.002011 97.446846
v -1.688037 0.002011 97.732246
v 0.000004 0.002011 97.829819
v 4.888226 0.002011 69.705765
v 4.882656 0.002011 69.703041
v 3.319227 0.002011 69.240715
v 1.688037 0.002011 68.955315
v -13.640728 0.002011 78.461082
v -14.103064 0.002011 80.024513
v -14.388472 0.002011 81.655724
v 0.000000 1.119728 83.343781
v 0.337903 1.104317 80.463577
v 0.000001 1.104317 80.443771
v 0.645307 1.104317 80.516479
v 0.977297 1.104317 80.613510
v 1.274617 1.104317 80.738968
v 1.554140 1.104317 80.895432
v 1.813574 1.104316 81.080856
v 2.050605 1.104316 81.293167
v 2.262925 1.104316 81.530197
v 2.448349 1.104316 81.789627
v 2.604798 1.104316 82.069153
v 2.730285 1.104316 82.366470
v 2.822804 1.104316 82.679428
v 2.880215 1.104316 83.005875
v 2.900000 1.104316 83.343781
v 11.600001 0.415514 83.343781
v 11.520862 0.415514 81.992142
v 11.291221 0.415515 80.686295
v 10.921133 0.415515 79.434555
v 10.419199 0.415515 78.245255
v 9.793418 0.415515 77.127151
v 9.051698 0.415515 76.089401
v 8.202399 0.415515 75.141312
v 7.194893 0.415515 74.232635
v 6.216557 0.415516 73.550339
v 5.067143 0.415516 72.988571
v 3.909186 0.415516 72.422638
v 2.657444 0.415516 72.052567
v 1.351613 0.415516 71.822906
v 0.000003 0.415516 71.743790
v 8.700002 0.710501 83.343781
v 8.640648 0.710501 82.330063
v 8.468420 0.710501 81.350677
v 8.190850 0.710501 80.411865
v 7.814401 0.710501 79.519882
v 7.345056 0.710501 78.681320
v 6.788779 0.710501 77.903000
v 6.151804 0.710502 77.191925
v 5.440724 0.710501 76.554977
v 4.634099 0.710502 76.043320
v 3.823854 0.710502 75.529358
v 2.931892 0.710502 75.152908
v 1.993084 0.710502 74.875351
v 1.013709 0.710502 74.703140
v 0.000002 0.710502 74.643784
v 5.799999 0.942336 83.343781
v 5.760430 0.942336 82.667969
v 5.645612 0.942336 82.015045
v 5.460570 0.942336 81.389175
v 5.209606 0.942336 80.794525
v 4.896709 0.942336 80.235458
v 4.525856 0.942336 79.716599
v 4.101204 0.942337 79.242538
v 3.627157 0.942336 78.817902
v 3.108277 0.942336 78.447067
v 2.549236 0.942337 78.134171
v 1.954594 0.942337 77.883209
v 1.328724 0.942337 77.698166
v 0.675806 0.942337 77.583359
v 0.000001 0.942337 77.543777
v -0.337903 1.104317 80.463577
v -0.645307 1.104317 80.516479
v -0.977297 1.104317 80.613510
v -1.274617 1.104317 80.738968
v -1.554140 1.104317 80.895432
v -1.813574 1.104316 81.080856
v -2.050605 1.104316 81.293167
v -2.262925 1.104316 81.530197
v -2.448349 1.104316 81.789627
v -2.604798 1.104316 82.069153
v -2.730285 1.104316 82.366470
v -2.822804 1.104316 82.679428
v -2.880215 1.104316 83.005875
v -2.900000 1.104316 83.343781
v -11.600001 0.415514 83.343781
v -11.520862 0.415514 81.992142
v -11.291221 0.415515 80.686295
v -10.921133 0.415515 79.434555
v -10.419199 0.415515 78.245255
v -9.793418 0.415515 77.127151
v -9.051698 0.415515 76.089401
v -8.202399 0.415515 75.141312
v -7.194893 0.415515 74.232635
v -6.216557 0.415516 73.550339
v -5.067143 0.415516 72.988571
v -3.909186 0.415516 72.422638
v -2.657444 0.415516 72.052567
v -1.351613 0.415516 71.822906
v -8.700002 0.710501 83.343781
v -8.640648 0.710501 82.330063
v -8.468420 0.710501 81.350677
v -8.190850 0.710501 80.411865
v -7.814401 0.710501 79.519882
v -7.345056 0.710501 78.681320
v -6.788779 0.710501 77.903000
v -6.151804 0.710502 77.191925
v -5.440724 0.710501 76.554977
v -4.634099 0.710502 76.043320
v -3.823854 0.710502 75.529358
v -2.931892 0.710502 75.152908
v -1.993084 0.710502 74.875351
v -1.013709 0.710502 74.703140
v -5.799999 0.942336 83.343781
v -5.760430 0.942336 82.667969
v -5.645612 0.942336 82.015045
v -5.460570 0.942336 81.389175
v -5.209606 0.942336 80.794525
v -4.896709 0.942336 80.235458
v -4.525856 0.942336 79.716599
v -4.101204 0.942337 79.242538
v -3.627157 0.942336 78.817902
v -3.108277 0.942336 78.447067
v -2.549236 0.942337 78.134171
v -1.954594 0.942337 77.883209
v -1.328724 0.942337 77.698166
v -0.675806 0.942337 77.583359
v -0.337903 1.104317 86.223984
v -0.000001 1.104317 86.243790
v -0.645307 1.104317 86.171082
v -0.977297 1.104317 86.074051
v -1.274617 1.104317 85.948593
v -1.554140 1.104317 85.792130
v -1.813574 1.104316 85.606705
v -2.050605 1.104316 85.394394
v -2.262925 1.104316 85.157364
v -2.448349 1.104316 84.897934
v -2.604798 1.104316 84.618408
v -2.730285 1.104316 84.321091
v -2.822804 1.104316 84.008133
v -2.880215 1.104316 83.681686
v -11.520862 0.415514 84.695419
v -11.291221 0.415515 86.001266
v -10.921133 0.415515 87.253006
v -10.419199 0.415515 88.442307
v -9.793418 0.415515 89.560410
v -9.051698 0.415515 90.598160
v -8.202399 0.415515 91.546249
v -7.194893 0.415515 92.454926
v -6.216557 0.415516 93.137222
v -5.067143 0.415516 93.698990
v -3.909186 0.415516 94.264923
v -2.657444 0.415516 94.634995
v -1.351613 0.415516 94.864655
v -0.000003 0.415516 94.943771
v -8.640648 0.710501 84.357498
v -8.468420 0.710501 85.336884
v -8.190850 0.710501 86.275696
v -7.814401 0.710501 87.167679
v -7.345056 0.710501 88.006241
v -6.788779 0.710501 88.784561
v -6.151804 0.710502 89.495636
v -5.440724 0.710501 90.132584
v -4.634099 0.710502 90.644241
v -3.823854 0.710502 91.158203
v -2.931892 0.710502 91.534653
v -1.993084 0.710502 91.812210
v -1.013709 0.710502 91.984421
v -0.000002 0.710502 92.043777
v -5.760430 0.942336 84.019592
v -5.645612 0.942336 84.672516
v -5.460570 0.942336 85.298386
v -5.209606 0.942336 85.893036
v -4.896709 0.942336 86.452103
v -4.525856 0.942336 86.970963
v -4.101204 0.942337 87.445023
v -3.627157 0.942336 87.869659
v -3.108277 0.942336 88.240494
v -2.549236 0.942337 88.553391
v -1.954594 0.942337 88.804352
v -1.328724 0.942337 88.989395
v -0.675806 0.942337 89.104202
v -0.000001 0.942337 89.143784
v 0.337903 1.104317 86.223984
v 0.645307 1.104317 86.171082
v 0.977297 1.104317 86.074051
v 1.274617 1.104317 85.948593
v 1.554140 1.104317 85.792130
v 1.813574 1.104316 85.606705
v 2.050605 1.104316 85.394394
v 2.262925 1.104316 85.157364
v 2.448349 1.104316 84.897934
v 2.604798 1.104316 84.618408
v 2.730285 1.104316 84.321091
v 2.822804 1.104316 84.008133
v 2.880215 1.104316 83.681686
v 11.520862 0.415514 84.695419
v 11.291221 0.415515 86.001266
v 10.921133 0.415515 87.253006
v 10.419199 0.415515 88.442307
v 9.793418 0.415515 89.560410
v 9.051698 0.415515 90.598160
v 8.202399 0.415515 91.546249
v 7.194893 0.415515 92.454926
v 6.216557 0.415516 93.137222
v 5.067143 0.415516 93.698990
v 3.909186 0.415516 94.264923
v 2.657444 0.415516 94.634995
v 1.351613 0.415516 94.864655
v 8.640648 0.710501 84.357498
v 8.468420 0.710501 85.336884
v 8.190850 0.710501 86.275696
v 7.814401 0.710501 87.167679
v 7.345056 0.710501 88.006241
v 6.788779 0.710501 88.784561
v 6.151804 0.710502 89.495636
v 5.440724 0.710501 90.132584
v 4.634099 0.710502 90.644241
v 3.823854 0.710502 91.158203
v 2.931892 0.710502 91.534653
v 1.993084 0.710502 91.812210
v 1.013709 0.710502 91.984421
v 5.760430 0.942336 84.019592
v 5.645612 0.942336 84.672516
v 5.460570 0.942336 85.298386
v 5.209606 0.942336 85.893036
v 4.896709 0.942336 86.452103
v 4.525856 0.942336 86.970963
v 4.101204 0.942337 87.445023
v 3.627157 0.942336 87.869659
v 3.108277 0.942336 88.240494
v 2.549236 0.942337 88.553391
v 1.954594 0.942337 88.804352
v 1.328724 0.942337 88.989395
v 0.675806 0.942337 89.104202
vn 0.000000 1.000000 0.000000
vn 0.000000 1.000000 0.000000
vn 0.000000 1.000000 0.000000
vn 0.000000 1.000000 0.000000
vn 0.000000 1.000000 0.000000
vn 0.000000 1.000000 0.000000
vn 0.000000 1.000000 0.000000
vn 0.000000 1.000000 0.000000
vn 0.000000 1.000000 0.000000
vn 0.000000 1.000000 0.000000
vn 0.000000 1.000000 0.000000
vn 0.000000 1.000000 0.000000
vn 0.000000 1.000000 0.000000
vn 0.000000 1.000000 0.000000
vn 0.000000 1.000000 0.000000
vn 0.000000 1.000000 0.000000
vn 0.000000 1.000000 0.000000
vn 0.000000 1.000000 0.000000
vn 0.000000 1.000000 0.000000
vn 0.000000 1.000000 0.000000
vn 0.000000 1.000000 0.000000
vn 0.000000 1.000000 0.000000
vn 0.000000 1.000000 0.000000
vn 0.000000 1.000000 0.000000
vn 0.000000 1.000000 0.000000
vn 0.000000 1.000000 0.000000
vn 0.000000 1.000000 0.000000
vn 0.000000 1.000000 0.000000
vn 0.000000 1.000000 0.000000
vn 0.000000 1.000000 0.000000
vn 0.000000 1.000000 0.000000
vn 0.000000 1.000000 0.000000
vn 0.000000 1.000000 0.000000
vn 0.000000 1.000000 0.000000
vn 0.000000 1.000000 0.000000
vn 0.000000 1.000000 0.000000
vn 0.000000 1.000000 0.000000
vn 0.000000 1.000000 0.000000
vn -0.000100 1.000000 0.000002
vn 0.000100 1.000000 0.000002
vn -0.000100 1.000000 -0.000110
vn 0.000100 1.000000 -0.000111
vn -0.000111 1.000000 0.000131
vn 0.000111 1.000000 0.000131
vn 0.000000 1.000000 0.000000
vn 0.000000 1.000000 0.000000
vn 0.000000 1.000000 0.000000
vn 0.000000 1.000000 0.000000
vn 0.000000 1.000000 0.000000
vn 0.000000 1.000000 0.000000
vn 0.000000 1.000000 0.000000
vn 0.000000 1.000000 0.000130
vn 0.000000 1.000000 0.000000
vn -0.000000 1.000000 -0.000110
vn 0.030989 0.997514 -0.063291
vn 0.021280 0.998895 -0.041892
vn 0.036331 0.997500 -0.060616
vn 0.044417 0.997449 -0.055874
vn 0.050612 0.997443 -0.050456
vn 0.055608 0.997458 -0.044558
vn 0.060145 0.997460 -0.038163
vn 0.063950 0.997463 -0.031273
vn 0.066996 0.997466 -0.023958
vn 0.069262 0.997466 -0.016273
vn 0.056558 0.998377 -0.006617
vn 0.071150 0.997466 0.000001
vn 0.056585 0.998376 0.006623
vn 0.069284 0.997464 0.016277
vn 0.066984 0.997467 0.023952
vn 0.063915 0.997466 0.031255
vn 0.060109 0.997463 0.038141
vn 0.055590 0.997460 0.044545
vn 0.050478 0.997457 0.050309
vn 0.044716 0.997409 0.056345
vn 0.036778 0.997440 0.061333
vn 0.021310 0.998889 0.042031
vn 0.030954 0.997513 0.063327
vn 0.020013 0.998895 0.042518
vn 0.025095 0.997502 0.066028
vn 0.016282 0.997463 0.069304
vn 0.006624 0.998375 0.056598
vn -0.063908 0.997466 -0.031252
vn -0.060102 0.997463 -0.038136
vn -0.055584 0.997460 -0.044539
vn -0.050471 0.997458 -0.050302
vn -0.044709 0.997410 -0.056336
vn -0.036771 0.997441 -0.061320
vn -0.021300 0.998890 -0.042012
vn -0.030947 0.997514 -0.063312
vn -0.020002 0.998896 -0.042495
vn -0.025087 0.997504 -0.066005
vn -0.016274 0.997465 -0.069267
vn -0.006618 0.998377 -0.056566
vn 0.000001 0.997465 -0.071158
vn -0.071150 0.997466 -0.000001
vn -0.056559 0.998377 0.006620
vn -0.069268 0.997465 0.016274
vn -0.067003 0.997465 0.023960
vn -0.063957 0.997462 0.031276
vn -0.060151 0.997459 0.038167
vn -0.055615 0.997457 0.044564
vn -0.050619 0.997442 0.050463
vn -0.044424 0.997448 0.055883
vn -0.036338 0.997499 0.060627
vn -0.021290 0.998895 0.041912
vn -0.030996 0.997513 0.063309
vn -0.020093 0.998890 0.042602
vn -0.025156 0.997497 0.066086
vn -0.016285 0.997461 0.069321
vn -0.006628 0.998374 0.056623
vn -0.000001 0.997464 0.071173
vn 0.020082 0.998891 -0.042580
vn 0.025148 0.997498 -0.066064
vn 0.016277 0.997464 -0.069284
vn 0.006621 0.998375 -0.056592
vn -0.066978 0.997467 -0.023950
vn -0.069278 0.997465 -0.016275
vn -0.056584 0.998376 -0.006620
vn 0.000000 1.000000 -0.000000
vn 0.003490 0.999533 -0.030351
vn 0.000000 0.999533 -0.030551
vn 0.006885 0.999533 -0.029755
vn 0.010238 0.999533 -0.028775
vn 0.013421 0.999533 -0.027446
vn 0.016370 0.999533 -0.025796
vn 0.019104 0.999533 -0.023841
vn 0.021602 0.999533 -0.021603
vn 0.023842 0.999533 -0.019103
vn 0.025797 0.999533 -0.016368
vn 0.027446 0.999533 -0.013421
vn 0.028768 0.999533 -0.010287
vn 0.029742 0.999533 -0.006988
vn 0.030345 0.999533 -0.003545
vn 0.030551 0.999533 0.000000
vn 0.121523 0.992589 0.000001
vn 0.120672 0.992592 -0.014094
vn 0.118257 0.992594 -0.027785
vn 0.114403 0.992592 -0.040910
vn 0.109187 0.992586 -0.053394
vn 0.102668 0.992580 -0.065144
vn 0.094912 0.992576 -0.076050
vn 0.086197 0.992556 -0.086039
vn 0.074462 0.992638 -0.095522
vn 0.063493 0.992608 -0.103429
vn 0.054710 0.992596 -0.108445
vn 0.042096 0.992649 -0.113475
vn 0.027788 0.992592 -0.118273
vn 0.014098 0.992588 -0.120704
vn 0.000001 0.992589 -0.121523
vn 0.090448 0.995901 0.000000
vn 0.089839 0.995901 -0.010493
vn 0.088053 0.995901 -0.020688
vn 0.085169 0.995901 -0.030455
vn 0.081255 0.995901 -0.039733
vn 0.076373 0.995901 -0.048458
vn 0.070585 0.995901 -0.056557
vn 0.063930 0.995905 -0.063927
vn 0.055321 0.995925 -0.071227
vn 0.048849 0.995837 -0.076962
vn 0.041334 0.995842 -0.081175
vn 0.030455 0.995901 -0.085169
vn 0.020688 0.995901 -0.088053
vn 0.010493 0.995901 -0.089838
vn 0.000000 0.995901 -0.090448
vn 0.067733 0.997703 0.000000
vn 0.067277 0.997703 -0.007858
vn 0.065939 0.997703 -0.015493
vn 0.063780 0.997703 -0.022806
vn 0.060849 0.997703 -0.029755
vn 0.057193 0.997703 -0.036289
vn 0.052859 0.997703 -0.042353
vn 0.047894 0.997703 -0.047895
vn 0.042567 0.997678 -0.053159
vn 0.036504 0.997678 -0.057492
vn 0.029755 0.997703 -0.060849
vn 0.022762 0.997704 -0.063785
vn 0.015398 0.997704 -0.065950
vn 0.007808 0.997703 -0.067283
vn 0.000000 0.997703 -0.067733
vn -0.003492 0.999533 -0.030363
vn -0.006889 0.999533 -0.029776
vn -0.010241 0.999533 -0.028784
vn -0.013421 0.999533 -0.027446
vn -0.016370 0.999533 -0.025795
vn -0.019104 0.999533 -0.023841
vn -0.021602 0.999533 -0.021603
vn -0.023842 0.999533 -0.019103
vn -0.025797 0.999533 -0.016368
vn -0.027446 0.999533 -0.013421
vn -0.028768 0.999533 -0.010287
vn -0.029742 0.999533 -0.006988
vn -0.030345 0.999533 -0.003545
vn -0.030551 0.999533 -0.000000
vn -0.121523 0.992589 -0.000001
vn -0.120704 0.992588 -0.014098
vn -0.118273 0.992592 -0.027788
vn -0.114384 0.992594 -0.040902
vn -0.109146 0.992592 -0.053373
vn -0.102626 0.992586 -0.065118
vn -0.094887 0.992580 -0.076031
vn -0.086084 0.992577 -0.085915
vn -0.075016 0.992513 -0.096384
vn -0.063507 0.992604 -0.103459
vn -0.054250 0.992668 -0.108012
vn -0.042281 0.992581 -0.113994
vn -0.027785 0.992594 -0.118257
vn -0.014094 0.992592 -0.120672
vn -0.090448 0.995901 0.000000
vn -0.089839 0.995901 -0.010493
vn -0.088053 0.995901 -0.020688
vn -0.085169 0.995901 -0.030455
vn -0.081255 0.995901 -0.039733
vn -0.076373 0.995901 -0.048458
vn -0.070585 0.995901 -0.056557
vn -0.063956 0.995901 -0.063957
vn -0.055372 0.995915 -0.071332
vn -0.048389 0.995909 -0.076313
vn -0.041097 0.995864 -0.081033
vn -0.030701 0.995843 -0.085752
vn -0.020688 0.995901 -0.088053
vn -0.010493 0.995901 -0.089838
vn -0.067733 0.997703 -0.000000
vn -0.067277 0.997703 -0.007858
vn -0.065939 0.997703 -0.015493
vn -0.063780 0.997703 -0.022806
vn -0.060849 0.997703 -0.029755
vn -0.057193 0.997703 -0.036289
vn -0.052859 0.997703 -0.042353
vn -0.047894 0.997703 -0.047895
vn -0.042353 0.997703 -0.052859
vn -0.036470 0.997678 -0.057514
vn -0.029935 0.997678 -0.061170
vn -0.022765 0.997703 -0.063795
vn -0.015403 0.997703 -0.065971
vn -0.007810 0.997703 -0.067294
vn -0.003490 0.999533 0.030351
vn -0.000000 0.999533 0.030551
vn -0.006885 0.999533 0.029755
vn -0.010238 0.999533 0.028775
vn -0.013421 0.999533 0.027446
vn -0.016370 0.999533 0.025796
vn -0.019104 0.999533 0.023841
vn -0.021602 0.999533 0.021603
vn -0.023842 0.999533 0.019103
vn -0.025797 0.999533 0.016368
vn -0.027446 0.999533 0.013421
vn -0.028768 0.999533 0.010287
vn -0.029742 0.999533 0.006988
vn -0.030345 0.999533 0.003545
vn -0.120672 0.992592 0.014094
vn -0.118257 0.992594 0.027785
vn -0.114403 0.992592 0.040910
vn -0.109187 0.992586 0.053394
vn -0.102668 0.992580 0.065144
vn -0.094912 0.992576 0.076050
vn -0.086197 0.992556 0.086039
vn -0.074462 0.992638 0.095522
vn -0.063493 0.992608 0.103429
vn -0.054710 0.992596 0.108445
vn -0.042096 0.992649 0.113475
vn -0.027788 0.992592 0.118273
vn -0.014098 0.992588 0.120704
vn -0.000001 0.992589 0.121523
vn -0.089839 0.995901 0.010493
vn -0.088053 0.995901 0.020688
vn -0.085169 0.995901 0.030455
vn -0.081255 0.995901 0.039733
vn -0.076373 0.995901 0.048458
vn -0.070585 0.995901 0.056557
vn -0.063930 0.995905 0.063927
vn -0.055321 0.995925 0.071227
vn -0.048849 0.995837 0.076962
vn -0.041334 0.995842 0.081175
vn -0.030455 0.995901 0.085169
vn -0.020688 0.995901 0.088053
vn -0.010493 0.995901 0.089838
vn -0.000000 0.995901 0.090448
vn -0.067277 0.997703 0.007858
vn -0.065939 0.997703 0.015493
vn -0.063780 0.997703 0.022806
vn -0.060849 0.997703 0.029755
vn -0.057193 0.997703 0.036289
vn -0.052859 0.997703 0.042353
vn -0.047894 0.997703 0.047895
vn -0.042567 0.997678 0.053159
vn -0.036504 0.997678 0.057492
vn -0.029755 0.997703 0.060849
vn -0.022762 0.997704 0.063785
vn -0.015398 0.997704 0.065950
vn -0.007808 0.997703 0.067283
vn -0.000000 0.997703 0.067733
vn 0.003492 0.999533 0.030363
vn 0.006889 0.999533 0.029776
vn 0.010241 0.999533 0.028784
vn 0.013421 0.999533 0.027446
vn 0.016370 0.999533 0.025795
vn 0.019104 0.999533 0.023841
vn 0.021602 0.999533 0.021603
vn 0.023842 0.999533 0.019103
vn 0.025797 0.999533 0.016368
vn 0.027446 0.999533 0.013421
vn 0.028768 0.999533 0.010287
vn 0.029742 0.999533 0.006988
vn 0.030345 0.999533 0.003545
vn 0.120704 0.992588 0.014098
vn 0.118273 0.992592 0.027788
vn 0.114384 0.992594 0.040902
vn 0.109146 0.992592 0.053373
vn 0.102626 0.992586 0.065118
vn 0.094887 0.992580 0.076031
vn 0.086084 0.992577 0.085915
vn 0.075016 0.992513 0.096384
vn 0.063507 0.992604 0.103459
vn 0.054250 0.992668 0.108012
vn 0.042281 0.992581 0.113994
vn 0.027785 0.992594 0.118257
vn 0.014094 0.992592 0.120672
vn 0.089839 0.995901 0.010493
vn 0.088053 0.995901 0.020688
vn 0.085169 0.995901 0.030455
vn 0.081255 0.995901 0.039733
vn 0.076373 0.995901 0.048458
vn 0.070585 0.995901 0.056557
vn 0.063956 0.995901 0.063957
vn 0.055372 0.995915 0.071332
vn 0.048389 0.995909 0.076313
vn 0.041097 0.995864 0.081033
vn 0.030701 0.995843 0.085752
vn 0.020688 0.995901 0.088053
vn 0.010493 0.995901 0.089838
vn 0.067277 0.997703 0.007858
vn 0.065939 0.997703 0.015493
vn 0.063780 0.997703 0.022806
vn 0.060849 0.997703 0.029755
vn 0.057193 0.997703 0.036289
vn 0.052859 0.997703 0.042353
vn 0.047894 0.997703 0.047895
vn 0.042353 0.997703 0.052859
vn 0.036470 0.997678 0.057514
vn 0.029935 0.997678 0.061170
vn 0.022765 0.997703 0.063795
vn 0.015403 0.997703 0.065971
vn 0.007810 0.997703 0.067294
vt 0.386722 0.017746
vt 0.466176 0.017746
vt 0.466178 0.175730
vt 0.210449 0.178040
vt 0.466375 0.982254
vt 0.314369 0.965701
vt 0.177687 0.878547
vt 0.466176 0.879217
vt 0.466178 0.597737
vt 0.004950 0.602297
vt 0.066088 0.531874
vt 0.466178 0.527622
vt 0.048790 0.749353
vt 0.466221 0.770930
vt 0.466176 0.244054
vt 0.194092 0.244681
vt 0.163584 0.336794
vt 0.466178 0.339363
vt 0.789551 0.178040
vt 0.533822 0.175730
vt 0.533824 0.017746
vt 0.613279 0.017746
vt 0.533824 0.879217
vt 0.822313 0.878547
vt 0.685631 0.965701
vt 0.533625 0.982254
vt 0.533822 0.527622
vt 0.933912 0.531874
vt 0.995050 0.602297
vt 0.533822 0.597737
vt 0.533779 0.770930
vt 0.951210 0.749353
vt 0.805908 0.244681
vt 0.533824 0.244054
vt 0.533822 0.339363
vt 0.836416 0.336794
vt 0.450618 0.272854
vt 0.466177 0.306484
vt 0.175300 0.305151
vt 0.187016 0.273508
vt 0.812984 0.273508
vt 0.824700 0.305151
vt 0.533823 0.306484
vt 0.549383 0.272855
vt 0.500000 0.175730
vt 0.500000 0.017746
vt 0.500000 0.770930
vt 0.500000 0.597737
vt 0.500000 0.527622
vt 0.500000 0.339363
vt 0.500000 0.879217
vt 0.500000 0.229695
vt 0.500000 0.982254
vt 0.500000 0.320843
vt 0.500589 0.278584
vt 0.500000 0.278619
vt 0.500000 0.273568
vt 0.501124 0.278492
vt 0.501702 0.278323
vt 0.502220 0.278104
vt 0.502707 0.277832
vt 0.503159 0.277509
vt 0.503572 0.277139
vt 0.503941 0.276726
vt 0.504264 0.276274
vt 0.504537 0.275788
vt 0.504755 0.275270
vt 0.504916 0.274725
vt 0.505016 0.274156
vt 0.505050 0.273568
vt 0.520145 0.275931
vt 0.515086 0.275338
vt 0.515189 0.273568
vt 0.520283 0.273568
vt 0.519743 0.278215
vt 0.514785 0.277048
vt 0.519096 0.280403
vt 0.514301 0.278687
vt 0.518219 0.282483
vt 0.513643 0.280244
vt 0.517124 0.284438
vt 0.512824 0.281708
vt 0.515827 0.286252
vt 0.511853 0.283067
vt 0.514342 0.287910
vt 0.510741 0.284308
vt 0.512581 0.289499
vt 0.509499 0.285420
vt 0.510870 0.290692
vt 0.508091 0.286314
vt 0.508861 0.291675
vt 0.506676 0.287211
vt 0.506836 0.292664
vt 0.505119 0.287868
vt 0.504647 0.293311
vt 0.503480 0.288353
vt 0.502364 0.293713
vt 0.501770 0.288654
vt 0.500000 0.293851
vt 0.500000 0.288757
vt 0.510044 0.274746
vt 0.510113 0.273568
vt 0.509844 0.275884
vt 0.509521 0.276976
vt 0.509084 0.278013
vt 0.508538 0.278987
vt 0.507892 0.279892
vt 0.507151 0.280719
vt 0.506325 0.281459
vt 0.505420 0.282106
vt 0.504445 0.282651
vt 0.503408 0.283089
vt 0.502317 0.283412
vt 0.501179 0.283612
vt 0.500000 0.283681
vt 0.499412 0.278584
vt 0.498876 0.278492
vt 0.498298 0.278323
vt 0.497780 0.278105
vt 0.497294 0.277832
vt 0.496842 0.277509
vt 0.496429 0.277140
vt 0.496059 0.276727
vt 0.495736 0.276275
vt 0.495464 0.275788
vt 0.495245 0.275270
vt 0.495084 0.274725
vt 0.494984 0.274157
vt 0.494950 0.273568
vt 0.479717 0.273568
vt 0.484811 0.273568
vt 0.484914 0.275338
vt 0.479855 0.275932
vt 0.485215 0.277048
vt 0.480257 0.278215
vt 0.485700 0.278687
vt 0.480904 0.280404
vt 0.486357 0.280245
vt 0.481782 0.282483
vt 0.487176 0.281709
vt 0.482876 0.284438
vt 0.488148 0.283067
vt 0.484173 0.286253
vt 0.489260 0.284309
vt 0.485658 0.287910
vt 0.490501 0.285421
vt 0.487420 0.289499
vt 0.491909 0.286314
vt 0.489130 0.290692
vt 0.493324 0.287212
vt 0.491140 0.291675
vt 0.494882 0.287869
vt 0.493165 0.292664
vt 0.496521 0.288353
vt 0.495354 0.293311
vt 0.498231 0.288654
vt 0.497637 0.293713
vt 0.489887 0.273568
vt 0.489956 0.274747
vt 0.490157 0.275885
vt 0.490479 0.276976
vt 0.490917 0.278013
vt 0.491462 0.278988
vt 0.492109 0.279893
vt 0.492849 0.280719
vt 0.493676 0.281460
vt 0.494581 0.282106
vt 0.496592 0.283089
vt 0.495556 0.282652
vt 0.497684 0.283412
vt 0.498822 0.283612
vt 0.499411 0.268552
vt 0.500000 0.268518
vt 0.498876 0.268644
vt 0.498298 0.268813
vt 0.497780 0.269032
vt 0.497293 0.269304
vt 0.496841 0.269627
vt 0.496429 0.269997
vt 0.496059 0.270410
vt 0.495736 0.270862
vt 0.495463 0.271348
vt 0.495245 0.271866
vt 0.495084 0.272411
vt 0.494984 0.272980
vt 0.479855 0.271205
vt 0.484914 0.271798
vt 0.480257 0.268921
vt 0.485215 0.270089
vt 0.480904 0.266733
vt 0.485699 0.268450
vt 0.481782 0.264653
vt 0.486357 0.266892
vt 0.482876 0.262698
vt 0.487176 0.265428
vt 0.484173 0.260884
vt 0.488147 0.264069
vt 0.485658 0.259226
vt 0.489259 0.262828
vt 0.487419 0.257637
vt 0.490501 0.261716
vt 0.489130 0.256444
vt 0.491909 0.260822
vt 0.491139 0.255461
vt 0.493324 0.259925
vt 0.493164 0.254472
vt 0.494881 0.259268
vt 0.495353 0.253825
vt 0.496520 0.258783
vt 0.497636 0.253423
vt 0.498230 0.258482
vt 0.500000 0.253285
vt 0.500000 0.258379
vt 0.489956 0.272390
vt 0.490156 0.271252
vt 0.490479 0.270160
vt 0.490916 0.269124
vt 0.491462 0.268149
vt 0.492109 0.267244
vt 0.492849 0.266417
vt 0.493675 0.265677
vt 0.494580 0.265030
vt 0.495555 0.264485
vt 0.496592 0.264047
vt 0.497683 0.263725
vt 0.498821 0.263524
vt 0.500000 0.263455
vt 0.500588 0.268552
vt 0.501124 0.268644
vt 0.501702 0.268813
vt 0.502220 0.269032
vt 0.502706 0.269304
vt 0.503158 0.269627
vt 0.503571 0.269997
vt 0.503941 0.270409
vt 0.504264 0.270861
vt 0.504536 0.271348
vt 0.504755 0.271866
vt 0.504916 0.272411
vt 0.505016 0.272979
vt 0.515086 0.271798
vt 0.520145 0.271204
vt 0.514785 0.270088
vt 0.519743 0.268921
vt 0.514300 0.268449
vt 0.519096 0.266732
vt 0.513643 0.266891
vt 0.518218 0.264653
vt 0.512824 0.265427
vt 0.517124 0.262698
vt 0.511852 0.264069
vt 0.515827 0.260883
vt 0.510740 0.262827
vt 0.514342 0.259226
vt 0.509499 0.261715
vt 0.512580 0.257637
vt 0.508091 0.260822
vt 0.510870 0.256444
vt 0.506676 0.259925
vt 0.508860 0.255461
vt 0.505118 0.259267
vt 0.506835 0.254472
vt 0.503479 0.258783
vt 0.504646 0.253825
vt 0.501769 0.258482
vt 0.502363 0.253423
vt 0.510044 0.272389
vt 0.509844 0.271251
vt 0.509521 0.270160
vt 0.509083 0.269123
vt 0.508538 0.268148
vt 0.507891 0.267243
vt 0.507151 0.266417
vt 0.506324 0.265676
vt 0.505419 0.265030
vt 0.503408 0.264047
vt 0.504444 0.264484
vt 0.502316 0.263724
vt 0.501178 0.263524
vt 0.525216 0.276526
vt 0.525387 0.273568
vt 0.524716 0.279385
vt 0.523906 0.282125
vt 0.522805 0.284727
vt 0.521432 0.287172
vt 0.519806 0.289441
vt 0.517947 0.291515
vt 0.516154 0.293094
vt 0.513604 0.295000
vt 0.511169 0.296368
vt 0.511159 0.296372
vt 0.508567 0.297469
vt 0.508557 0.297474
vt 0.505817 0.298284
vt 0.502958 0.298784
vt 0.500000 0.298955
vt 0.474613 0.273568
vt 0.474784 0.276526
vt 0.475284 0.279385
vt 0.476094 0.282125
vt 0.477195 0.284727
vt 0.478568 0.287172
vt 0.480194 0.289441
vt 0.482053 0.291515
vt 0.483846 0.293094
vt 0.486396 0.295000
vt 0.486405 0.295005
vt 0.488841 0.296372
vt 0.488851 0.296377
vt 0.491443 0.297474
vt 0.494183 0.298284
vt 0.497042 0.298784
vt 0.474784 0.270610
vt 0.475284 0.267751
vt 0.476094 0.265011
vt 0.477195 0.262409
vt 0.478568 0.259964
vt 0.480194 0.257695
vt 0.482053 0.255621
vt 0.483846 0.254042
vt 0.486396 0.252136
vt 0.488831 0.250769
vt 0.488841 0.250764
vt 0.491433 0.249667
vt 0.491443 0.249662
vt 0.494183 0.248852
vt 0.497042 0.248352
vt 0.500000 0.248181
vt 0.525216 0.270610
vt 0.524716 0.267751
vt 0.523906 0.265011
vt 0.522805 0.262409
vt 0.521432 0.259964
vt 0.519806 0.257695
vt 0.517947 0.255621
vt 0.516154 0.254042
vt 0.513604 0.252136
vt 0.513595 0.252131
vt 0.511159 0.250764
vt 0.511149 0.250759
vt 0.508557 0.249662
vt 0.505817 0.248852
vt 0.502958 0.248352
g Generic
usemtl lambert1
f 2/1/2 25/2/25 33/3/33 6/4/6 
f 23/5/23 1/6/1 7/7/7 35/8/35 
f 27/9/27 3/10/3 8/11/8 37/12/37 
f 5/13/5 3/10/3 27/9/27 31/14/31 
f 33/3/33 43/15/43 21/16/21 6/4/6 
f 7/7/7 5/13/5 31/14/31 35/8/35 
f 8/11/8 4/17/4 29/18/29 37/12/37 
f 14/19/14 34/20/34 26/21/26 10/22/10 
f 36/23/36 15/24/15 9/25/9 24/26/24 
f 38/27/38 16/28/16 11/29/11 28/30/28 
f 32/31/32 28/30/28 11/29/11 13/32/13 
f 14/19/14 22/33/22 44/34/44 34/20/34 
f 36/23/36 32/31/32 13/32/13 15/24/15 
f 38/27/38 30/35/30 12/36/12 16/28/16 
f 39/37/39 41/38/41 19/39/19 17/40/17 
f 18/41/18 20/42/20 42/43/42 40/44/40 
f 41/38/41 29/18/29 4/17/4 19/39/19 
f 20/42/20 12/36/12 30/35/30 42/43/42 
f 43/15/43 39/37/39 17/40/17 21/16/21 
f 22/33/22 18/41/18 40/44/40 44/34/44 
f 26/21/26 34/20/34 45/45/45 46/46/46 
f 28/30/28 32/31/32 47/47/47 48/48/48 
f 30/35/30 38/27/38 49/49/49 50/50/50 
f 32/31/32 36/23/36 51/51/51 47/47/47 
f 34/20/34 44/34/44 52/52/52 45/45/45 
f 36/23/36 24/26/24 53/53/53 51/51/51 
f 38/27/38 28/30/28 48/48/48 49/49/49 
f 42/43/42 30/35/30 50/50/50 54/54/54 
f 45/45/45 33/3/33 25/2/25 46/46/46 
f 47/47/47 31/14/31 27/9/27 48/48/48 
f 49/49/49 37/12/37 29/18/29 50/50/50 
f 51/51/51 35/8/35 31/14/31 47/47/47 
f 52/52/52 43/15/43 33/3/33 45/45/45 
f 53/53/53 23/5/23 35/8/35 51/51/51 
f 48/48/48 27/9/27 37/12/37 49/49/49 
f 50/50/50 29/18/29 41/38/41 54/54/54 
f 120/55/120 121/56/121 119/57/119 
f 122/58/122 120/55/120 119/57/119 
f 123/59/123 122/58/122 119/57/119 
f 124/60/124 123/59/123 119/57/119 
f 125/61/125 124/60/124 119/57/119 
f 126/62/126 125/61/125 119/57/119 
f 127/63/127 126/62/126 119/57/119 
f 128/64/128 127/63/127 119/57/119 
f 129/65/129 128/64/128 119/57/119 
f 130/66/130 129/65/129 119/57/119 
f 131/67/131 130/66/130 119/57/119 
f 132/68/132 131/67/131 119/57/119 
f 133/69/133 132/68/132 119/57/119 
f 134/70/134 133/69/133 119/57/119 
f 136/71/136 151/72/151 150/73/150 135/74/135 
f 137/75/137 152/76/152 151/72/151 136/71/136 
f 138/77/138 153/78/153 152/76/152 137/75/137 
f 139/79/139 154/80/154 153/78/153 138/77/138 
f 140/81/140 155/82/155 154/80/154 139/79/139 
f 141/83/141 156/84/156 155/82/155 140/81/140 
f 142/85/142 157/86/157 156/84/156 141/83/141 
f 143/87/143 158/88/158 157/86/157 142/85/142 
f 144/89/144 159/90/159 158/88/158 143/87/143 
f 145/91/145 160/92/160 159/90/159 144/89/144 
f 146/93/146 161/94/161 160/92/160 145/91/145 
f 147/95/147 162/96/162 161/94/161 146/93/146 
f 148/97/148 163/98/163 162/96/162 147/95/147 
f 149/99/149 164/100/164 163/98/163 148/97/148 
f 151/72/151 166/101/166 165/102/165 150/73/150 
f 152/76/152 167/103/167 166/101/166 151/72/151 
f 153/78/153 168/104/168 167/103/167 152/76/152 
f 154/80/154 169/105/169 168/104/168 153/78/153 
f 155/82/155 170/106/170 169/105/169 154/80/154 
f 156/84/156 171/107/171 170/106/170 155/82/155 
f 157/86/157 172/108/172 171/107/171 156/84/156 
f 158/88/158 173/109/173 172/108/172 157/86/157 
f 159/90/159 174/110/174 173/109/173 158/88/158 
f 175/111/175 160/92/160 161/94/161 176/112/176 
f 162/96/162 177/113/177 176/112/176 161/94/161 
f 163/98/163 178/114/178 177/113/177 162/96/162 
f 164/100/164 179/115/179 178/114/178 163/98/163 
f 166/101/166 133/69/133 134/70/134 165/102/165 
f 167/103/167 132/68/132 133/69/133 166/101/166 
f 168/104/168 131/67/131 132/68/132 167/103/167 
f 169/105/169 130/66/130 131/67/131 168/104/168 
f 170/106/170 129/65/129 130/66/130 169/105/169 
f 171/107/171 128/64/128 129/65/129 170/106/170 
f 172/108/172 127/63/127 128/64/128 171/107/171 
f 173/109/173 126/62/126 127/63/127 172/108/172 
f 174/110/174 125/61/125 126/62/126 173/109/173 
f 175/111/175 124/60/124 125/61/125 174/110/174 
f 176/112/176 123/59/123 124/60/124 175/111/175 
f 177/113/177 122/58/122 123/59/123 176/112/176 
f 178/114/178 120/55/120 122/58/122 177/113/177 
f 179/115/179 121/56/121 120/55/120 178/114/178 
f 160/92/160 175/111/175 174/110/174 159/90/159 
f 119/57/119 121/56/121 180/116/180 
f 119/57/119 180/116/180 181/117/181 
f 119/57/119 181/117/181 182/118/182 
f 119/57/119 182/118/182 183/119/183 
f 119/57/119 183/119/183 184/120/184 
f 119/57/119 184/120/184 185/121/185 
f 119/57/119 185/121/185 186/122/186 
f 119/57/119 186/122/186 187/123/187 
f 119/57/119 187/123/187 188/124/188 
f 119/57/119 188/124/188 189/125/189 
f 119/57/119 189/125/189 190/126/190 
f 119/57/119 190/126/190 191/127/191 
f 119/57/119 191/127/191 192/128/192 
f 119/57/119 192/128/192 193/129/193 
f 194/130/194 208/131/208 209/132/209 195/133/195 
f 195/133/195 209/132/209 210/134/210 196/135/196 
f 196/135/196 210/134/210 211/136/211 197/137/197 
f 197/137/197 211/136/211 212/138/212 198/139/198 
f 198/139/198 212/138/212 213/140/213 199/141/199 
f 199/141/199 213/140/213 214/142/214 200/143/200 
f 200/143/200 214/142/214 215/144/215 201/145/201 
f 201/145/201 215/144/215 216/146/216 202/147/202 
f 202/147/202 216/146/216 217/148/217 203/149/203 
f 203/149/203 217/148/217 218/150/218 204/151/204 
f 204/151/204 218/150/218 219/152/219 205/153/205 
f 205/153/205 219/152/219 220/154/220 206/155/206 
f 206/155/206 220/154/220 221/156/221 207/157/207 
f 207/157/207 221/156/221 164/100/164 149/99/149 
f 208/131/208 222/158/222 223/159/223 209/132/209 
f 209/132/209 223/159/223 224/160/224 210/134/210 
f 210/134/210 224/160/224 225/161/225 211/136/211 
f 211/136/211 225/161/225 226/162/226 212/138/212 
f 212/138/212 226/162/226 227/163/227 213/140/213 
f 213/140/213 227/163/227 228/164/228 214/142/214 
f 214/142/214 228/164/228 229/165/229 215/144/215 
f 215/144/215 229/165/229 230/166/230 216/146/216 
f 216/146/216 230/166/230 231/167/231 217/148/217 
f 233/168/233 219/152/219 218/150/218 232/169/232 
f 219/152/219 233/168/233 234/170/234 220/154/220 
f 220/154/220 234/170/234 235/171/235 221/156/221 
f 221/156/221 235/171/235 179/115/179 164/100/164 
f 222/158/222 193/129/193 192/128/192 223/159/223 
f 223/159/223 192/128/192 191/127/191 224/160/224 
f 224/160/224 191/127/191 190/126/190 225/161/225 
f 225/161/225 190/126/190 189/125/189 226/162/226 
f 226/162/226 189/125/189 188/124/188 227/163/227 
f 227/163/227 188/124/188 187/123/187 228/164/228 
f 228/164/228 187/123/187 186/122/186 229/165/229 
f 229/165/229 186/122/186 185/121/185 230/166/230 
f 230/166/230 185/121/185 184/120/184 231/167/231 
f 231/167/231 184/120/184 183/119/183 232/169/232 
f 232/169/232 183/119/183 182/118/182 233/168/233 
f 233/168/233 182/118/182 181/117/181 234/170/234 
f 234/170/234 181/117/181 180/116/180 235/171/235 
f 235/171/235 180/116/180 121/56/121 179/115/179 
f 217/148/217 231/167/231 232/169/232 218/150/218 
f 236/172/236 237/173/237 119/57/119 
f 238/174/238 236/172/236 119/57/119 
f 239/175/239 238/174/238 119/57/119 
f 240/176/240 239/175/239 119/57/119 
f 241/177/241 240/176/240 119/57/119 
f 242/178/242 241/177/241 119/57/119 
f 243/179/243 242/178/242 119/57/119 
f 244/180/244 243/179/243 119/57/119 
f 245/181/245 244/180/244 119/57/119 
f 246/182/246 245/181/245 119/57/119 
f 247/183/247 246/182/246 119/57/119 
f 248/184/248 247/183/247 119/57/119 
f 249/185/249 248/184/248 119/57/119 
f 193/129/193 249/185/249 119/57/119 
f 250/186/250 264/187/264 208/131/208 194/130/194 
f 251/188/251 265/189/265 264/187/264 250/186/250 
f 252/190/252 266/191/266 265/189/265 251/188/251 
f 253/192/253 267/193/267 266/191/266 252/190/252 
f 254/194/254 268/195/268 267/193/267 253/192/253 
f 255/196/255 269/197/269 268/195/268 254/194/254 
f 256/198/256 270/199/270 269/197/269 255/196/255 
f 257/200/257 271/201/271 270/199/270 256/198/256 
f 258/202/258 272/203/272 271/201/271 257/200/257 
f 259/204/259 273/205/273 272/203/272 258/202/258 
f 260/206/260 274/207/274 273/205/273 259/204/259 
f 261/208/261 275/209/275 274/207/274 260/206/260 
f 262/210/262 276/211/276 275/209/275 261/208/261 
f 263/212/263 277/213/277 276/211/276 262/210/262 
f 264/187/264 278/214/278 222/158/222 208/131/208 
f 265/189/265 279/215/279 278/214/278 264/187/264 
f 266/191/266 280/216/280 279/215/279 265/189/265 
f 267/193/267 281/217/281 280/216/280 266/191/266 
f 268/195/268 282/218/282 281/217/281 267/193/267 
f 269/197/269 283/219/283 282/218/282 268/195/268 
f 270/199/270 284/220/284 283/219/283 269/197/269 
f 271/201/271 285/221/285 284/220/284 270/199/270 
f 272/203/272 286/222/286 285/221/285 271/201/271 
f 287/223/287 273/205/273 274/207/274 288/224/288 
f 275/209/275 289/225/289 288/224/288 274/207/274 
f 276/211/276 290/226/290 289/225/289 275/209/275 
f 277/213/277 291/227/291 290/226/290 276/211/276 
f 278/214/278 249/185/249 193/129/193 222/158/222 
f 279/215/279 248/184/248 249/185/249 278/214/278 
f 280/216/280 247/183/247 248/184/248 279/215/279 
f 281/217/281 246/182/246 247/183/247 280/216/280 
f 282/218/282 245/181/245 246/182/246 281/217/281 
f 283/219/283 244/180/244 245/181/245 282/218/282 
f 284/220/284 243/179/243 244/180/244 283/219/283 
f 285/221/285 242/178/242 243/179/243 284/220/284 
f 286/222/286 241/177/241 242/178/242 285/221/285 
f 287/223/287 240/176/240 241/177/241 286/222/286 
f 288/224/288 239/175/239 240/176/240 287/223/287 
f 289/225/289 238/174/238 239/175/239 288/224/288 
f 290/226/290 236/172/236 238/174/238 289/225/289 
f 291/227/291 237/173/237 236/172/236 290/226/290 
f 273/205/273 287/223/287 286/222/286 272/203/272 
f 119/57/119 237/173/237 292/228/292 
f 119/57/119 292/228/292 293/229/293 
f 119/57/119 293/229/293 294/230/294 
f 119/57/119 294/230/294 295/231/295 
f 119/57/119 295/231/295 296/232/296 
f 119/57/119 296/232/296 297/233/297 
f 119/57/119 297/233/297 298/234/298 
f 119/57/119 298/234/298 299/235/299 
f 119/57/119 299/235/299 300/236/300 
f 119/57/119 300/236/300 301/237/301 
f 119/57/119 301/237/301 302/238/302 
f 119/57/119 302/238/302 303/239/303 
f 119/57/119 303/239/303 304/240/304 
f 119/57/119 304/240/304 134/70/134 
f 135/74/135 150/73/150 318/241/318 305/242/305 
f 305/242/305 318/241/318 319/243/319 306/244/306 
f 306/244/306 319/243/319 320/245/320 307/246/307 
f 307/246/307 320/245/320 321/247/321 308/248/308 
f 308/248/308 321/247/321 322/249/322 309/250/309 
f 309/250/309 322/249/322 323/251/323 310/252/310 
f 310/252/310 323/251/323 324/253/324 311/254/311 
f 311/254/311 324/253/324 325/255/325 312/256/312 
f 312/256/312 325/255/325 326/257/326 313/258/313 
f 313/258/313 326/257/326 327/259/327 314/260/314 
f 314/260/314 327/259/327 328/261/328 315/262/315 
f 315/262/315 328/261/328 329/263/329 316/264/316 
f 316/264/316 329/263/329 330/265/330 317/266/317 
f 317/266/317 330/265/330 277/213/277 263/212/263 
f 150/73/150 165/102/165 331/267/331 318/241/318 
f 318/241/318 331/267/331 332/268/332 319/243/319 
f 319/243/319 332/268/332 333/269/333 320/245/320 
f 320/245/320 333/269/333 334/270/334 321/247/321 
f 321/247/321 334/270/334 335/271/335 322/249/322 
f 322/249/322 335/271/335 336/272/336 323/251/323 
f 323/251/323 336/272/336 337/273/337 324/253/324 
f 324/253/324 337/273/337 338/274/338 325/255/325 
f 325/255/325 338/274/338 339/275/339 326/257/326 
f 341/276/341 328/261/328 327/259/327 340/277/340 
f 328/261/328 341/276/341 342/278/342 329/263/329 
f 329/263/329 342/278/342 343/279/343 330/265/330 
f 330/265/330 343/279/343 291/227/291 277/213/277 
f 165/102/165 134/70/134 304/240/304 331/267/331 
f 331/267/331 304/240/304 303/239/303 332/268/332 
f 332/268/332 303/239/303 302/238/302 333/269/333 
f 333/269/333 302/238/302 301/237/301 334/270/334 
f 334/270/334 301/237/301 300/236/300 335/271/335 
f 335/271/335 300/236/300 299/235/299 336/272/336 
f 336/272/336 299/235/299 298/234/298 337/273/337 
f 337/273/337 298/234/298 297/233/297 338/274/338 
f 338/274/338 297/233/297 296/232/296 339/275/339 
f 339/275/339 296/232/296 295/231/295 340/277/340 
f 340/277/340 295/231/295 294/230/294 341/276/341 
f 341/276/341 294/230/294 293/229/293 342/278/342 
f 342/278/342 293/229/293 292/228/292 343/279/343 
f 343/279/343 292/228/292 237/173/237 291/227/291 
f 326/257/326 339/275/339 340/277/340 327/259/327 
f 65/280/65 136/71/136 135/74/135 66/281/66 
f 64/282/64 137/75/137 136/71/136 65/280/65 
f 63/283/63 138/77/138 137/75/137 64/282/64 
f 62/284/62 139/79/139 138/77/138 63/283/63 
f 61/285/61 140/81/140 139/79/139 62/284/62 
f 60/286/60 141/83/141 140/81/140 61/285/61 
f 59/287/59 142/85/142 141/83/141 60/286/60 
f 58/288/58 143/87/143 142/85/142 59/287/59 
f 57/289/57 144/89/144 143/87/143 58/288/58 
f 56/290/56 55/291/55 145/91/145 144/89/144 57/289/57 
f 112/292/112 113/293/113 146/93/146 145/91/145 55/291/55 
f 114/294/114 147/95/147 146/93/146 113/293/113 
f 115/295/115 148/97/148 147/95/147 114/294/114 
f 94/296/94 149/99/149 148/97/148 115/295/115 
f 95/297/95 194/130/194 195/133/195 118/298/118 
f 118/298/118 195/133/195 196/135/196 117/299/117 
f 117/299/117 196/135/196 197/137/197 116/300/116 
f 116/300/116 197/137/197 198/139/198 82/301/82 
f 82/301/82 198/139/198 199/141/199 83/302/83 
f 83/302/83 199/141/199 200/143/200 84/303/84 
f 84/303/84 200/143/200 201/145/201 85/304/85 
f 85/304/85 201/145/201 202/147/202 86/305/86 
f 86/305/86 202/147/202 203/149/203 87/306/87 
f 88/307/88 87/306/87 203/149/203 204/151/204 89/308/89 
f 90/309/90 89/308/89 204/151/204 205/153/205 91/310/91 
f 91/310/91 205/153/205 206/155/206 92/311/92 
f 92/311/92 206/155/206 207/157/207 93/312/93 
f 93/312/93 207/157/207 149/99/149 94/296/94 
f 96/313/96 250/186/250 194/130/194 95/297/95 
f 97/314/97 251/188/251 250/186/250 96/313/96 
f 98/315/98 252/190/252 251/188/251 97/314/97 
f 99/316/99 253/192/253 252/190/252 98/315/98 
f 100/317/100 254/194/254 253/192/253 99/316/99 
f 101/318/101 255/196/255 254/194/254 100/317/100 
f 102/319/102 256/198/256 255/196/255 101/318/101 
f 103/320/103 257/200/257 256/198/256 102/319/102 
f 104/321/104 258/202/258 257/200/257 103/320/103 
f 105/322/105 106/323/106 259/204/259 258/202/258 104/321/104 
f 107/324/107 108/325/108 260/206/260 259/204/259 106/323/106 
f 109/326/109 261/208/261 260/206/260 108/325/108 
f 110/327/110 262/210/262 261/208/261 109/326/109 
f 111/328/111 263/212/263 262/210/262 110/327/110 
f 66/281/66 135/74/135 305/242/305 67/329/67 
f 67/329/67 305/242/305 306/244/306 68/330/68 
f 68/330/68 306/244/306 307/246/307 69/331/69 
f 69/331/69 307/246/307 308/248/308 70/332/70 
f 70/332/70 308/248/308 309/250/309 71/333/71 
f 71/333/71 309/250/309 310/252/310 72/334/72 
f 72/334/72 310/252/310 311/254/311 73/335/73 
f 73/335/73 311/254/311 312/256/312 74/336/74 
f 74/336/74 312/256/312 313/258/313 75/337/75 
f 76/338/76 75/337/75 313/258/313 314/260/314 77/339/77 
f 78/340/78 77/339/77 314/260/314 315/262/315 79/341/79 
f 79/341/79 315/262/315 316/264/316 80/342/80 
f 80/342/80 316/264/316 317/266/317 81/343/81 
f 81/343/81 317/266/317 263/212/263 111/328/111 
f 101/318/101 100/317/100 43/15/43 
f 100/317/100 99/316/99 43/15/43 
f 99/316/99 98/315/98 43/15/43 
f 98/315/98 97/314/97 43/15/43 
f 97/314/97 96/313/96 43/15/43 
f 43/15/43 96/313/96 39/37/39 
f 43/15/43 52/52/52 110/327/110 
f 110/327/110 109/326/109 43/15/43 
f 109/326/109 108/325/108 43/15/43 
f 108/325/108 107/324/107 43/15/43 
f 107/324/107 106/323/106 43/15/43 
f 106/323/106 105/322/105 43/15/43 
f 105/322/105 104/321/104 43/15/43 
f 104/321/104 103/320/103 43/15/43 
f 103/320/103 102/319/102 43/15/43 
f 102/319/102 101/318/101 43/15/43 
f 44/34/44 40/44/40 67/329/67 
f 67/329/67 68/330/68 44/34/44 
f 68/330/68 69/331/69 44/34/44 
f 69/331/69 70/332/70 44/34/44 
f 70/332/70 71/333/71 44/34/44 
f 71/333/71 72/334/72 44/34/44 
f 72/334/72 73/335/73 44/34/44 
f 73/335/73 74/336/74 44/34/44 
f 74/336/74 75/337/75 44/34/44 
f 75/337/75 76/338/76 44/34/44 
f 76/338/76 77/339/77 44/34/44 
f 77/339/77 78/340/78 44/34/44 
f 78/340/78 79/341/79 44/34/44 
f 79/341/79 80/342/80 44/34/44 
f 80/342/80 81/343/81 44/34/44 
f 44/34/44 81/343/81 52/52/52 
f 55/291/55 56/290/56 42/43/42 
f 56/290/56 57/289/57 42/43/42 
f 57/289/57 58/288/58 42/43/42 
f 58/288/58 59/287/59 42/43/42 
f 59/287/59 60/286/60 42/43/42 
f 60/286/60 61/285/61 42/43/42 
f 61/285/61 62/284/62 42/43/42 
f 62/284/62 63/283/63 42/43/42 
f 63/283/63 64/282/64 42/43/42 
f 64/282/64 65/280/65 42/43/42 
f 42/43/42 65/280/65 40/44/40 
f 42/43/42 54/54/54 115/295/115 
f 115/295/115 114/294/114 42/43/42 
f 114/294/114 113/293/113 42/43/42 
f 113/293/113 112/292/112 42/43/42 
f 112/292/112 55/291/55 42/43/42 
f 82/301/82 83/302/83 41/38/41 
f 83/302/83 84/303/84 41/38/41 
f 84/303/84 85/304/85 41/38/41 
f 85/304/85 86/305/86 41/38/41 
f 86/305/86 87/306/87 41/38/41 
f 87/306/87 88/307/88 41/38/41 
f 88/307/88 89/308/89 41/38/41 
f 89/308/89 90/309/90 41/38/41 
f 90/309/90 91/310/91 41/38/41 
f 91/310/91 92/311/92 41/38/41 
f 92/311/92 93/312/93 41/38/41 
f 41/38/41 93/312/93 54/54/54 
f 41/38/41 39/37/39 118/298/118 
f 118/298/118 117/299/117 41/38/41 
f 117/299/117 116/300/116 41/38/41 
f 116/300/116 82/301/82 41/38/41 
f 40/44/40 66/281/66 67/329/67 
f 65/280/65 66/281/66 40/44/40 
f 52/52/52 111/328/111 110/327/110 
f 81/343/81 111/328/111 52/52/52 
f 93/312/93 94/296/94 54/54/54 
f 54/54/54 94/296/94 115/295/115 
f 96/313/96 95/297/95 39/37/39 
f 39/37/39 95/297/95 118/298/118 
