%YAML 1.1
%TAG !u! tag:unity3d.com,2011:
--- !u!21 &2100000
Material:
  serializedVersion: 6
  m_ObjectHideFlags: 0
  m_CorrespondingSourceObject: {fileID: 0}
  m_PrefabInternal: {fileID: 0}
  m_Name: Stencil_01_TableInside
  m_Shader: {fileID: 4800000, guid: a956924bd6a8ae44ca741bc69e575fe3, type: 3}
  m_ShaderKeywords: 
  m_LightmapFlags: 5
  m_EnableInstancingVariants: 1
  m_DoubleSidedGI: 0
  m_CustomRenderQueue: 2200
  stringTagMap: {}
  disabledShaderPasses: []
  m_SavedProperties:
    serializedVersion: 3
    m_TexEnvs:
    - _MainTex:
        m_Texture: {fileID: 2800000, guid: 5c794a75868aa7c489e0d7d2b1bf4ddf, type: 3}
        m_Scale: {x: 1, y: 1}
        m_Offset: {x: 0, y: 0}
    m_Floats:
    - _CullMode: 2
    - _Stencil: 1
    - _StencilComp: 6
    - _StencilOp: 0
    - _StencilReadMask: 255
    - _StencilReferenceID: 2
    - _StencilWriteMask: 255
    m_Colors:
    - _Color: {r: 1, g: 1, b: 1, a: 1}
