%YAML 1.1
%TAG !u! tag:unity3d.com,2011:
--- !u!21 &2100000
Material:
  serializedVersion: 6
  m_ObjectHideFlags: 0
  m_CorrespondingSourceObject: {fileID: 0}
  m_PrefabInternal: {fileID: 0}
  m_Name: Stencil_01_DiffuseTransparent
  m_Shader: {fileID: 4800000, guid: 797ee553737eda34d9e887d2710a48c8, type: 3}
  m_ShaderKeywords: 
  m_LightmapFlags: 5
  m_EnableInstancingVariants: 1
  m_DoubleSidedGI: 0
  m_CustomRenderQueue: 3000
  stringTagMap: {}
  disabledShaderPasses: []
  m_SavedProperties:
    serializedVersion: 3
    m_TexEnvs:
    - _MainTex:
        m_Texture: {fileID: 2800000, guid: e664295ac6a8d1d499e334bb110923b1, type: 3}
        m_Scale: {x: 1, y: 1}
        m_Offset: {x: 0, y: 0}
    m_Floats:
    - _Stencil: 1
    - _StencilComp: 3
    - _StencilOp: 0
    - _StencilReadMask: 255
    - _StencilReferenceID: 1
    - _StencilWriteMask: 255
    m_Colors:
    - _Color: {r: 0.8507463, g: 0, b: 0.80315214, a: 0.49803922}
