04-07 15:37:11.596  3076  3093 I Unity   : SceneChanger:GoToScene(String, Single) (at M:\UnityProjects\ViewerReady\TotallyBaseball\PitchHit\Assets\_App\Scripts\GameControllers\SceneChanger.cs:55)
04-07 15:37:11.596  3076  3093 I Unity   : SceneChanger:GoToScene(String) (at M:\UnityProjects\ViewerReady\TotallyBaseball\PitchHit\Assets\_App\Scripts\GameControllers\SceneChanger.cs:198
04-07 15:37:11.600  3076  3093 I Unity   : before async 16.57252
04-07 15:37:11.600  3076  3093 I Unity   : UnityEngine.DebugLogHandler:Internal_Log(LogType, String, Object)
04-07 15:37:11.600  3076  3093 I Unity   : UnityEngine.DebugLogHandler:LogFormat(LogType, Object, String, Object[])
04-07 15:37:11.600  3076  3093 I Unity   : UnityEngine.Logger:Log(LogType, Object)
04-07 15:37:11.600  3076  3093 I Unity   : UnityEngine.Debug:Log(Object)
04-07 15:37:11.600  3076  3093 I Unity   : <OculusSceneChange>c__Iterator0:MoveNext() (at M:\UnityProjects\ViewerReady\TotallyBaseball\PitchHit\Assets\_App\Scripts\GameControllers\SceneChanger.cs:137)
04-07 15:37:11.600  3076  3093 I Unity   : UnityEngine.SetupCoroutine:InvokeMoveNext(IEnumerator, IntPtr) (at /Users/builduser/buildslave/unity/build/Runtime/Export/Coroutines.cs:17)
04-07 15:37:11.600  3076  3093 I Unity   : UnityEngine.MonoBehaviour:StartCoroutineManaged2(IEnumerator)
04-07 15:37:11.600  3076  3093 I Unity   : UnityEngine.MonoBehaviour:StartCoroutine(IEnumerator) (at /Users/builduser/buildslave/unity/build/Runtime/Export/MonoBehaviour.bindings.cs:90)
04-07 15:37:11.600  3076  3093 I Unity   : SceneChanger:GoToScene(String, Single) (at M:\UnityProjects\ViewerReady\TotallyBaseball\PitchHit\Assets\_App\Scripts\GameControllers\SceneChanger.cs:55)
04-07 15:37:11.600  3076  3093 I Unity   : SceneChanger:GoToScene(String) (at M:\UnityProjects\ViewerReady\TotallyBaseball\PitchHit\Assets\_App\Scripts\GameControllers\SceneChange
04-07 15:37:16.808  3076  3123 E Unity   : OPENGL NATIVE PLUG-IN ERROR: GL_OUT_OF_MEMORY: Not enough memory left to execute command
04-07 15:37:16.869  3076  3123 E Unity   : OPENGL NATIVE PLUG-IN ERROR: GL_OUT_OF_MEMORY: Not enough memory left to execute command
04-07 15:37:16.926  3076  3123 E Unity   : OPENGL NATIVE PLUG-IN ERROR: GL_OUT_OF_MEMORY: Not enough memory left to execute command
04-07 15:37:17.736  3076  3137 D Unity   : Could not allocate memory: System out of memory!
04-07 15:37:17.736  3076  3137 D Unity   : Trying to allocate: 5595140B with 16 alignment. MemoryLabel: Texture
04-07 15:37:17.736  3076  3137 D Unity   : Allocation happened at: Line:551 in ./Runtime/Utilities/dynamic_array.h
04-07 15:37:17.736  3076  3137 D Unity   : Memory overview
04-07 15:37:17.736  3076  3137 D Unity   :
04-07 15:37:17.736  3076  3137 D Unity   : [ ALLOC_DEFAULT ] used: 198267788B | peak: 253750074B | reserved: 202844018B
04-07 15:37:17.736  3076  3137 D Unity   : [ ALLOC_TEMP_JOB ] used: 481652B | peak: 0B | reserved: 1310720B
04-07 15:37:17.736  3076  3137 D Unity   : [ ALLOC_TEMP_BACKGROUND_JOB ] used: 0B | peak: 0B | reserved: 1048576B
04-07 15:37:17.736  3076  3137 D Unity   : [ ALLOC_GAMEOBJECT ] used: 4745088B | peak: 4798116B | reserved: 5012658B
04-07 15:37:17.736  3076  3137 D Unity   : [ ALLOC_GFX ] used: 1113280702B | peak: 1113280702B | reserved: 1113316909B
04-07 15:37:17.736  3076  3137 D Unity   : [ ALLOC_PROFILER ] used: 2002670B | peak: 2006914B | reserved: 2066579B
04-07 15:37:17.736  3076  3137 D Unity   : [ ALLOC_TEMP_THREAD ] used: 95928B | peak: 0B | reserved: 3440640B
04-07 15:37:17.755  3076  3137 E Unity   : Could not allocate memory: System out of memory!
04-07 15:37:17.755  3076  3137 E Unity   : Trying to allocate: 5595140B with 16 alignment. MemoryLabel: Texture
04-07 15:37:17.755  3076  3137 E Unity   : Allocation happened at: Line:551 in ./Runtime/Utilities/dynamic_array.h
04-07 15:37:17.755  3076  3137 E Unity   : Memory overview
04-07 15:37:17.755  3076  3137 E Unity   :
04-07 15:37:17.755  3076  3137 E Unity   : [ ALLOC_DEFAULT ] used: 198267788B | peak: 253750074B | reserved: 202844018B
04-07 15:37:17.755  3076  3137 E Unity   : [ ALLOC_TEMP_JOB ] used: 481652B | peak: 0B | reserved: 1310720B
04-07 15:37:17.755  3076  3137 E Unity   : [ ALLOC_TEMP_BACKGROUND_JOB ] used: 0B | peak: 0B | reserved: 1048576B
04-07 15:37:17.755  3076  3137 E Unity   : [ ALLOC_GAMEOBJECT ] used: 4745088B | peak: 4798116B | reserved: 5012658B
04-07 15:37:17.755  3076  3137 E Unity   : [ ALLOC_GFX ] used: 1113280702B | peak: 1113280702B | reserved: 1113316909B
04-07 15:37:17.755  3076  3137 E Unity   : [ ALLOC_PROFILER ] used: 2002670B | peak: 2006914B | reserved: 2066579B
04-07 15:37:17.755  3076  3137 E Unity   : [ ALLOC_TEMP_THREAD ] used: 95928B | peak: 0B | reserved: 3440640B
04-07 15:37:17.755  3076  3137 E Unity   :
04-07 15:37:17.755  3076  3137 E Unity   :
04-07 15:37:17.755  3076  3137 E Unity   : (Filename: /Users/builduser/buildslave/unity/build/Runtime/Allocator/MemoryManager.cpp Line: 1114)
04-07 15:37:17.755  3076  3137 E Unity   :
04-07 15:37:17.784  3076  3123 E Unity   : OPENGL NATIVE PLUG-IN ERROR: GL_OUT_OF_MEMORY: Not enough memory left to execute command
04-07 15:37:20.570  3076  3108 E Unity   : java.net.UnknownHostException: Unable to resolve host "cdp.cloud.unity3d.com": No address associated with hostname
04-07 15:37:20.570  3076  3108 E Unity   :
04-07 15:37:20.570  3076  3108 E Unity   : (Filename: /Users/builduser/buildslave/unity/build/Platforms/Android/Modules/UnityWebRequest/Transports/TransportAndroid.cpp Line: 432)
04-07 15:37:20.570  3076  3108 E Unity   :
04-07 15:37:20.675  3076  3123 E Unity   : OPENGL NATIVE PLUG-IN ERROR: GL_OUT_OF_MEMORY: Not enough memory left to execute command