%YAML 1.1
%TAG !u! tag:unity3d.com,2011:
--- !u!114 &11400000
MonoBehaviour:
  m_ObjectHideFlags: 0
  m_CorrespondingSourceObject: {fileID: 0}
  m_PrefabInstance: {fileID: 0}
  m_PrefabAsset: {fileID: 0}
  m_GameObject: {fileID: 0}
  m_Enabled: 1
  m_EditorHideFlags: 0
  m_Script: {fileID: 11500000, guid: 499378acfe812ca4f90bd83d4e58592f, type: 3}
  m_Name: 02 - Tamargo
  m_EditorClassIdentifier: 
  fullName: GREG TOM
  jerseyName: GREG
  jerseyNumber: 10
  height: 5'8"
  weight: 170lbs.
  bio: 'Son of Cuban baseball legend, also a pro player in the Gaelic sport of Hurling. '
  hometown: Richmond, VA
  playerPortrait: {fileID: 2800000, guid: c88e2285a1377f6419d3c4b4004420a1, type: 3}
  jerseyNameNumber: {fileID: 21300000, guid: a39173a00cae397499912ded427be8c8, type: 3}
  position: 8
  hairMesh: {fileID: 4300010, guid: 370f2637e136a3148b374f84adbb2843, type: 3}
  hairColor: {r: 0, g: 0, b: 0, a: 1}
  isManly: 0
  skinColor: {r: 0.8862745, g: 0.64705884, b: 0.3764706, a: 1}
  runSpeedDefense: 6
  throwSpeed: 30
  fumbleChance: 0
  chestHeight: 1.5
  armLength: 1
  pitchSpeed: 40
  pitchStrikeChance: 1
  runSpeedOffense: 7
  missSwing: 0.5
  swingAtBalls: 0
  swingAtStrikes: 1
  homeRunChance: 0
  foulChance: 0
  powerRange: {x: 20, y: 35}
