%YAML 1.1
%TAG !u! tag:unity3d.com,2011:
--- !u!21 &2100000
Material:
  serializedVersion: 6
  m_ObjectHideFlags: 0
  m_CorrespondingSourceObject: {fileID: 0}
  m_PrefabInternal: {fileID: 0}
  m_Name: Stencil_02_Diffuse
  m_Shader: {fileID: 4800000, guid: a956924bd6a8ae44ca741bc69e575fe3, type: 3}
  m_ShaderKeywords: 
  m_LightmapFlags: 5
  m_EnableInstancingVariants: 1
  m_DoubleSidedGI: 0
  m_CustomRenderQueue: 2000
  stringTagMap: {}
  disabledShaderPasses: []
  m_SavedProperties:
    serializedVersion: 3
    m_TexEnvs:
    - _BumpMap:
        m_Texture: {fileID: 2800000, guid: 3abd58cbe52f6354fb1a1e20807a4f60, type: 3}
        m_Scale: {x: 1, y: 1}
        m_Offset: {x: 0, y: 0}
    - _MainTex:
        m_Texture: {fileID: 2800000, guid: 1bcbacf71a3ca3848994da2a11c13fbd, type: 3}
        m_Scale: {x: 1, y: 1}
        m_Offset: {x: 0, y: 0}
    m_Floats:
    - _CullMode: 2
    - _Shininess: 0.078125
    - _Stencil: 2
    - _StencilComp: 3
    - _StencilOp: 0
    - _StencilReadMask: 255
    - _StencilReferenceID: 2
    - _StencilWriteMask: 255
    m_Colors:
    - _Color: {r: 0.7835821, g: 0.77867496, b: 0.43272442, a: 1}
    - _SpecColor: {r: 0.5, g: 0.5, b: 0.5, a: 1}
