%YAML 1.1
%TAG !u! tag:unity3d.com,2011:
--- !u!78 &1
TagManager:
  serializedVersion: 2
  tags:
  - pickupAble
  - bullet
  - floor
  - wall
  - Fader
  - dontmove
  - listlast
  - helmet
  - cap
  - ball
  - bat
  - CameraVR
  - ground
  - TeleportTrigger
  - FxTemporaire
  - Glove
  - Hoop
  - Prop
  - bat_body
  - shatterable
  - ball_in_use
  - lights
  - sign
  - stands
  - target
  - Offense
  - Defense
  - mask
  - torso
  - head
  layers:
  - Default
  - TransparentFX
  - Ignore Raycast
  - 
  - Water
  - UI
  - 
  - 
  - IgnoreBlobShadows
  - MonitorOnly
  - 
  - Player
  - SpectatorOnly
  - PlayerOnly
  - Wall
  - TeleportPoints
  - DemoUI
  - Button
  - Bat
  - Glove
  - ActiveBalls
  - Ground
  - ButtonPusher
  - Menu
  - Words
  - Ball
  - WordsHolder
  - FieldPlayer
  - FieldBase
  - FieldPlayer_Spacer
  - RenderTextureLayer
  - 
  m_SortingLayers:
  - name: Default
    uniqueID: 0
    locked: 0
  - name: New Layer
    uniqueID: 2306256177
    locked: 0
