%YAML 1.1
%TAG !u! tag:unity3d.com,2011:
--- !u!21 &2100000
Material:
  serializedVersion: 6
  m_ObjectHideFlags: 0
  m_CorrespondingSourceObject: {fileID: 0}
  m_PrefabInternal: {fileID: 0}
  m_Name: TCP2_Demo_Robot_Subsurface
  m_Shader: {fileID: 4800000, guid: 89d14b6e7418de84eb624cbf18d4de37, type: 3}
  m_ShaderKeywords: TCP2_DISABLE_WRAPPED_LIGHT TCP2_TANGENT_AS_NORMALS _EMISSION
  m_LightmapFlags: 1
  m_EnableInstancingVariants: 1
  m_DoubleSidedGI: 0
  m_CustomRenderQueue: -1
  stringTagMap: {}
  disabledShaderPasses: []
  m_SavedProperties:
    serializedVersion: 3
    m_TexEnvs:
    - _BumpMap:
        m_Texture: {fileID: 0}
        m_Scale: {x: 1, y: 1}
        m_Offset: {x: 0, y: 0}
    - _DissolveMap:
        m_Texture: {fileID: 0}
        m_Scale: {x: 1, y: 1}
        m_Offset: {x: 0, y: 0}
    - _DissolveRamp:
        m_Texture: {fileID: 2800000, guid: 948e1b7327c293a4081ba3c18eaab19f, type: 3}
        m_Scale: {x: 1, y: 1}
        m_Offset: {x: 0, y: 0}
    - _MainTex:
        m_Texture: {fileID: 0}
        m_Scale: {x: 1, y: 1}
        m_Offset: {x: 0, y: 0}
    - _Mask1:
        m_Texture: {fileID: 2800000, guid: 2fb9975c379e44e44b7abcf981468c32, type: 3}
        m_Scale: {x: 1, y: 1}
        m_Offset: {x: 0, y: 0}
    - _Ramp:
        m_Texture: {fileID: 2800000, guid: f7efee5cdbe39254082e87a9ddcf42e4, type: 3}
        m_Scale: {x: 1, y: 1}
        m_Offset: {x: 0, y: 0}
    - _SketchTex:
        m_Texture: {fileID: 2800000, guid: a0d03d906b6264d4c8c02b0ffd7bc8c2, type: 3}
        m_Scale: {x: 10, y: 10}
        m_Offset: {x: 0, y: 0}
    m_Floats:
    - _DissolveGradientWidth: 0.2
    - _DissolveValue: 0.5
    - _EnableConstSizeOutline: 0
    - _EnableTexturedOutline: 0
    - _EnableZSmooth: 0
    - _HSV_H: 180
    - _HSV_S: 0
    - _HSV_V: 0
    - _Offset1: 0
    - _Offset2: 0
    - _Outline: 0.5
    - _RampSmooth: 0.63
    - _RampThreshold: 0.5
    - _RimMax: 0.7
    - _RimMin: 0.5
    - _SSDistortion: 0.75
    - _SSPower: 1.5
    - _SSScale: 15
    - _Shininess: 2
    - _SketchHalftoneMax: 1
    - _SketchHalftoneMin: 0
    - _SketchSpeed: 6
    - _SpecSmooth: 1
    - _TexLod: 5
    - _ZSmooth: -0.5
    - __dummy__: 0
    - __outline_gui_dummy__: 0
    m_Colors:
    - _Color: {r: 0.6985294, g: 0.667712, b: 0.667712, a: 1}
    - _HColor: {r: 1, g: 1, b: 1, a: 1}
    - _OutlineColor: {r: 0.072306015, g: 0.122909546, b: 0.30900002, a: 1}
    - _RimColor: {r: 0, g: 0, b: 0, a: 1}
    - _SColor: {r: 0.14117648, g: 0.14117648, b: 0.14117648, a: 1}
    - _SSAmbColor: {r: 0.5, g: 0.5, b: 0.5, a: 1}
    - _SSColor: {r: 1, g: 1, b: 1, a: 1}
    - _SketchColor: {r: 0.5588235, g: 0.5588235, b: 0.5588235, a: 1}
    - _SpecColor: {r: 0.125, g: 0.125, b: 0.125, a: 1}
