%YAML 1.1
%TAG !u! tag:unity3d.com,2011:
--- !u!114 &11400000
MonoBehaviour:
  m_ObjectHideFlags: 0
  m_CorrespondingSourceObject: {fileID: 0}
  m_PrefabInstance: {fileID: 0}
  m_PrefabAsset: {fileID: 0}
  m_GameObject: {fileID: 0}
  m_Enabled: 1
  m_EditorHideFlags: 0
  m_Script: {fileID: 11500000, guid: 499378acfe812ca4f90bd83d4e58592f, type: 3}
  m_Name: 07 - Partridge
  m_EditorClassIdentifier: 
  fullName: ALLEN PARTRIDGE
  jerseyName: PARTRIDGE
  jerseyNumber: 16
  height: 5'8"
  weight: 170lbs.
  bio: 
  hometown: 
  playerPortrait: {fileID: 2800000, guid: 84e4b5cb18551fd45afa888481c79d3b, type: 3}
  jerseyNameNumber: {fileID: 21300000, guid: 17f4ac1558d8d4640ae8436d541f1050, type: 3}
  position: 7
  hairMesh: {fileID: 4300020, guid: 370f2637e136a3148b374f84adbb2843, type: 3}
  hairColor: {r: 0.7137931, g: 0.6180084, b: 0.3306541, a: 0}
  isManly: 0
  skinColor: {r: 0.7176471, g: 0.6156863, b: 0.5254902, a: 1}
  runSpeedDefense: 6
  throwSpeed: 30
  fumbleChance: 0.08
  chestHeight: 1.5
  armLength: 1
  pitchSpeed: 40
  pitchStrikeChance: 1
  runSpeedOffense: 7
  missSwing: 0.5
  swingAtBalls: 0
  swingAtStrikes: 1
  homeRunChance: 0
  foulChance: 0
  powerRange: {x: 20, y: 35}
