%YAML 1.1
%TAG !u! tag:unity3d.com,2011:
--- !u!74 &7400000
AnimationClip:
  m_ObjectHideFlags: 0
  m_CorrespondingSourceObject: {fileID: 0}
  m_PrefabInstance: {fileID: 0}
  m_PrefabAsset: {fileID: 0}
  m_Name: StrikeCallout
  serializedVersion: 6
  m_Legacy: 0
  m_Compressed: 0
  m_UseHighQualityCurve: 1
  m_RotationCurves: []
  m_CompressedRotationCurves: []
  m_EulerCurves: []
  m_PositionCurves: []
  m_ScaleCurves: []
  m_FloatCurves: []
  m_PPtrCurves:
  - curve:
    - time: 0
      value: {fileID: 21300000, guid: 701772648ed54864db72a6495fb94b36, type: 3}
    - time: 0.033333335
      value: {fileID: 21300000, guid: e2c3eb43a709a884ab178e7309e1eca6, type: 3}
    - time: 0.06666667
      value: {fileID: 21300000, guid: dd8c5a69670544c41a692401518ac49c, type: 3}
    - time: 0.1
      value: {fileID: 21300000, guid: e68c047ee2f970b4eadb72408bc92960, type: 3}
    - time: 0.13333334
      value: {fileID: 21300000, guid: 3a2cf07f00486dc48903dbb5bd9e3061, type: 3}
    - time: 0.16666667
      value: {fileID: 21300000, guid: 5f4d2c1c7777c4b41aebc5a96b5d72e0, type: 3}
    - time: 0.2
      value: {fileID: 21300000, guid: 7458d3fc74c5ab8478c1da856bd31b08, type: 3}
    - time: 0.23333333
      value: {fileID: 21300000, guid: d36c07bfb5c4ae24fb1a1a9909b8cfe7, type: 3}
    - time: 0.26666668
      value: {fileID: 21300000, guid: 182cfb5fa1cde4349b49eea902199960, type: 3}
    - time: 0.3
      value: {fileID: 21300000, guid: bee6378c142ef3342a155a1aea317bd4, type: 3}
    - time: 0.33333334
      value: {fileID: 21300000, guid: ba871f98c15f24f44b1ef9d2373d0168, type: 3}
    - time: 0.36666667
      value: {fileID: 21300000, guid: 5403757ab83d3d64cb9e123c4122e0e9, type: 3}
    - time: 0.4
      value: {fileID: 21300000, guid: 124d2336a705291418540877c266e09d, type: 3}
    - time: 0.43333334
      value: {fileID: 21300000, guid: ed0afbeee1e2ee148b9bbcba11569047, type: 3}
    - time: 0.46666667
      value: {fileID: 21300000, guid: f1589836ce7144c4c9114d37f3739e41, type: 3}
    - time: 0.5
      value: {fileID: 21300000, guid: 62227528a5dc29b409fc6eb24b514082, type: 3}
    - time: 0.53333336
      value: {fileID: 21300000, guid: d79b06094285ae44eac5227d0a60eb2e, type: 3}
    - time: 0.56666666
      value: {fileID: 21300000, guid: 4fe0fd6f0028a1d4597696876c18591d, type: 3}
    - time: 0.6
      value: {fileID: 21300000, guid: a40c3a0ab071aee4f9e17f0c69c9f818, type: 3}
    - time: 0.6333333
      value: {fileID: 21300000, guid: 25c7d24df5119e240bc29869136972df, type: 3}
    - time: 0.6666667
      value: {fileID: 21300000, guid: 1f6b706eee404154b93384648272bd98, type: 3}
    - time: 0.7
      value: {fileID: 21300000, guid: 959cbc5dd76e5b54a99fcd8f35e092a4, type: 3}
    - time: 1.7666667
      value: {fileID: 21300000, guid: ed403ddf3ba489b4f9227853ab009787, type: 3}
    - time: 1.8
      value: {fileID: 21300000, guid: b4837981614a03745b519875b29113a5, type: 3}
    - time: 1.8333334
      value: {fileID: 21300000, guid: 4648c85d2d15bd94185216768bd825ba, type: 3}
    - time: 1.8666667
      value: {fileID: 21300000, guid: cda13645ae2aac44db1a6ee2eb1ea490, type: 3}
    - time: 1.9
      value: {fileID: 21300000, guid: de20a22387f0dea4d9fc2868e32c8e34, type: 3}
    - time: 1.9333333
      value: {fileID: 21300000, guid: 4eeba99e31225074c8842affe0ddaf8a, type: 3}
    - time: 1.9666667
      value: {fileID: 21300000, guid: ced9e45bb1500f644a0befe564a4cbfb, type: 3}
    - time: 2
      value: {fileID: 21300000, guid: f44b89aa1a9c7f843906847a29105dd7, type: 3}
    - time: 2.0333333
      value: {fileID: 21300000, guid: 4a69eeffa4eba0e4a8b19e67c477b60d, type: 3}
    - time: 2.0666666
      value: {fileID: 21300000, guid: f39cf5eb8732f2c488b46284e83ee504, type: 3}
    - time: 2.1
      value: {fileID: 21300000, guid: c1482714af21f6f47ae73cf4d266dae5, type: 3}
    - time: 2.1333334
      value: {fileID: 21300000, guid: f27c2e0c30c86f340b1786c2966a3baa, type: 3}
    - time: 2.1666667
      value: {fileID: 21300000, guid: 7db90b85a6a62df45a23c59c54be5165, type: 3}
    - time: 2.2
      value: {fileID: 21300000, guid: 0954894988c1e714d9747e262c9009b2, type: 3}
    - time: 2.2333333
      value: {fileID: 21300000, guid: e00cf1b7a9a5dcc4da2e9fe186327a3a, type: 3}
    - time: 2.2666667
      value: {fileID: 21300000, guid: bea1dd505da114d49ba179b22ad9491e, type: 3}
    - time: 2.3
      value: {fileID: 21300000, guid: 0ecfcfaf4eb6de84f91b9f5f4b96d471, type: 3}
    - time: 2.3333333
      value: {fileID: 21300000, guid: 3cbebc40994d00647a6bb54b6cbdbb82, type: 3}
    - time: 2.3666666
      value: {fileID: 21300000, guid: f69453eb9e3c84a41946e977c014eae5, type: 3}
    - time: 2.4
      value: {fileID: 21300000, guid: 5013df8a99e2bee49bf66761f5fd7833, type: 3}
    - time: 2.4333334
      value: {fileID: 21300000, guid: 49a9694ab4bc8ec46844a24d8866be32, type: 3}
    attribute: m_Sprite
    path: 
    classID: 212
    script: {fileID: 0}
  m_SampleRate: 30
  m_WrapMode: 0
  m_Bounds:
    m_Center: {x: 0, y: 0, z: 0}
    m_Extent: {x: 0, y: 0, z: 0}
  m_ClipBindingConstant:
    genericBindings:
    - serializedVersion: 2
      path: 0
      attribute: 0
      script: {fileID: 0}
      typeID: 212
      customType: 23
      isPPtrCurve: 1
    pptrCurveMapping:
    - {fileID: 21300000, guid: 701772648ed54864db72a6495fb94b36, type: 3}
    - {fileID: 21300000, guid: e2c3eb43a709a884ab178e7309e1eca6, type: 3}
    - {fileID: 21300000, guid: dd8c5a69670544c41a692401518ac49c, type: 3}
    - {fileID: 21300000, guid: e68c047ee2f970b4eadb72408bc92960, type: 3}
    - {fileID: 21300000, guid: 3a2cf07f00486dc48903dbb5bd9e3061, type: 3}
    - {fileID: 21300000, guid: 5f4d2c1c7777c4b41aebc5a96b5d72e0, type: 3}
    - {fileID: 21300000, guid: 7458d3fc74c5ab8478c1da856bd31b08, type: 3}
    - {fileID: 21300000, guid: d36c07bfb5c4ae24fb1a1a9909b8cfe7, type: 3}
    - {fileID: 21300000, guid: 182cfb5fa1cde4349b49eea902199960, type: 3}
    - {fileID: 21300000, guid: bee6378c142ef3342a155a1aea317bd4, type: 3}
    - {fileID: 21300000, guid: ba871f98c15f24f44b1ef9d2373d0168, type: 3}
    - {fileID: 21300000, guid: 5403757ab83d3d64cb9e123c4122e0e9, type: 3}
    - {fileID: 21300000, guid: 124d2336a705291418540877c266e09d, type: 3}
    - {fileID: 21300000, guid: ed0afbeee1e2ee148b9bbcba11569047, type: 3}
    - {fileID: 21300000, guid: f1589836ce7144c4c9114d37f3739e41, type: 3}
    - {fileID: 21300000, guid: 62227528a5dc29b409fc6eb24b514082, type: 3}
    - {fileID: 21300000, guid: d79b06094285ae44eac5227d0a60eb2e, type: 3}
    - {fileID: 21300000, guid: 4fe0fd6f0028a1d4597696876c18591d, type: 3}
    - {fileID: 21300000, guid: a40c3a0ab071aee4f9e17f0c69c9f818, type: 3}
    - {fileID: 21300000, guid: 25c7d24df5119e240bc29869136972df, type: 3}
    - {fileID: 21300000, guid: 1f6b706eee404154b93384648272bd98, type: 3}
    - {fileID: 21300000, guid: 959cbc5dd76e5b54a99fcd8f35e092a4, type: 3}
    - {fileID: 21300000, guid: ed403ddf3ba489b4f9227853ab009787, type: 3}
    - {fileID: 21300000, guid: b4837981614a03745b519875b29113a5, type: 3}
    - {fileID: 21300000, guid: 4648c85d2d15bd94185216768bd825ba, type: 3}
    - {fileID: 21300000, guid: cda13645ae2aac44db1a6ee2eb1ea490, type: 3}
    - {fileID: 21300000, guid: de20a22387f0dea4d9fc2868e32c8e34, type: 3}
    - {fileID: 21300000, guid: 4eeba99e31225074c8842affe0ddaf8a, type: 3}
    - {fileID: 21300000, guid: ced9e45bb1500f644a0befe564a4cbfb, type: 3}
    - {fileID: 21300000, guid: f44b89aa1a9c7f843906847a29105dd7, type: 3}
    - {fileID: 21300000, guid: 4a69eeffa4eba0e4a8b19e67c477b60d, type: 3}
    - {fileID: 21300000, guid: f39cf5eb8732f2c488b46284e83ee504, type: 3}
    - {fileID: 21300000, guid: c1482714af21f6f47ae73cf4d266dae5, type: 3}
    - {fileID: 21300000, guid: f27c2e0c30c86f340b1786c2966a3baa, type: 3}
    - {fileID: 21300000, guid: 7db90b85a6a62df45a23c59c54be5165, type: 3}
    - {fileID: 21300000, guid: 0954894988c1e714d9747e262c9009b2, type: 3}
    - {fileID: 21300000, guid: e00cf1b7a9a5dcc4da2e9fe186327a3a, type: 3}
    - {fileID: 21300000, guid: bea1dd505da114d49ba179b22ad9491e, type: 3}
    - {fileID: 21300000, guid: 0ecfcfaf4eb6de84f91b9f5f4b96d471, type: 3}
    - {fileID: 21300000, guid: 3cbebc40994d00647a6bb54b6cbdbb82, type: 3}
    - {fileID: 21300000, guid: f69453eb9e3c84a41946e977c014eae5, type: 3}
    - {fileID: 21300000, guid: 5013df8a99e2bee49bf66761f5fd7833, type: 3}
    - {fileID: 21300000, guid: 49a9694ab4bc8ec46844a24d8866be32, type: 3}
  m_AnimationClipSettings:
    serializedVersion: 2
    m_AdditiveReferencePoseClip: {fileID: 0}
    m_AdditiveReferencePoseTime: 0
    m_StartTime: 0
    m_StopTime: 2.4666667
    m_OrientationOffsetY: 0
    m_Level: 0
    m_CycleOffset: 0
    m_HasAdditiveReferencePose: 0
    m_LoopTime: 1
    m_LoopBlend: 0
    m_LoopBlendOrientation: 0
    m_LoopBlendPositionY: 0
    m_LoopBlendPositionXZ: 0
    m_KeepOriginalOrientation: 0
    m_KeepOriginalPositionY: 1
    m_KeepOriginalPositionXZ: 0
    m_HeightFromFeet: 0
    m_Mirror: 0
  m_EditorCurves: []
  m_EulerEditorCurves: []
  m_HasGenericRootTransform: 0
  m_HasMotionFloatCurves: 0
  m_Events: []
