%YAML 1.1
%TAG !u! tag:unity3d.com,2011:
--- !u!114 &11400000
MonoBehaviour:
  m_ObjectHideFlags: 0
  m_CorrespondingSourceObject: {fileID: 0}
  m_PrefabInstance: {fileID: 0}
  m_PrefabAsset: {fileID: 0}
  m_GameObject: {fileID: 0}
  m_Enabled: 1
  m_EditorHideFlags: 0
  m_Script: {fileID: 11500000, guid: fb229ba8f556450448e08236d3eb2f02, type: 3}
  m_Name: Austin Foxes
  m_EditorClassIdentifier: 
  hometown: Austin
  teamName: Foxes
  teamLogo: {fileID: 21300000, guid: a7d0447561a674e4ab991ab49d91b0b4, type: 3}
  teamLogoTex: {fileID: 2800000, guid: a7d0447561a674e4ab991ab49d91b0b4, type: 3}
  jerseyHomeFront: {fileID: 2800000, guid: 027c618bfd79ad440b87efdc4ca64a74, type: 3}
  jerseyHomeBack: {fileID: 2800000, guid: d57735b35b4a3f646b7dcd21ba496bbe, type: 3}
  jerseyAwayFront: {fileID: 2800000, guid: 027c618bfd79ad440b87efdc4ca64a74, type: 3}
  jerseyAwayBack: {fileID: 2800000, guid: d57735b35b4a3f646b7dcd21ba496bbe, type: 3}
  jerseyMaterial: {fileID: 2100000, guid: 588b8f57c8c0c884e9fe583e1a239033, type: 2}
  helmetMaterial: {fileID: 2100000, guid: e1d636cfae02317498d111e3f7b3918d, type: 2}
  homeColor: {r: 1, g: 1, b: 1, a: 1}
  awayColor: {r: 1, g: 0.52566326, b: 0, a: 1}
  defenseAssignments:
  - positionName: 0
    player: {fileID: 11400000, guid: 3a9da838f621b634e829006d621e778f, type: 2}
  - positionName: 8
    player: {fileID: 11400000, guid: c4b6a81526141964c8c93665a7ab2603, type: 2}
  - positionName: 1
    player: {fileID: 11400000, guid: 09851f88007a3264997ab9df48bb377b, type: 2}
  - positionName: 2
    player: {fileID: 11400000, guid: 9de4a837357c8014196aa4fadd4f40ec, type: 2}
  - positionName: 4
    player: {fileID: 11400000, guid: b5cb5a47911f2b7438bbcf8672408d84, type: 2}
  - positionName: 3
    player: {fileID: 11400000, guid: bbac6e3db4b3fd643bcf2a328eed270b, type: 2}
  - positionName: 7
    player: {fileID: 11400000, guid: 7ac4930e161d27b4f9dad6828f1c0a73, type: 2}
  - positionName: 6
    player: {fileID: 11400000, guid: f68a88ca45136924fa1a9d5b24e22cbb, type: 2}
  - positionName: 5
    player: {fileID: 11400000, guid: b29b4662369ccd34798f69137086af8b, type: 2}
  battingOrder:
  - {fileID: 11400000, guid: 3a9da838f621b634e829006d621e778f, type: 2}
  - {fileID: 11400000, guid: c4b6a81526141964c8c93665a7ab2603, type: 2}
  - {fileID: 11400000, guid: 09851f88007a3264997ab9df48bb377b, type: 2}
  - {fileID: 11400000, guid: 9de4a837357c8014196aa4fadd4f40ec, type: 2}
  - {fileID: 11400000, guid: b5cb5a47911f2b7438bbcf8672408d84, type: 2}
  - {fileID: 11400000, guid: bbac6e3db4b3fd643bcf2a328eed270b, type: 2}
  - {fileID: 11400000, guid: 7ac4930e161d27b4f9dad6828f1c0a73, type: 2}
  - {fileID: 11400000, guid: f68a88ca45136924fa1a9d5b24e22cbb, type: 2}
  - {fileID: 11400000, guid: b29b4662369ccd34798f69137086af8b, type: 2}
