%YAML 1.1
%TAG !u! tag:unity3d.com,2011:
--- !u!21 &2100000
Material:
  serializedVersion: 6
  m_ObjectHideFlags: 0
  m_CorrespondingSourceObject: {fileID: 0}
  m_PrefabInternal: {fileID: 0}
  m_Name: TCP2_Demo_Robot_HandPainted
  m_Shader: {fileID: 4800000, guid: 4afb2fb87321fe647840db5fb623fc28, type: 3}
  m_ShaderKeywords: TCP2_DISABLE_WRAPPED_LIGHT TCP2_TANGENT_AS_NORMALS
  m_LightmapFlags: 5
  m_EnableInstancingVariants: 1
  m_DoubleSidedGI: 0
  m_CustomRenderQueue: -1
  stringTagMap: {}
  disabledShaderPasses: []
  m_SavedProperties:
    serializedVersion: 3
    m_TexEnvs:
    - _BumpMap:
        m_Texture: {fileID: 0}
        m_Scale: {x: 1, y: 1}
        m_Offset: {x: 0, y: 0}
    - _DetailAlbedoMap:
        m_Texture: {fileID: 0}
        m_Scale: {x: 1, y: 1}
        m_Offset: {x: 0, y: 0}
    - _DetailMask:
        m_Texture: {fileID: 0}
        m_Scale: {x: 1, y: 1}
        m_Offset: {x: 0, y: 0}
    - _DetailNormalMap:
        m_Texture: {fileID: 0}
        m_Scale: {x: 1, y: 1}
        m_Offset: {x: 0, y: 0}
    - _EmissionMap:
        m_Texture: {fileID: 0}
        m_Scale: {x: 1, y: 1}
        m_Offset: {x: 0, y: 0}
    - _MainTex:
        m_Texture: {fileID: 2800000, guid: 90f5c2a59e018304bb00979205857f25, type: 3}
        m_Scale: {x: 1, y: 1}
        m_Offset: {x: 0, y: 0}
    - _MetallicGlossMap:
        m_Texture: {fileID: 0}
        m_Scale: {x: 1, y: 1}
        m_Offset: {x: 0, y: 0}
    - _OcclusionMap:
        m_Texture: {fileID: 0}
        m_Scale: {x: 1, y: 1}
        m_Offset: {x: 0, y: 0}
    - _ParallaxMap:
        m_Texture: {fileID: 0}
        m_Scale: {x: 1, y: 1}
        m_Offset: {x: 0, y: 0}
    - _Ramp:
        m_Texture: {fileID: 0}
        m_Scale: {x: 1, y: 1}
        m_Offset: {x: 0, y: 0}
    - _SketchTex:
        m_Texture: {fileID: 2800000, guid: a0d03d906b6264d4c8c02b0ffd7bc8c2, type: 3}
        m_Scale: {x: 10, y: 10}
        m_Offset: {x: 0, y: 0}
    - _ThresholdTex:
        m_Texture: {fileID: 2800000, guid: ebbb2bec16a72fe48b8463e62d47d076, type: 3}
        m_Scale: {x: 1, y: 1}
        m_Offset: {x: 0, y: 0}
    m_Floats:
    - _BumpScale: 1
    - _Cutoff: 0.5
    - _DetailNormalMapScale: 1
    - _DstBlend: 0
    - _EnableConstSizeOutline: 0
    - _EnableTexturedOutline: 0
    - _EnableZSmooth: 0
    - _GlossMapScale: 1
    - _Glossiness: 0.85
    - _HSV_H: 180
    - _HSV_S: 0
    - _HSV_V: 0
    - _Metallic: 0
    - _Mode: 0
    - _OcclusionStrength: 1
    - _Offset1: 0
    - _Offset2: 0
    - _Outline: 0.5
    - _Parallax: 0.02
    - _RampSmooth: 0.2
    - _RampSmoothAdd: 0.1
    - _RampThreshold: 0.5
    - _RimMax: 0.8
    - _RimMin: 0.6
    - _RimStrength: 0.5
    - _Shininess: 2
    - _SketchHalftoneMax: 1
    - _SketchHalftoneMin: 0
    - _SketchSpeed: 6
    - _SmoothnessTextureChannel: 0
    - _SpecBlend: 0.842
    - _SpecSmooth: 1
    - _SrcBlend: 1
    - _TexLod: 5
    - _ThresholdScale: 10
    - _ThresholdStrength: 1
    - _UVSec: 0
    - _ZSmooth: -0.5
    - _ZWrite: 1
    - __dummy__: 0
    - __outline_gui_dummy__: 0
    m_Colors:
    - _Color: {r: 0.78431374, g: 0.78431374, b: 0.78431374, a: 1}
    - _DiffTint: {r: 0.2205882, g: 0.09584185, b: 0, a: 1}
    - _EmissionColor: {r: 0, g: 0, b: 0, a: 1}
    - _HColor: {r: 0.9117647, g: 0.9117647, b: 0.9117647, a: 1}
    - _OutlineColor: {r: 0.072306015, g: 0.122909546, b: 0.30900002, a: 1}
    - _RimColor: {r: 0, g: 0, b: 0, a: 1}
    - _SColor: {r: 0.591, g: 0.43122622, b: 0.38415003, a: 1}
    - _SketchColor: {r: 0.5588235, g: 0.5588235, b: 0.5588235, a: 1}
    - _SpecColor: {r: 0.05644801, g: 0.07766688, b: 0.12800002, a: 1}
