%YAML 1.1
%TAG !u! tag:unity3d.com,2011:
--- !u!21 &2100000
Material:
  serializedVersion: 6
  m_ObjectHideFlags: 0
  m_CorrespondingSourceObject: {fileID: 0}
  m_PrefabInternal: {fileID: 0}
  m_Name: TCP2_Demo_UnityChan style5 flat body
  m_Shader: {fileID: 4800000, guid: cf803be647d5ad64ea11120766369bd9, type: 3}
  m_ShaderKeywords: _EMISSION
  m_LightmapFlags: 1
  m_EnableInstancingVariants: 1
  m_DoubleSidedGI: 0
  m_CustomRenderQueue: -1
  stringTagMap: {}
  disabledShaderPasses: []
  m_SavedProperties:
    serializedVersion: 3
    m_TexEnvs:
    - _BlendTex1:
        m_Texture: {fileID: 0}
        m_Scale: {x: 1, y: 1}
        m_Offset: {x: 0, y: 0}
    - _BlendTex2:
        m_Texture: {fileID: 0}
        m_Scale: {x: 1, y: 1}
        m_Offset: {x: 0, y: 0}
    - _BumpMap:
        m_Texture: {fileID: 0}
        m_Scale: {x: 1, y: 1}
        m_Offset: {x: 0, y: 0}
    - _DetailAlbedoMap:
        m_Texture: {fileID: 0}
        m_Scale: {x: 1, y: 1}
        m_Offset: {x: 0, y: 0}
    - _DetailMask:
        m_Texture: {fileID: 0}
        m_Scale: {x: 1, y: 1}
        m_Offset: {x: 0, y: 0}
    - _DetailNormalMap:
        m_Texture: {fileID: 0}
        m_Scale: {x: 1, y: 1}
        m_Offset: {x: 0, y: 0}
    - _EmissionMap:
        m_Texture: {fileID: 0}
        m_Scale: {x: 1, y: 1}
        m_Offset: {x: 0, y: 0}
    - _MainTex:
        m_Texture: {fileID: 2800000, guid: efb373a6e0c047146b108f84426b8c5f, type: 3}
        m_Scale: {x: 1, y: 1}
        m_Offset: {x: 0, y: 0}
    - _MetallicGlossMap:
        m_Texture: {fileID: 0}
        m_Scale: {x: 1, y: 1}
        m_Offset: {x: 0, y: 0}
    - _OcclusionMap:
        m_Texture: {fileID: 0}
        m_Scale: {x: 1, y: 1}
        m_Offset: {x: 0, y: 0}
    - _ParallaxMap:
        m_Texture: {fileID: 0}
        m_Scale: {x: 1, y: 1}
        m_Offset: {x: 0, y: 0}
    - _Ramp:
        m_Texture: {fileID: 0}
        m_Scale: {x: 1, y: 1}
        m_Offset: {x: 0, y: 0}
    - _STexture:
        m_Texture: {fileID: 2800000, guid: 2dd5db1f3356deb4dbf2dfec55c37dce, type: 3}
        m_Scale: {x: 1, y: 1}
        m_Offset: {x: 0, y: 0}
    - _SketchTex:
        m_Texture: {fileID: 2800000, guid: a0d03d906b6264d4c8c02b0ffd7bc8c2, type: 3}
        m_Scale: {x: 10, y: 10}
        m_Offset: {x: 0, y: 0}
    m_Floats:
    - _BumpScale: 0
    - _Cutoff: 0.5
    - _DetailNormalMapScale: 1
    - _DstBlend: 0
    - _EnableConstSizeOutline: 0
    - _EnableTexturedOutline: 0
    - _EnableZSmooth: 0
    - _GlossMapScale: 1
    - _Glossiness: 0.5
    - _GlossyReflections: 1
    - _Metallic: 0
    - _Mode: 0
    - _OcclusionStrength: 1
    - _Offset1: 0
    - _Offset2: 0
    - _Outline: 0.2
    - _Parallax: 0.02
    - _RampSmooth: 0.1
    - _RampSmoothOtherLights: 1
    - _RampThreshold: 0.5
    - _RampThresholdOtherLights: 0.5
    - _RimMax: 0.9
    - _RimMin: 0.6
    - _Shadow_HSV_H: 0
    - _Shadow_HSV_S: 0
    - _Shadow_HSV_V: 0
    - _Shininess: 1.04
    - _SketchSpeed: 5
    - _SmoothnessTextureChannel: 0
    - _SpecularHighlights: 1
    - _SrcBlend: 1
    - _TexLod: 5
    - _UVSec: 0
    - _WrapFactor: 0.5
    - _ZSmooth: -0.5
    - _ZWrite: 1
    - __dummy__: 0
    - __outline_gui_dummy__: 0
    m_Colors:
    - _Color: {r: 1, g: 0.8627451, b: 0.8627451, a: 1}
    - _DiffTint: {r: 0.99264705, g: 0.8112322, b: 0.74448526, a: 1}
    - _EmissionColor: {r: 0, g: 0, b: 0, a: 1}
    - _HColor: {r: 1, g: 1, b: 1, a: 1}
    - _OutlineColor: {r: 0, g: 0, b: 0, a: 1}
    - _RimColor: {r: 0, g: 0, b: 0, a: 0.7058824}
    - _SColor: {r: 0.78431374, g: 0.78431374, b: 0.78431374, a: 1}
    - _SketchColor: {r: 1, g: 0.7920892, b: 0.63235295, a: 1}
    - _SpecColor: {r: 0.5, g: 0.5, b: 0.5, a: 1}
    - _VColorBlendOffset: {r: 0, g: 0, b: 0, a: 0}
    - _VColorBlendSmooth: {r: 0.25, g: 0.25, b: 0.25, a: 0.25}
