%YAML 1.1
%TAG !u! tag:unity3d.com,2011:
--- !u!21 &2100000
Material:
  serializedVersion: 6
  m_ObjectHideFlags: 0
  m_CorrespondingSourceObject: {fileID: 0}
  m_PrefabInternal: {fileID: 0}
  m_Name: TCP2_Demo_UnityChan style6 flat skin
  m_Shader: {fileID: 4800000, guid: 6c12b195382e1774bb4ecf6b1b0243b0, type: 3}
  m_ShaderKeywords: _EMISSION
  m_LightmapFlags: 1
  m_EnableInstancingVariants: 1
  m_DoubleSidedGI: 0
  m_CustomRenderQueue: -1
  stringTagMap: {}
  disabledShaderPasses: []
  m_SavedProperties:
    serializedVersion: 3
    m_TexEnvs:
    - _BlendTex1:
        m_Texture: {fileID: 0}
        m_Scale: {x: 1, y: 1}
        m_Offset: {x: 0, y: 0}
    - _BlendTex2:
        m_Texture: {fileID: 0}
        m_Scale: {x: 1, y: 1}
        m_Offset: {x: 0, y: 0}
    - _BumpMap:
        m_Texture: {fileID: 0}
        m_Scale: {x: 1, y: 1}
        m_Offset: {x: 0, y: 0}
    - _DetailAlbedoMap:
        m_Texture: {fileID: 0}
        m_Scale: {x: 1, y: 1}
        m_Offset: {x: 0, y: 0}
    - _DetailMask:
        m_Texture: {fileID: 0}
        m_Scale: {x: 1, y: 1}
        m_Offset: {x: 0, y: 0}
    - _DetailNormalMap:
        m_Texture: {fileID: 0}
        m_Scale: {x: 1, y: 1}
        m_Offset: {x: 0, y: 0}
    - _EmissionMap:
        m_Texture: {fileID: 0}
        m_Scale: {x: 1, y: 1}
        m_Offset: {x: 0, y: 0}
    - _MainTex:
        m_Texture: {fileID: 2800000, guid: efb373a6e0c047146b108f84426b8c5f, type: 3}
        m_Scale: {x: 1, y: 1}
        m_Offset: {x: 0, y: 0}
    - _MetallicGlossMap:
        m_Texture: {fileID: 0}
        m_Scale: {x: 1, y: 1}
        m_Offset: {x: 0, y: 0}
    - _OcclusionMap:
        m_Texture: {fileID: 0}
        m_Scale: {x: 1, y: 1}
        m_Offset: {x: 0, y: 0}
    - _ParallaxMap:
        m_Texture: {fileID: 0}
        m_Scale: {x: 1, y: 1}
        m_Offset: {x: 0, y: 0}
    - _Ramp:
        m_Texture: {fileID: 0}
        m_Scale: {x: 1, y: 1}
        m_Offset: {x: 0, y: 0}
    - _STexture:
        m_Texture: {fileID: 2800000, guid: 2dd5db1f3356deb4dbf2dfec55c37dce, type: 3}
        m_Scale: {x: 1, y: 1}
        m_Offset: {x: 0, y: 0}
    m_Floats:
    - _BumpScale: 0
    - _Cutoff: 0.5
    - _DetailNormalMapScale: 1
    - _DstBlend: 0
    - _GlossMapScale: 1
    - _Glossiness: 0.5
    - _GlossyReflections: 1
    - _HSV_H: -25
    - _HSV_S: 0.15
    - _HSV_V: -0.5
    - _Metallic: 0
    - _Mode: 0
    - _OcclusionStrength: 1
    - _Parallax: 0.02
    - _RampSmooth: 0.05
    - _RampSmoothOtherLights: 0.2
    - _RampThreshold: 0.5
    - _RampThresholdOtherLights: 0.65
    - _RimMax: 1
    - _RimMin: 0.5
    - _Shadow_HSV_H: 0
    - _Shadow_HSV_S: 0
    - _Shadow_HSV_V: 0
    - _Shininess: 1.04
    - _SmoothnessTextureChannel: 0
    - _SpecularHighlights: 1
    - _SrcBlend: 1
    - _UVSec: 0
    - _WrapFactor: 0.5
    - _ZWrite: 1
    - __dummy__: 0
    m_Colors:
    - _Color: {r: 1, g: 1, b: 1, a: 1}
    - _DiffTint: {r: 0.34901962, g: 0.1764706, b: 0.11372549, a: 1}
    - _EmissionColor: {r: 0, g: 0, b: 0, a: 1}
    - _HColor: {r: 1, g: 1, b: 1, a: 1}
    - _RimColor: {r: 0.8, g: 0.8, b: 0.8, a: 0.525}
    - _SColor: {r: 0.5019608, g: 0.5019608, b: 0.5019608, a: 1}
    - _SpecColor: {r: 0.5, g: 0.5, b: 0.5, a: 1}
    - _VColorBlendOffset: {r: 0, g: 0, b: 0, a: 0}
    - _VColorBlendSmooth: {r: 0.25, g: 0.25, b: 0.25, a: 0.25}
