%YAML 1.1
%TAG !u! tag:unity3d.com,2011:
--- !u!74 &7400000
AnimationClip:
  m_ObjectHideFlags: 0
  m_PrefabParentObject: {fileID: 0}
  m_PrefabInternal: {fileID: 0}
  m_Name: logo
  serializedVersion: 6
  m_Legacy: 0
  m_Compressed: 0
  m_UseHighQualityCurve: 1
  m_RotationCurves: []
  m_CompressedRotationCurves: []
  m_EulerCurves:
  - curve:
      serializedVersion: 2
      m_Curve:
      - time: 0
        value: {x: 355.54028, y: 38.0616, z: -3.4842}
        inSlope: {x: -0.19793242, y: -5.7040114, z: 0.5175711}
        outSlope: {x: -0.19793242, y: -5.7040114, z: 0.5175711}
        tangentMode: 0
      - time: 5.983333
        value: {x: 354.356, y: 3.9325998, z: -0.3874}
        inSlope: {x: -0.0005482957, y: -0.015800714, z: 0.0014337599}
        outSlope: {x: -0.0005482957, y: -0.015800714, z: 0.0014337599}
        tangentMode: 0
      - time: 12
        value: {x: 355.54028, y: 38.0616, z: -3.4842}
        inSlope: {x: 0.19683583, y: 5.67241, z: -0.5147036}
        outSlope: {x: 0.19683583, y: 5.67241, z: -0.5147036}
        tangentMode: 0
      m_PreInfinity: 2
      m_PostInfinity: 2
      m_RotationOrder: 4
    path: 
  m_PositionCurves:
  - curve:
      serializedVersion: 2
      m_Curve:
      - time: 0
        value: {x: 0.60411155, y: -0.5314231, z: -0.37117243}
        inSlope: {x: 0.013834361, y: 0.0039811255, z: 0.040186934}
        outSlope: {x: 0.013834361, y: 0.0039811255, z: 0.040186934}
        tangentMode: 0
      - time: 5.983333
        value: {x: 0.68688715, y: -0.5076027, z: -0.13072062}
        inSlope: {x: 0.000038322527, y: 0.000011028256, z: 0.00011132285}
        outSlope: {x: 0.000038322527, y: 0.000011028256, z: 0.00011132285}
        tangentMode: 0
      - time: 12
        value: {x: 0.60411155, y: -0.5314231, z: -0.37117243}
        inSlope: {x: -0.013757716, y: -0.003959069, z: -0.03996429}
        outSlope: {x: -0.013757716, y: -0.003959069, z: -0.03996429}
        tangentMode: 0
      m_PreInfinity: 2
      m_PostInfinity: 2
      m_RotationOrder: 4
    path: 
  m_ScaleCurves: []
  m_FloatCurves: []
  m_PPtrCurves: []
  m_SampleRate: 60
  m_WrapMode: 0
  m_Bounds:
    m_Center: {x: 0, y: 0, z: 0}
    m_Extent: {x: 0, y: 0, z: 0}
  m_ClipBindingConstant:
    genericBindings:
    - path: 0
      attribute: 1
      script: {fileID: 0}
      classID: 4
      customType: 0
      isPPtrCurve: 0
    - path: 0
      attribute: 4
      script: {fileID: 0}
      classID: 4
      customType: 14
      isPPtrCurve: 0
    pptrCurveMapping: []
  m_AnimationClipSettings:
    serializedVersion: 2
    m_AdditiveReferencePoseClip: {fileID: 0}
    m_AdditiveReferencePoseTime: 0
    m_StartTime: 0
    m_StopTime: 12
    m_OrientationOffsetY: 0
    m_Level: 0
    m_CycleOffset: 0
    m_HasAdditiveReferencePose: 0
    m_LoopTime: 1
    m_LoopBlend: 0
    m_LoopBlendOrientation: 0
    m_LoopBlendPositionY: 0
    m_LoopBlendPositionXZ: 0
    m_KeepOriginalOrientation: 0
    m_KeepOriginalPositionY: 1
    m_KeepOriginalPositionXZ: 0
    m_HeightFromFeet: 0
    m_Mirror: 0
  m_EditorCurves:
  - curve:
      serializedVersion: 2
      m_Curve:
      - time: 0
        value: 355.54028
        inSlope: -0.19793242
        outSlope: -0.19793242
        tangentMode: 10
      - time: 5.983333
        value: 354.356
        inSlope: -0.0005482957
        outSlope: -0.0005482957
        tangentMode: 10
      - time: 12
        value: 355.54028
        inSlope: 0.19683583
        outSlope: 0.19683583
        tangentMode: 10
      m_PreInfinity: 2
      m_PostInfinity: 2
      m_RotationOrder: 4
    attribute: localEulerAnglesRaw.x
    path: 
    classID: 4
    script: {fileID: 0}
  - curve:
      serializedVersion: 2
      m_Curve:
      - time: 0
        value: 38.0616
        inSlope: -5.7040114
        outSlope: -5.7040114
        tangentMode: 10
      - time: 5.983333
        value: 3.9325998
        inSlope: -0.015800714
        outSlope: -0.015800714
        tangentMode: 10
      - time: 12
        value: 38.0616
        inSlope: 5.67241
        outSlope: 5.67241
        tangentMode: 10
      m_PreInfinity: 2
      m_PostInfinity: 2
      m_RotationOrder: 4
    attribute: localEulerAnglesRaw.y
    path: 
    classID: 4
    script: {fileID: 0}
  - curve:
      serializedVersion: 2
      m_Curve:
      - time: 0
        value: -3.4842
        inSlope: 0.5175711
        outSlope: 0.5175711
        tangentMode: 10
      - time: 5.983333
        value: -0.3874
        inSlope: 0.0014337599
        outSlope: 0.0014337599
        tangentMode: 10
      - time: 12
        value: -3.4842
        inSlope: -0.5147036
        outSlope: -0.5147036
        tangentMode: 10
      m_PreInfinity: 2
      m_PostInfinity: 2
      m_RotationOrder: 4
    attribute: localEulerAnglesRaw.z
    path: 
    classID: 4
    script: {fileID: 0}
  - curve:
      serializedVersion: 2
      m_Curve:
      - time: 0
        value: 0.60411155
        inSlope: 0.013834361
        outSlope: 0.013834361
        tangentMode: 10
      - time: 5.983333
        value: 0.68688715
        inSlope: 0.000038322527
        outSlope: 0.000038322527
        tangentMode: 10
      - time: 12
        value: 0.60411155
        inSlope: -0.013757716
        outSlope: -0.013757716
        tangentMode: 10
      m_PreInfinity: 2
      m_PostInfinity: 2
      m_RotationOrder: 4
    attribute: m_LocalPosition.x
    path: 
    classID: 4
    script: {fileID: 0}
  - curve:
      serializedVersion: 2
      m_Curve:
      - time: 0
        value: -0.5314231
        inSlope: 0.0039811255
        outSlope: 0.0039811255
        tangentMode: 10
      - time: 5.983333
        value: -0.5076027
        inSlope: 0.000011028256
        outSlope: 0.000011028256
        tangentMode: 10
      - time: 12
        value: -0.5314231
        inSlope: -0.003959069
        outSlope: -0.003959069
        tangentMode: 10
      m_PreInfinity: 2
      m_PostInfinity: 2
      m_RotationOrder: 4
    attribute: m_LocalPosition.y
    path: 
    classID: 4
    script: {fileID: 0}
  - curve:
      serializedVersion: 2
      m_Curve:
      - time: 0
        value: -0.37117243
        inSlope: 0.040186934
        outSlope: 0.040186934
        tangentMode: 10
      - time: 5.983333
        value: -0.13072062
        inSlope: 0.00011132285
        outSlope: 0.00011132285
        tangentMode: 10
      - time: 12
        value: -0.37117243
        inSlope: -0.03996429
        outSlope: -0.03996429
        tangentMode: 10
      m_PreInfinity: 2
      m_PostInfinity: 2
      m_RotationOrder: 4
    attribute: m_LocalPosition.z
    path: 
    classID: 4
    script: {fileID: 0}
  m_EulerEditorCurves:
  - curve:
      serializedVersion: 2
      m_Curve: []
      m_PreInfinity: 2
      m_PostInfinity: 2
      m_RotationOrder: 4
    attribute: m_LocalEulerAngles.x
    path: 
    classID: 4
    script: {fileID: 0}
  - curve:
      serializedVersion: 2
      m_Curve: []
      m_PreInfinity: 2
      m_PostInfinity: 2
      m_RotationOrder: 4
    attribute: m_LocalEulerAngles.y
    path: 
    classID: 4
    script: {fileID: 0}
  - curve:
      serializedVersion: 2
      m_Curve: []
      m_PreInfinity: 2
      m_PostInfinity: 2
      m_RotationOrder: 4
    attribute: m_LocalEulerAngles.z
    path: 
    classID: 4
    script: {fileID: 0}
  m_HasGenericRootTransform: 1
  m_HasMotionFloatCurves: 0
  m_GenerateMotionCurves: 0
  m_Events: []
