%YAML 1.1
%TAG !u! tag:unity3d.com,2011:
--- !u!74 &7400000
AnimationClip:
  m_ObjectHideFlags: 0
  m_PrefabParentObject: {fileID: 0}
  m_PrefabInternal: {fileID: 0}
  m_Name: HomerunSplash_2
  serializedVersion: 6
  m_Legacy: 0
  m_Compressed: 0
  m_UseHighQualityCurve: 1
  m_RotationCurves: []
  m_CompressedRotationCurves: []
  m_EulerCurves: []
  m_PositionCurves: []
  m_ScaleCurves: []
  m_FloatCurves:
  - curve:
      serializedVersion: 2
      m_Curve:
      - serializedVersion: 2
        time: 0
        value: 1
        inSlope: Infinity
        outSlope: Infinity
        tangentMode: 103
      - serializedVersion: 2
        time: 3.8333333
        value: 1
        inSlope: Infinity
        outSlope: Infinity
        tangentMode: 103
      m_PreInfinity: 2
      m_PostInfinity: 2
      m_RotationOrder: 4
    attribute: m_Enabled
    path: 
    classID: 212
    script: {fileID: 0}
  m_PPtrCurves:
  - curve:
    - time: 0
      value: {fileID: 21300000, guid: adb3a4e601c4da446b4fb7e4ae4dedaf, type: 3}
    - time: 0.083333336
      value: {fileID: 21300002, guid: adb3a4e601c4da446b4fb7e4ae4dedaf, type: 3}
    - time: 0.16666667
      value: {fileID: 21300004, guid: adb3a4e601c4da446b4fb7e4ae4dedaf, type: 3}
    - time: 0.25
      value: {fileID: 21300006, guid: adb3a4e601c4da446b4fb7e4ae4dedaf, type: 3}
    - time: 0.33333334
      value: {fileID: 21300008, guid: adb3a4e601c4da446b4fb7e4ae4dedaf, type: 3}
    - time: 0.41666666
      value: {fileID: 21300010, guid: adb3a4e601c4da446b4fb7e4ae4dedaf, type: 3}
    - time: 0.5
      value: {fileID: 21300012, guid: adb3a4e601c4da446b4fb7e4ae4dedaf, type: 3}
    - time: 0.5833333
      value: {fileID: 21300014, guid: adb3a4e601c4da446b4fb7e4ae4dedaf, type: 3}
    - time: 0.6666667
      value: {fileID: 21300016, guid: adb3a4e601c4da446b4fb7e4ae4dedaf, type: 3}
    - time: 0.75
      value: {fileID: 21300000, guid: 292ab3e73bfaab64199e7eaa6cd65437, type: 3}
    - time: 0.8333333
      value: {fileID: 21300002, guid: 292ab3e73bfaab64199e7eaa6cd65437, type: 3}
    - time: 0.9166666
      value: {fileID: 21300004, guid: 292ab3e73bfaab64199e7eaa6cd65437, type: 3}
    - time: 0.99999994
      value: {fileID: 21300006, guid: 292ab3e73bfaab64199e7eaa6cd65437, type: 3}
    - time: 1.0833333
      value: {fileID: 21300008, guid: 292ab3e73bfaab64199e7eaa6cd65437, type: 3}
    - time: 1.1666666
      value: {fileID: 21300010, guid: 292ab3e73bfaab64199e7eaa6cd65437, type: 3}
    - time: 1.25
      value: {fileID: 21300012, guid: 292ab3e73bfaab64199e7eaa6cd65437, type: 3}
    - time: 1.3333334
      value: {fileID: 21300014, guid: 292ab3e73bfaab64199e7eaa6cd65437, type: 3}
    - time: 1.4166667
      value: {fileID: 21300016, guid: 292ab3e73bfaab64199e7eaa6cd65437, type: 3}
    - time: 1.5000001
      value: {fileID: 21300018, guid: 292ab3e73bfaab64199e7eaa6cd65437, type: 3}
    - time: 1.5833335
      value: {fileID: 21300020, guid: 292ab3e73bfaab64199e7eaa6cd65437, type: 3}
    - time: 1.8333334
      value: {fileID: 21300020, guid: 292ab3e73bfaab64199e7eaa6cd65437, type: 3}
    - time: 1.9166666
      value: {fileID: 21300000, guid: adb3a4e601c4da446b4fb7e4ae4dedaf, type: 3}
    - time: 2
      value: {fileID: 21300002, guid: adb3a4e601c4da446b4fb7e4ae4dedaf, type: 3}
    - time: 2.0833333
      value: {fileID: 21300004, guid: adb3a4e601c4da446b4fb7e4ae4dedaf, type: 3}
    - time: 2.1666665
      value: {fileID: 21300006, guid: adb3a4e601c4da446b4fb7e4ae4dedaf, type: 3}
    - time: 2.25
      value: {fileID: 21300008, guid: adb3a4e601c4da446b4fb7e4ae4dedaf, type: 3}
    - time: 2.3333333
      value: {fileID: 21300010, guid: adb3a4e601c4da446b4fb7e4ae4dedaf, type: 3}
    - time: 2.4166665
      value: {fileID: 21300012, guid: adb3a4e601c4da446b4fb7e4ae4dedaf, type: 3}
    - time: 2.5
      value: {fileID: 21300014, guid: adb3a4e601c4da446b4fb7e4ae4dedaf, type: 3}
    - time: 2.5833333
      value: {fileID: 21300016, guid: adb3a4e601c4da446b4fb7e4ae4dedaf, type: 3}
    - time: 2.6666665
      value: {fileID: 21300000, guid: 292ab3e73bfaab64199e7eaa6cd65437, type: 3}
    - time: 2.75
      value: {fileID: 21300002, guid: 292ab3e73bfaab64199e7eaa6cd65437, type: 3}
    - time: 2.8333333
      value: {fileID: 21300004, guid: 292ab3e73bfaab64199e7eaa6cd65437, type: 3}
    - time: 2.9166665
      value: {fileID: 21300006, guid: 292ab3e73bfaab64199e7eaa6cd65437, type: 3}
    - time: 3
      value: {fileID: 21300008, guid: 292ab3e73bfaab64199e7eaa6cd65437, type: 3}
    - time: 3.0833333
      value: {fileID: 21300010, guid: 292ab3e73bfaab64199e7eaa6cd65437, type: 3}
    - time: 3.1666665
      value: {fileID: 21300012, guid: 292ab3e73bfaab64199e7eaa6cd65437, type: 3}
    - time: 3.25
      value: {fileID: 21300014, guid: 292ab3e73bfaab64199e7eaa6cd65437, type: 3}
    - time: 3.3333335
      value: {fileID: 21300016, guid: 292ab3e73bfaab64199e7eaa6cd65437, type: 3}
    - time: 3.4166667
      value: {fileID: 21300018, guid: 292ab3e73bfaab64199e7eaa6cd65437, type: 3}
    - time: 3.5
      value: {fileID: 21300020, guid: 292ab3e73bfaab64199e7eaa6cd65437, type: 3}
    - time: 3.75
      value: {fileID: 21300020, guid: 292ab3e73bfaab64199e7eaa6cd65437, type: 3}
    attribute: m_Sprite
    path: 
    classID: 212
    script: {fileID: 0}
  m_SampleRate: 12
  m_WrapMode: 0
  m_Bounds:
    m_Center: {x: 0, y: 0, z: 0}
    m_Extent: {x: 0, y: 0, z: 0}
  m_ClipBindingConstant:
    genericBindings:
    - serializedVersion: 2
      path: 0
      attribute: 3305885265
      script: {fileID: 0}
      typeID: 212
      customType: 0
      isPPtrCurve: 0
    - serializedVersion: 2
      path: 0
      attribute: 0
      script: {fileID: 0}
      typeID: 212
      customType: 23
      isPPtrCurve: 1
    pptrCurveMapping:
    - {fileID: 21300000, guid: adb3a4e601c4da446b4fb7e4ae4dedaf, type: 3}
    - {fileID: 21300002, guid: adb3a4e601c4da446b4fb7e4ae4dedaf, type: 3}
    - {fileID: 21300004, guid: adb3a4e601c4da446b4fb7e4ae4dedaf, type: 3}
    - {fileID: 21300006, guid: adb3a4e601c4da446b4fb7e4ae4dedaf, type: 3}
    - {fileID: 21300008, guid: adb3a4e601c4da446b4fb7e4ae4dedaf, type: 3}
    - {fileID: 21300010, guid: adb3a4e601c4da446b4fb7e4ae4dedaf, type: 3}
    - {fileID: 21300012, guid: adb3a4e601c4da446b4fb7e4ae4dedaf, type: 3}
    - {fileID: 21300014, guid: adb3a4e601c4da446b4fb7e4ae4dedaf, type: 3}
    - {fileID: 21300016, guid: adb3a4e601c4da446b4fb7e4ae4dedaf, type: 3}
    - {fileID: 21300000, guid: 292ab3e73bfaab64199e7eaa6cd65437, type: 3}
    - {fileID: 21300002, guid: 292ab3e73bfaab64199e7eaa6cd65437, type: 3}
    - {fileID: 21300004, guid: 292ab3e73bfaab64199e7eaa6cd65437, type: 3}
    - {fileID: 21300006, guid: 292ab3e73bfaab64199e7eaa6cd65437, type: 3}
    - {fileID: 21300008, guid: 292ab3e73bfaab64199e7eaa6cd65437, type: 3}
    - {fileID: 21300010, guid: 292ab3e73bfaab64199e7eaa6cd65437, type: 3}
    - {fileID: 21300012, guid: 292ab3e73bfaab64199e7eaa6cd65437, type: 3}
    - {fileID: 21300014, guid: 292ab3e73bfaab64199e7eaa6cd65437, type: 3}
    - {fileID: 21300016, guid: 292ab3e73bfaab64199e7eaa6cd65437, type: 3}
    - {fileID: 21300018, guid: 292ab3e73bfaab64199e7eaa6cd65437, type: 3}
    - {fileID: 21300020, guid: 292ab3e73bfaab64199e7eaa6cd65437, type: 3}
    - {fileID: 21300020, guid: 292ab3e73bfaab64199e7eaa6cd65437, type: 3}
    - {fileID: 21300000, guid: adb3a4e601c4da446b4fb7e4ae4dedaf, type: 3}
    - {fileID: 21300002, guid: adb3a4e601c4da446b4fb7e4ae4dedaf, type: 3}
    - {fileID: 21300004, guid: adb3a4e601c4da446b4fb7e4ae4dedaf, type: 3}
    - {fileID: 21300006, guid: adb3a4e601c4da446b4fb7e4ae4dedaf, type: 3}
    - {fileID: 21300008, guid: adb3a4e601c4da446b4fb7e4ae4dedaf, type: 3}
    - {fileID: 21300010, guid: adb3a4e601c4da446b4fb7e4ae4dedaf, type: 3}
    - {fileID: 21300012, guid: adb3a4e601c4da446b4fb7e4ae4dedaf, type: 3}
    - {fileID: 21300014, guid: adb3a4e601c4da446b4fb7e4ae4dedaf, type: 3}
    - {fileID: 21300016, guid: adb3a4e601c4da446b4fb7e4ae4dedaf, type: 3}
    - {fileID: 21300000, guid: 292ab3e73bfaab64199e7eaa6cd65437, type: 3}
    - {fileID: 21300002, guid: 292ab3e73bfaab64199e7eaa6cd65437, type: 3}
    - {fileID: 21300004, guid: 292ab3e73bfaab64199e7eaa6cd65437, type: 3}
    - {fileID: 21300006, guid: 292ab3e73bfaab64199e7eaa6cd65437, type: 3}
    - {fileID: 21300008, guid: 292ab3e73bfaab64199e7eaa6cd65437, type: 3}
    - {fileID: 21300010, guid: 292ab3e73bfaab64199e7eaa6cd65437, type: 3}
    - {fileID: 21300012, guid: 292ab3e73bfaab64199e7eaa6cd65437, type: 3}
    - {fileID: 21300014, guid: 292ab3e73bfaab64199e7eaa6cd65437, type: 3}
    - {fileID: 21300016, guid: 292ab3e73bfaab64199e7eaa6cd65437, type: 3}
    - {fileID: 21300018, guid: 292ab3e73bfaab64199e7eaa6cd65437, type: 3}
    - {fileID: 21300020, guid: 292ab3e73bfaab64199e7eaa6cd65437, type: 3}
    - {fileID: 21300020, guid: 292ab3e73bfaab64199e7eaa6cd65437, type: 3}
  m_AnimationClipSettings:
    serializedVersion: 2
    m_AdditiveReferencePoseClip: {fileID: 0}
    m_AdditiveReferencePoseTime: 0
    m_StartTime: 0
    m_StopTime: 3.8333333
    m_OrientationOffsetY: 0
    m_Level: 0
    m_CycleOffset: 0
    m_HasAdditiveReferencePose: 0
    m_LoopTime: 0
    m_LoopBlend: 0
    m_LoopBlendOrientation: 0
    m_LoopBlendPositionY: 0
    m_LoopBlendPositionXZ: 0
    m_KeepOriginalOrientation: 0
    m_KeepOriginalPositionY: 1
    m_KeepOriginalPositionXZ: 0
    m_HeightFromFeet: 0
    m_Mirror: 0
  m_EditorCurves:
  - curve:
      serializedVersion: 2
      m_Curve:
      - serializedVersion: 2
        time: 0
        value: 1
        inSlope: Infinity
        outSlope: Infinity
        tangentMode: 103
      - serializedVersion: 2
        time: 3.8333333
        value: 1
        inSlope: Infinity
        outSlope: Infinity
        tangentMode: 103
      m_PreInfinity: 2
      m_PostInfinity: 2
      m_RotationOrder: 4
    attribute: m_Enabled
    path: 
    classID: 212
    script: {fileID: 0}
  m_EulerEditorCurves: []
  m_HasGenericRootTransform: 0
  m_HasMotionFloatCurves: 0
  m_GenerateMotionCurves: 0
  m_Events: []
