# Blender v2.76 (sub 0) OBJ File: ''
# www.blender.org
mtllib bulbs.mtl
o Object01.001
v 3.128628 9.995003 5.821586
v 0.805461 9.995002 -0.006358
v 1.876419 4.747829 -0.001211
v 3.896911 4.747828 5.067424
v 8.469046 9.994984 8.260088
v 8.541540 4.747813 7.188221
v 14.601975 9.995029 6.128827
v 13.875427 4.747852 5.334636
v 17.267118 9.995050 -0.001259
v 16.193329 4.747871 0.003224
v 15.129554 9.995071 -5.537005
v 14.334263 4.747890 -4.811284
v 9.408687 9.995115 -8.279675
v 9.358753 4.747928 -7.196616
v 3.393158 9.995152 -6.120953
v 4.126975 4.747961 -5.319149
v 0.808978 15.559052 8.098591
v -2.428050 15.559052 -0.021900
v 8.250162 15.559026 11.496329
v 16.795616 15.559092 8.526693
v 20.509157 15.559119 -0.014794
v 17.530729 15.559151 -7.728146
v 9.559440 15.559210 -11.549701
v 1.177574 15.559262 -8.541802
v -1.036316 20.467175 9.909970
v -5.000344 20.467176 -0.034264
v 8.076046 20.467144 14.070794
v 18.540686 20.467222 10.434218
v 23.088226 20.467257 -0.025564
v 19.440893 20.467295 -9.471219
v 9.679364 20.467369 -14.151042
v -0.584945 20.467436 -10.467611
v -1.700976 25.737364 10.562410
v -5.926857 25.737366 -0.038717
v 8.013334 25.737331 14.998087
v 19.169237 25.737411 11.121289
v 24.017172 25.737450 -0.029441
v 20.128910 25.737494 -10.099053
v 9.722556 25.737568 -15.088016
v -1.219787 25.737638 -11.161264
v -4.989707 30.583040 -0.030504
v -1.027730 30.583038 9.908574
v 8.079909 30.583012 14.067239
v 18.539120 30.583080 10.432550
v 23.084305 30.583120 -0.021807
v 19.438852 30.583155 -9.462564
v 9.682393 30.583233 -14.139962
v -0.576599 30.583298 -10.458440
v 6.782086 39.588299 0.037205
v 7.419925 39.588303 1.637290
v 9.061790 39.780174 0.073330
v 7.492551 39.588341 -1.641582
v 10.714825 39.588318 -1.481257
v 9.144140 39.588329 -2.234267
v 8.886156 39.588299 2.306791
v 10.569975 39.588310 1.721644
v 11.301704 39.588314 0.038605
v 0.779426 37.971905 0.000937
v 3.111859 37.971905 5.852110
v 8.473557 37.971889 8.300330
v 14.630939 37.971931 6.160576
v 17.306702 37.971951 0.006057
v 15.160615 37.971970 -5.551754
v 9.416949 37.972012 -8.305355
v 3.377441 37.972046 -6.138030
v 0.744427 35.166588 8.172504
v -2.520033 35.166588 -0.016778
v 8.248652 35.166565 11.599030
v 16.866495 35.166626 8.604234
v 20.611479 35.166653 -0.009612
v 17.607830 35.166679 -7.788305
v 9.569014 35.166740 -11.642235
v 1.116137 35.166794 -8.608854
vt 0.097582 0.749171
vt 0.051284 0.739624
vt 0.063614 0.701861
vt 0.103803 0.709333
vt 0.144622 0.750739
vt 0.146573 0.709709
vt 0.197613 0.749797
vt 0.197966 0.708002
vt 0.252739 0.749513
vt 0.253351 0.707377
vt 0.302264 0.751369
vt 0.303706 0.709477
vt 0.354187 0.754732
vt 0.354503 0.713555
vt 0.405281 0.755790
vt 0.401142 0.715605
vt 0.454650 0.747995
vt 0.444036 0.709689
vt 0.089566 0.793784
vt 0.029476 0.785392
vt 0.141680 0.792543
vt 0.196772 0.789878
vt 0.252421 0.789118
vt 0.301195 0.791371
vt 0.354528 0.796332
vt 0.410913 0.800582
vt 0.474514 0.794582
vt 0.087222 0.828596
vt 0.017272 0.830650
vt 0.141296 0.822616
vt 0.196785 0.817685
vt 0.252185 0.816477
vt 0.299882 0.819179
vt 0.353259 0.825924
vt 0.411645 0.835045
vt 0.484961 0.840249
vt 0.090409 0.859809
vt 0.019718 0.877025
vt 0.143500 0.848841
vt 0.197765 0.841910
vt 0.251816 0.840403
vt 0.297929 0.843437
vt 0.350002 0.851585
vt 0.407293 0.865571
vt 0.480740 0.886464
vt 0.037268 0.917704
vt 0.098889 0.887065
vt 0.148265 0.872128
vt 0.199731 0.863814
vt 0.251235 0.862168
vt 0.295288 0.865387
vt 0.344729 0.874372
vt 0.398058 0.892064
vt 0.461660 0.926421
vt 0.156718 0.978467
vt 0.162131 0.968521
vt 0.168166 0.985054
vt 0.158426 0.991112
vt 0.287446 0.977855
vt 0.282305 0.954915
vt 0.307148 0.955598
vt 0.307145 0.976527
vt 0.183450 0.980215
vt 0.178336 0.956620
vt 0.188903 0.971587
vt 0.242560 0.947553
vt 0.247585 0.965672
vt 0.231947 0.973661
vt 0.217454 0.952824
vt 0.105162 0.971493
vt 0.132022 0.936771
vt 0.166445 0.920485
vt 0.207342 0.911677
vt 0.249437 0.910170
vt 0.286909 0.913311
vt 0.326198 0.921934
vt 0.363872 0.940807
vt 0.329630 0.971639
vt 0.392227 0.977941
vt 0.341355 0.985539
vt 0.114103 0.914723
vt 0.068934 0.952009
vt 0.156572 0.897601
vt 0.203150 0.888585
vt 0.250406 0.886892
vt 0.291344 0.890152
vt 0.336208 0.899409
vt 0.382235 0.919028
vt 0.428822 0.959504
vn -0.681000 -0.358800 0.638400
vn -0.933900 -0.357200 -0.016900
vn -0.972400 -0.198400 0.122700
vn -0.613900 -0.199700 0.763700
vn -0.050300 -0.357600 0.932500
vn 0.084200 -0.198300 0.976500
vn 0.629300 -0.358600 0.689500
vn 0.763200 -0.198700 0.614800
vn 0.933300 -0.358200 0.026900
vn 0.973500 -0.199300 -0.112400
vn 0.690100 -0.358500 -0.628700
vn 0.626200 -0.199200 -0.753800
vn 0.055100 -0.360900 -0.931000
vn -0.085200 -0.200600 -0.976000
vn -0.635500 -0.361300 -0.682300
vn -0.769000 -0.200300 -0.607000
vn -0.632700 -0.485300 0.603500
vn -0.875300 -0.483400 -0.008100
vn -0.039200 -0.484600 0.873900
vn 0.595600 -0.485300 0.640100
vn 0.874700 -0.484300 0.017700
vn 0.641000 -0.485400 -0.594500
vn 0.043600 -0.488000 -0.871800
vn -0.600800 -0.488900 -0.632500
vn -0.681100 -0.324600 0.656300
vn -0.946200 -0.323400 -0.004000
vn -0.038100 -0.324600 0.945100
vn 0.647600 -0.325100 0.689100
vn 0.946000 -0.323700 0.014100
vn 0.690400 -0.325000 -0.646300
vn 0.042300 -0.326900 -0.944100
vn -0.654000 -0.328000 -0.681700
vn -0.809300 0.008200 0.587400
vn -0.989200 0.008500 -0.146100
vn -0.178800 0.007900 0.983900
vn 0.566700 0.007800 0.823900
vn 0.987700 0.007900 0.156200
vn 0.816900 0.008200 -0.576700
vn 0.188500 0.008700 -0.982000
vn -0.574900 0.008800 -0.818100
vn -0.932900 0.356800 0.047800
vn -0.590200 0.335800 0.734100
vn 0.081300 0.333300 0.939300
vn 0.734100 0.334000 0.591200
vn 0.936000 0.335000 -0.107800
vn 0.602000 0.335200 -0.724700
vn -0.081800 0.337900 -0.937600
vn -0.713100 0.310900 -0.628400
vn -0.172400 0.985000 -0.001900
vn -0.152100 0.981600 0.115600
vn 0.000800 1.000000 0.001100
vn -0.137000 0.980000 -0.144000
vn 0.153100 0.981700 -0.113600
vn 0.031400 0.981900 -0.186600
vn -0.029100 0.981500 0.189000
vn 0.112800 0.981500 0.154800
vn 0.190700 0.981300 0.026200
vn -0.395200 0.918600 -0.004400
vn -0.352100 0.887000 0.298900
vn -0.046200 0.886700 0.460000
vn 0.293000 0.887100 0.356500
vn 0.461600 0.886300 0.037100
vn 0.355400 0.887100 -0.294300
vn 0.050300 0.888500 -0.456200
vn -0.359400 0.853000 -0.378600
vn -0.571300 0.632500 0.523100
vn -0.735000 0.678000 -0.008000
vn -0.049900 0.631300 0.774000
vn 0.515400 0.632300 0.578400
vn 0.774800 0.631400 0.032000
vn 0.578400 0.632400 -0.515400
vn 0.054900 0.635300 -0.770300
vn -0.557100 0.586500 -0.587900
usemtl Material.003
s 1
f 1/1/1 2/2/2 3/3/3 4/4/4
f 5/5/5 1/1/1 4/4/4 6/6/6
f 7/7/7 5/5/5 6/6/6 8/8/8
f 9/9/9 7/7/7 8/8/8 10/10/10
f 11/11/11 9/9/9 10/10/10 12/12/12
f 13/13/13 11/11/11 12/12/12 14/14/14
f 15/15/15 13/13/13 14/14/14 16/16/16
f 2/17/2 15/15/15 16/16/16 3/18/3
f 17/19/17 18/20/18 2/2/2 1/1/1
f 19/21/19 17/19/17 1/1/1 5/5/5
f 20/22/20 19/21/19 5/5/5 7/7/7
f 21/23/21 20/22/20 7/7/7 9/9/9
f 22/24/22 21/23/21 9/9/9 11/11/11
f 23/25/23 22/24/22 11/11/11 13/13/13
f 24/26/24 23/25/23 13/13/13 15/15/15
f 18/27/18 24/26/24 15/15/15 2/17/2
f 25/28/25 26/29/26 18/20/18 17/19/17
f 27/30/27 25/28/25 17/19/17 19/21/19
f 28/31/28 27/30/27 19/21/19 20/22/20
f 29/32/29 28/31/28 20/22/20 21/23/21
f 30/33/30 29/32/29 21/23/21 22/24/22
f 31/34/31 30/33/30 22/24/22 23/25/23
f 32/35/32 31/34/31 23/25/23 24/26/24
f 26/36/26 32/35/32 24/26/24 18/27/18
f 33/37/33 34/38/34 26/29/26 25/28/25
f 35/39/35 33/37/33 25/28/25 27/30/27
f 36/40/36 35/39/35 27/30/27 28/31/28
f 37/41/37 36/40/36 28/31/28 29/32/29
f 38/42/38 37/41/37 29/32/29 30/33/30
f 39/43/39 38/42/38 30/33/30 31/34/31
f 40/44/40 39/43/39 31/34/31 32/35/32
f 34/45/34 40/44/40 32/35/32 26/36/26
f 41/46/41 34/38/34 33/37/33 42/47/42
f 42/47/42 33/37/33 35/39/35 43/48/43
f 43/48/43 35/39/35 36/40/36 44/49/44
f 44/49/44 36/40/36 37/41/37 45/50/45
f 45/50/45 37/41/37 38/42/38 46/51/46
f 46/51/46 38/42/38 39/43/39 47/52/47
f 47/52/47 39/43/39 40/44/40 48/53/48
f 48/53/48 40/44/40 34/45/34 41/54/41
f 49/55/49 50/56/50 51/57/51 52/58/52
f 51/59/51 53/60/53 54/61/54 52/62/52
f 51/63/51 50/56/50 55/64/55 56/65/56
f 57/66/57 53/67/53 51/68/51 56/69/56
f 58/70/58 59/71/59 50/56/50 49/55/49
f 59/71/59 60/72/60 55/64/55 50/56/50
f 60/72/60 61/73/61 56/69/56 55/64/55
f 61/73/61 62/74/62 57/66/57 56/69/56
f 62/74/62 63/75/63 53/60/53 57/66/57
f 63/75/63 64/76/64 54/61/54 53/60/53
f 64/76/64 65/77/65 52/78/52 54/61/54
f 52/78/52 65/77/65 58/79/58 49/80/49
f 41/46/41 42/47/42 66/81/66 67/82/67
f 42/47/42 43/48/43 68/83/68 66/81/66
f 43/48/43 44/49/44 69/84/69 68/83/68
f 44/49/44 45/50/45 70/85/70 69/84/69
f 45/50/45 46/51/46 71/86/71 70/85/70
f 46/51/46 47/52/47 72/87/72 71/86/71
f 47/52/47 48/53/48 73/88/73 72/87/72
f 73/88/73 48/53/48 41/54/41 67/89/67
f 67/82/67 66/81/66 59/71/59 58/70/58
f 66/81/66 68/83/68 60/72/60 59/71/59
f 68/83/68 69/84/69 61/73/61 60/72/60
f 69/84/69 70/85/70 62/74/62 61/73/61
f 70/85/70 71/86/71 63/75/63 62/74/62
f 71/86/71 72/87/72 64/76/64 63/75/63
f 72/87/72 73/88/73 65/77/65 64/76/64
f 65/77/65 73/88/73 67/89/67 58/79/58
o Object01
v 2.115361 3.088647 0.000005
v 3.081111 2.005346 -0.078604
v 4.511005 2.175074 4.341003
v 4.063922 3.088774 4.888196
v 2.114983 0.586613 -0.027892
v 3.949693 0.710456 4.726155
v 3.519331 -0.399898 -0.020456
v 5.061462 -0.238367 3.698189
v 2.114223 -1.467464 -0.012021
v 4.027315 -1.327276 4.817487
v 3.519337 -2.469068 -0.004112
v 5.142664 -2.336812 3.790978
v 2.116125 -3.540008 0.004058
v 4.105961 -3.391803 4.910012
v 3.524145 -4.569873 0.011730
v 5.220057 -4.370769 3.882230
v 2.118400 -5.646662 0.040427
v 4.189075 -5.466398 4.998931
v 3.937632 -6.720024 0.051633
v 5.510006 -6.532342 3.821238
v 3.230307 -7.866600 0.074960
v 4.948631 -7.679575 4.426099
v 5.561502 -8.388632 0.239960
v 6.766190 -8.318625 2.691474
v 8.673095 1.071429 6.934151
v 8.543203 3.086141 6.933492
v 8.757618 0.119625 5.415091
v 8.853814 -0.961341 6.935891
v 8.943726 -1.973716 5.415088
v 9.036914 -3.020841 6.937644
v 9.124109 -4.002719 5.416952
v 9.220906 -5.090403 6.933645
v 9.315822 -6.159071 5.406561
v 9.129364 -7.301512 6.198476
v 9.430147 -7.820897 4.328165
v 13.747017 1.470120 5.075406
v 13.687201 3.093195 5.145895
v 12.712630 0.508333 3.955332
v 13.830828 -0.567288 4.977915
v 12.797663 -1.589793 3.853668
v 13.915723 -2.631486 4.879135
v 12.881405 -3.623426 3.756448
v 13.996973 -4.705802 4.775801
v 12.961661 -5.784762 3.644380
v 13.627091 -6.926860 4.377381
v 12.267396 -7.455930 2.801337
v 15.923666 1.631998 0.003045
v 15.922587 3.096081 0.004281
v 14.405173 0.676858 0.002211
v 15.925982 -0.408797 0.001325
v 14.405768 -1.424747 0.000439
v 15.928320 -2.476427 -0.000418
v 14.408207 -3.461761 -0.001278
v 15.924909 -4.554158 -0.002169
v 14.398431 -5.626624 -0.003103
v 15.353247 -6.773733 -0.004058
v 13.320725 -7.294712 -0.004530
v 14.061104 1.813837 -4.715489
v 14.129704 3.099214 -4.638829
v 12.942965 0.865278 -3.691385
v 13.966241 -0.222316 -4.822730
v 12.844005 -1.231541 -3.800553
v 13.870125 -2.285243 -4.931372
v 12.749408 -3.263921 -3.907683
v 13.769465 -4.358230 -5.036474
v 12.640136 -5.423822 -4.012794
v 13.371992 -6.569988 -4.478693
v 11.799741 -7.084984 -3.337199
v 9.232478 2.180475 -6.938105
v 9.331326 3.105648 -6.939243
v 9.167975 1.225392 -5.418694
v 9.094951 0.144318 -6.937345
v 9.026346 -0.871439 -5.416118
v 8.955611 -1.918614 -6.936563
v 8.889068 -2.903824 -5.415484
v 8.815591 -3.991631 -6.930021
v 8.743176 -5.063783 -5.402448
v 8.759021 -6.207488 -6.325446
v 8.870365 -6.942896 -4.321509
v 4.228384 2.514333 -5.063131
v 4.285792 3.111524 -5.128614
v 5.264513 1.554222 -3.946349
v 4.147930 0.476760 -4.972608
v 5.182928 -0.544070 -3.851860
v 4.066425 -1.587605 -4.880886
v 5.102528 -2.577867 -3.761593
v 3.988592 -3.662079 -4.784644
v 5.025826 -4.739362 -3.656915
v 4.162579 -5.882215 -4.522565
v 5.683377 -6.823836 -3.295588
v 4.840533 -7.866599 -3.833867
v 6.422540 -8.388631 -2.178086
v 8.738825 -7.866595 -5.260046
v 8.731865 -8.388628 -3.238649
v 12.429173 -7.866595 -3.927068
v 11.190307 -8.388629 -2.388952
v 14.314386 -7.866596 0.106380
v 12.274665 -8.388630 0.007879
v 12.818921 -7.866598 3.534290
v 11.578333 -8.388629 2.171743
v 9.316375 -8.071012 4.792142
v 9.378757 -8.388631 3.430748
v 4.063922 4.310365 4.888196
v 2.115361 4.310238 0.000006
v 8.543197 4.307732 6.933492
v 13.687201 4.314787 5.145895
v 15.922587 4.317673 0.004282
v 14.129704 4.320807 -4.638828
v 9.331326 4.327240 -6.939243
v 4.285792 4.333116 -5.128613
v 3.633252 4.891391 5.310950
v 1.515018 4.891393 -0.002880
v 8.502562 4.891376 7.534340
v 14.094477 4.891418 5.591088
v 16.524508 4.891438 0.001768
v 14.575511 4.891458 -5.045640
v 9.359317 4.891496 -7.546363
v 3.874447 4.891530 -5.578073
v 7.135427 -8.995399 0.231132
v 7.780550 -8.993627 1.474644
v 6.766190 -8.152630 2.691474
v 5.561502 -8.222636 0.239960
v 7.581362 -8.995234 -1.111706
v 6.422540 -8.222635 -2.178087
v 8.805522 -8.995080 -1.673918
v 8.731871 -8.222632 -3.238649
v 10.123217 -8.995018 -1.218503
v 11.190307 -8.222633 -2.388952
v 10.702536 -8.995092 -0.077673
v 12.274665 -8.222633 0.007879
v 10.366765 -8.995241 1.195197
v 11.578338 -8.222634 2.171743
v 9.184330 -8.995399 1.872022
v 9.378762 -8.222636 3.430748
v 7.392025 -9.760664 0.214499
v 7.946116 -9.759046 1.272644
v 7.767703 -9.760474 -0.931028
v 8.809490 -9.760294 -1.409492
v 9.938454 -9.760222 -1.019310
v 10.440141 -9.760308 -0.050068
v 10.165521 -9.760480 1.032768
v 9.150633 -9.760663 1.613694
v 8.977220 -10.064443 0.076909
vt 0.610150 0.800106
vt 0.633556 0.800099
vt 0.633529 0.859073
vt 0.612836 0.859074
vt 0.664152 0.800099
vt 0.664080 0.859072
vt 0.695136 0.800099
vt 0.695108 0.859072
vt 0.727133 0.800099
vt 0.727133 0.859072
vt 0.758201 0.800099
vt 0.758214 0.859072
vt 0.789979 0.800099
vt 0.790016 0.859072
vt 0.821518 0.800099
vt 0.821582 0.859072
vt 0.850446 0.800098
vt 0.850499 0.859072
vt 0.885128 0.800097
vt 0.885257 0.859072
vt 0.907752 0.800097
vt 0.907827 0.859072
vt 0.947234 0.800103
vt 0.953701 0.863580
vt 0.664058 0.914993
vt 0.624072 0.914997
vt 0.695090 0.914990
vt 0.727132 0.914991
vt 0.758204 0.914990
vt 0.789999 0.914991
vt 0.821563 0.914991
vt 0.850486 0.914989
vt 0.885136 0.914991
vt 0.907764 0.914978
vt 0.941120 0.909681
vt 0.664104 0.979580
vt 0.633112 0.980703
vt 0.695112 0.970566
vt 0.727133 0.977686
vt 0.758213 0.969364
vt 0.790013 0.976148
vt 0.821583 0.968352
vt 0.850501 0.974473
vt 0.885185 0.966903
vt 0.907823 0.968585
vt 0.947186 0.957546
vt 0.580893 0.496088
vt 0.602576 0.496897
vt 0.602529 0.563603
vt 0.580927 0.563603
vt 0.633604 0.504783
vt 0.633574 0.563602
vt 0.664245 0.498277
vt 0.664213 0.563604
vt 0.695237 0.506404
vt 0.695214 0.563605
vt 0.727140 0.499756
vt 0.727140 0.563607
vt 0.758278 0.508012
vt 0.758276 0.563609
vt 0.790102 0.501227
vt 0.790085 0.563609
vt 0.821736 0.509650
vt 0.821714 0.563611
vt 0.850520 0.503763
vt 0.850510 0.563609
vt 0.885319 0.516167
vt 0.885297 0.563615
vt 0.602428 0.625275
vt 0.580931 0.625269
vt 0.633518 0.625276
vt 0.664150 0.625285
vt 0.695170 0.625290
vt 0.727136 0.625297
vt 0.758241 0.625305
vt 0.790050 0.625309
vt 0.821661 0.625318
vt 0.850471 0.625291
vt 0.885135 0.625324
vt 0.602396 0.684599
vt 0.581060 0.684598
vt 0.633495 0.684597
vt 0.664127 0.684598
vt 0.695152 0.684598
vt 0.727135 0.684599
vt 0.758231 0.684600
vt 0.790040 0.684599
vt 0.821645 0.684600
vt 0.850471 0.684595
vt 0.885201 0.684587
vt 0.602354 0.741630
vt 0.587124 0.741630
vt 0.633478 0.741625
vt 0.664102 0.741625
vt 0.695132 0.741625
vt 0.727134 0.741625
vt 0.758220 0.741627
vt 0.790029 0.741627
vt 0.821622 0.741630
vt 0.850494 0.741629
vt 0.885261 0.741621
vt 0.907827 0.741629
vt 0.949761 0.741632
vt 0.907786 0.684588
vt 0.943271 0.684583
vt 0.907713 0.625309
vt 0.937178 0.625281
vt 0.907778 0.563601
vt 0.942238 0.563605
vt 0.907741 0.509594
vt 0.937445 0.517591
vt 0.952100 0.910428
vt 0.965381 0.956504
vt 0.975298 0.905204
vt 0.991427 0.940255
vt 0.583591 0.861323
vt 0.576288 0.802584
vt 0.590534 0.917038
vt 0.598882 0.984094
vt 0.546956 0.566981
vt 0.538627 0.499964
vt 0.554590 0.628416
vt 0.561943 0.687517
vt 0.569012 0.744334
vt 0.569184 0.862211
vt 0.561886 0.803474
vt 0.576108 0.917931
vt 0.584946 0.989057
vt 0.532611 0.567867
vt 0.523914 0.497871
vt 0.540244 0.629302
vt 0.547587 0.688403
vt 0.554647 0.745222
vt 0.968102 0.296019
vt 0.968130 0.280181
vt 0.985793 0.273228
vt 0.985789 0.302459
vt 0.968090 0.323503
vt 0.968079 0.309076
vt 0.985791 0.329037
vt 0.968145 0.349053
vt 0.968134 0.334578
vt 0.985793 0.354714
vt 0.968118 0.375360
vt 0.968114 0.360379
vt 0.985785 0.381501
vt 0.967990 0.403184
vt 0.967995 0.387641
vt 0.985780 0.409122
vt 0.968023 0.427423
vt 0.968033 0.415053
vt 0.985781 0.433472
vt 0.968094 0.238786
vt 0.968105 0.224146
vt 0.985790 0.218104
vt 0.985785 0.244777
vt 0.968122 0.266710
vt 0.968031 0.251027
vt 0.959459 0.295247
vt 0.959462 0.281623
vt 0.959459 0.322350
vt 0.959457 0.310174
vt 0.959463 0.347642
vt 0.959462 0.335861
vt 0.959460 0.374185
vt 0.959460 0.361350
vt 0.959451 0.402290
vt 0.959451 0.388771
vt 0.959453 0.426419
vt 0.959455 0.416194
vt 0.959458 0.237716
vt 0.959459 0.225151
vt 0.959461 0.265519
vt 0.959454 0.252059
vt 0.945528 0.342921
vt 0.940673 0.356343
vt 0.932146 0.349464
vt 0.931122 0.338041
vt 0.939091 0.328701
vt 0.950789 0.328093
vt 0.951365 0.355838
vn -0.389200 -0.920600 -0.033100
vn -0.740600 -0.063900 0.669000
vn -0.606500 0.487900 0.627800
vn -0.920200 -0.333600 0.204800
vn -0.954200 -0.139700 0.264700
vn 0.057700 -0.986400 -0.154100
vn 0.347300 -0.024200 -0.937400
vn 0.327200 -0.943200 -0.057100
vn 0.014200 -0.023200 -0.999600
vn 0.058300 -0.996900 0.052400
vn 0.351000 -0.018000 -0.936200
vn 0.323800 -0.945500 -0.033300
vn 0.009300 -0.026200 -0.999600
vn 0.029400 -0.998200 0.052800
vn 0.342100 -0.022700 -0.939400
vn 0.350900 -0.935900 -0.030300
vn -0.058300 -0.011000 -0.998200
vn 0.014400 -0.999000 0.043500
vn -0.955200 -0.279400 0.097500
vn -0.781700 0.462800 0.418000
vn -0.951000 -0.303600 0.059400
vn 0.100200 -0.993000 -0.062200
vn -0.203500 -0.967500 0.150400
vn 0.045800 -0.993100 0.107800
vn -0.058400 -0.070400 0.995800
vn -0.676900 -0.118900 0.726400
vn 0.274200 -0.923400 -0.268500
vn 0.109800 -0.985700 0.127900
vn 0.364300 -0.895700 -0.255000
vn 0.083300 -0.986700 0.139900
vn 0.380900 -0.877900 -0.290000
vn 0.057600 -0.990500 0.124900
vn -0.427900 0.372700 0.823400
vn -0.179500 -0.977500 0.110500
vn 0.309500 -0.802900 -0.509500
vn 0.592300 0.453100 0.666200
vn 0.473300 0.002000 0.880900
vn -0.040200 -0.929200 -0.367500
vn 0.129100 -0.991400 0.022500
vn -0.044600 -0.929700 -0.365600
vn 0.126400 -0.991000 0.044500
vn -0.032200 -0.911300 -0.410500
vn 0.088000 -0.995600 0.031900
vn 0.441000 0.498300 0.746400
vn -0.101200 -0.994800 -0.005600
vn -0.198700 -0.763400 -0.614500
vn 0.763000 0.646400 0.003400
vn 0.920200 -0.001300 0.391500
vn -0.260600 -0.907900 -0.328300
vn 0.111700 -0.993700 -0.007600
vn -0.241800 -0.888500 -0.389900
vn 0.126600 -0.992000 0.001900
vn -0.268500 -0.883900 -0.382900
vn 0.109700 -0.993900 0.011000
vn 0.796400 0.490000 0.354500
vn 0.052400 -0.998300 0.024400
vn -0.627500 -0.764800 -0.146300
vn 0.691500 0.408900 -0.595500
vn 0.876700 -0.004300 -0.481100
vn -0.345900 -0.938200 0.008400
vn -0.045300 -0.996100 -0.075800
vn -0.338900 -0.940800 -0.000100
vn -0.009900 -0.996500 -0.083500
vn -0.377300 -0.925700 -0.025600
vn -0.009500 -0.998300 -0.057400
vn 0.802400 0.472100 -0.365000
vn 0.065500 -0.971800 0.226400
vn -0.761400 -0.578800 0.291800
vn 0.107500 0.644900 -0.756700
vn 0.424000 -0.002400 -0.905700
vn -0.288800 -0.916500 0.276700
vn -0.084300 -0.987000 -0.136600
vn -0.372700 -0.889400 0.264700
vn -0.061200 -0.987200 -0.147400
vn -0.383800 -0.873000 0.300800
vn -0.038300 -0.991100 -0.127300
vn 0.374000 0.454500 -0.808500
vn 0.024000 -0.997700 -0.062800
vn 0.004800 -0.651400 0.758700
vn -0.570600 0.426700 -0.701700
vn -0.474400 0.010100 -0.880300
vn -0.037000 -0.905700 0.422200
vn -0.065000 -0.997000 0.041900
vn 0.038700 -0.925600 0.376600
vn -0.110500 -0.993100 -0.039300
vn 0.020200 -0.906900 0.420900
vn -0.080100 -0.996300 -0.031800
vn -0.687200 0.029300 -0.725800
vn 0.050700 -0.996400 0.067700
vn 0.574200 -0.657200 0.488200
vn -0.672400 0.686400 -0.277000
vn -0.232900 -0.969000 -0.082900
vn -0.242600 0.708200 -0.663000
vn -0.114300 -0.961800 -0.248800
vn 0.242300 0.701200 -0.670600
vn 0.088300 -0.962700 -0.255600
vn 0.504400 0.830700 -0.235800
vn 0.251500 -0.961100 -0.113800
vn 0.419200 0.889300 0.182800
vn 0.295600 -0.950600 0.095100
vn 0.127500 0.859700 0.494700
vn 0.132200 -0.963900 0.230900
vn -0.678000 -0.398700 0.617500
vn -0.917000 -0.397800 -0.030600
vn -0.062400 -0.397300 0.915500
vn 0.606800 -0.401900 0.685800
vn 0.914500 -0.402500 0.040400
vn 0.685400 -0.403600 -0.606100
vn 0.068500 -0.409000 -0.909900
vn -0.611700 -0.407800 -0.677900
vn -0.564900 -0.716500 0.409300
vn -0.686900 -0.719600 -0.101500
vn -0.123800 -0.716500 0.686500
vn 0.394600 -0.718200 0.573100
vn 0.686600 -0.718700 0.109800
vn 0.564000 -0.723300 -0.398500
vn 0.129500 -0.728000 -0.673200
vn -0.391600 -0.733300 -0.555800
vn -0.750000 -0.600500 -0.277400
vn -0.267900 -0.896900 0.351900
vn -0.347100 -0.882800 0.316600
vn -0.443200 -0.896100 -0.023100
vn -0.301400 -0.622700 -0.722100
vn -0.282600 -0.896100 -0.342200
vn 0.299900 -0.601900 -0.740200
vn 0.037300 -0.895400 -0.443800
vn 0.716500 -0.622300 -0.315200
vn 0.340400 -0.895000 -0.288300
vn 0.758000 -0.600900 0.253500
vn 0.445800 -0.894900 0.019800
vn 0.368700 -0.611600 0.700000
vn 0.308800 -0.894100 0.324300
vn -0.252700 -0.591700 0.765500
vn -0.017600 -0.892200 0.451300
vn -0.713900 -0.684300 0.148400
vn -0.384900 -0.685300 0.618200
vn -0.599700 -0.685100 -0.413500
vn -0.119200 -0.682200 -0.721400
vn 0.410200 -0.684400 -0.602800
vn 0.713200 -0.682200 -0.161100
vn 0.629800 -0.683800 0.368400
vn 0.175800 -0.684000 0.708000
vn 0.007700 -1.000000 -0.004200
usemtl Material.001
s 1
f 74/90/74 75/91/75 76/92/76 77/93/77
f 75/91/75 78/94/78 79/95/79 76/92/76
f 78/94/78 80/96/80 81/97/81 79/95/79
f 80/96/80 82/98/82 83/99/83 81/97/81
f 82/98/82 84/100/84 85/101/85 83/99/83
f 84/100/84 86/102/86 87/103/87 85/101/85
f 86/102/86 88/104/88 89/105/89 87/103/87
f 88/104/88 90/106/90 91/107/91 89/105/89
f 90/106/90 92/108/92 93/109/93 91/107/91
f 92/108/92 94/110/94 95/111/95 93/109/93
f 94/110/94 96/112/96 97/113/97 95/111/95
f 76/92/76 79/95/79 98/114/98 99/115/99
f 79/95/79 81/97/81 100/116/100 98/114/98
f 81/97/81 83/99/83 101/117/101 100/116/100
f 83/99/83 85/101/85 102/118/102 101/117/101
f 85/101/85 87/103/87 103/119/103 102/118/102
f 87/103/87 89/105/89 104/120/104 103/119/103
f 89/105/89 91/107/91 105/121/105 104/120/104
f 91/107/91 93/109/93 106/122/106 105/121/105
f 93/109/93 95/111/95 107/123/107 106/122/106
f 95/111/95 97/113/97 108/124/108 107/123/107
f 99/115/99 98/114/98 109/125/109 110/126/110
f 98/114/98 100/116/100 111/127/111 109/125/109
f 100/116/100 101/117/101 112/128/112 111/127/111
f 101/117/101 102/118/102 113/129/113 112/128/112
f 102/118/102 103/119/103 114/130/114 113/129/113
f 103/119/103 104/120/104 115/131/115 114/130/114
f 104/120/104 105/121/105 116/132/116 115/131/115
f 105/121/105 106/122/106 117/133/117 116/132/116
f 106/122/106 107/123/107 118/134/118 117/133/117
f 107/123/107 108/124/108 119/135/119 118/134/118
f 110/136/110 109/137/109 120/138/120 121/139/121
f 109/137/109 111/140/111 122/141/122 120/138/120
f 111/140/111 112/142/112 123/143/123 122/141/122
f 112/142/112 113/144/113 124/145/124 123/143/123
f 113/144/113 114/146/114 125/147/125 124/145/124
f 114/146/114 115/148/115 126/149/126 125/147/125
f 115/148/115 116/150/116 127/151/127 126/149/126
f 116/150/116 117/152/117 128/153/128 127/151/127
f 117/152/117 118/154/118 129/155/129 128/153/128
f 118/154/118 119/156/119 130/157/130 129/155/129
f 121/139/121 120/138/120 131/158/131 132/159/132
f 120/138/120 122/141/122 133/160/133 131/158/131
f 122/141/122 123/143/123 134/161/134 133/160/133
f 123/143/123 124/145/124 135/162/135 134/161/134
f 124/145/124 125/147/125 136/163/136 135/162/135
f 125/147/125 126/149/126 137/164/137 136/163/136
f 126/149/126 127/151/127 138/165/138 137/164/137
f 127/151/127 128/153/128 139/166/139 138/165/138
f 128/153/128 129/155/129 140/167/140 139/166/139
f 129/155/129 130/157/130 141/168/141 140/167/140
f 132/159/132 131/158/131 142/169/142 143/170/143
f 131/158/131 133/160/133 144/171/144 142/169/142
f 133/160/133 134/161/134 145/172/145 144/171/144
f 134/161/134 135/162/135 146/173/146 145/172/145
f 135/162/135 136/163/136 147/174/147 146/173/146
f 136/163/136 137/164/137 148/175/148 147/174/147
f 137/164/137 138/165/138 149/176/149 148/175/148
f 138/165/138 139/166/139 150/177/150 149/176/149
f 139/166/139 140/167/140 151/178/151 150/177/150
f 140/167/140 141/168/141 152/179/152 151/178/151
f 143/170/143 142/169/142 153/180/153 154/181/154
f 142/169/142 144/171/144 155/182/155 153/180/153
f 144/171/144 145/172/145 156/183/156 155/182/155
f 145/172/145 146/173/146 157/184/157 156/183/156
f 146/173/146 147/174/147 158/185/158 157/184/157
f 147/174/147 148/175/148 159/186/159 158/185/158
f 148/175/148 149/176/149 160/187/160 159/186/159
f 149/176/149 150/177/150 161/188/161 160/187/160
f 150/177/150 151/178/151 162/189/162 161/188/161
f 151/178/151 152/179/152 163/190/163 162/189/162
f 153/180/153 155/182/155 75/91/75 74/90/74
f 155/182/155 156/183/156 78/94/78 75/91/75
f 156/183/156 157/184/157 80/96/80 78/94/78
f 157/184/157 158/185/158 82/98/82 80/96/80
f 158/185/158 159/186/159 84/100/84 82/98/82
f 159/186/159 160/187/160 86/102/86 84/100/84
f 160/187/160 161/188/161 88/104/88 86/102/86
f 161/188/161 162/189/162 90/106/90 88/104/88
f 162/189/162 163/190/163 92/108/92 90/106/90
f 163/190/163 164/191/164 94/110/94 92/108/92
f 164/191/164 165/192/165 96/112/96 94/110/94
f 152/179/152 166/193/166 164/191/164 163/190/163
f 166/193/166 167/194/167 165/192/165 164/191/164
f 141/168/141 168/195/168 166/193/166 152/179/152
f 168/195/168 169/196/169 167/194/167 166/193/166
f 130/157/130 170/197/170 168/195/168 141/168/141
f 170/197/170 171/198/171 169/196/169 168/195/168
f 119/156/119 172/199/172 170/197/170 130/157/130
f 172/199/172 173/200/173 171/198/171 170/197/170
f 108/124/108 174/201/174 172/202/172 119/135/119
f 174/201/174 175/203/175 173/204/173 172/202/172
f 176/205/176 177/206/177 74/90/74 77/93/77
f 178/207/178 176/205/176 77/93/77 99/115/99
f 179/208/179 178/207/178 99/115/99 110/126/110
f 180/209/180 179/210/179 110/136/110 121/139/121
f 181/211/181 180/209/180 121/139/121 132/159/132
f 182/212/182 181/211/181 132/159/132 143/170/143
f 183/213/183 182/212/182 143/170/143 154/181/154
f 177/206/177 183/213/183 154/181/154 74/90/74
f 184/214/184 185/215/185 177/206/177 176/205/176
f 186/216/186 184/214/184 176/205/176 178/207/178
f 187/217/187 186/216/186 178/207/178 179/208/179
f 188/218/188 187/219/187 179/210/179 180/209/180
f 189/220/189 188/218/188 180/209/180 181/211/181
f 190/221/190 189/220/189 181/211/181 182/212/182
f 191/222/191 190/221/190 182/212/182 183/213/183
f 185/215/185 191/222/191 183/213/183 177/206/177
f 192/223/192 193/224/193 194/225/194 195/226/195
f 196/227/196 192/228/192 195/226/195 197/229/197
f 198/230/198 196/231/196 197/229/197 199/232/199
f 200/233/200 198/234/198 199/232/199 201/235/201
f 202/236/202 200/237/200 201/235/201 203/238/203
f 204/239/204 202/240/202 203/238/203 205/241/205
f 206/242/206 204/243/204 205/244/205 207/245/207
f 193/246/193 206/247/206 207/245/207 194/225/194
f 208/248/208 209/249/209 193/224/193 192/223/192
f 210/250/210 208/251/208 192/228/192 196/227/196
f 211/252/211 210/253/210 196/231/196 198/230/198
f 212/254/212 211/255/211 198/234/198 200/233/200
f 213/256/213 212/257/212 200/237/200 202/236/202
f 214/258/214 213/259/213 202/240/202 204/239/204
f 215/260/215 214/261/214 204/243/204 206/242/206
f 209/262/209 215/263/215 206/247/206 193/246/193
f 216/264/216 213/265/213 214/266/214 215/267/215
f 216/264/216 215/267/215 209/268/209 208/269/208
f 216/264/216 208/269/208 210/253/210 211/252/211
f 212/270/212 213/265/213 216/264/216 211/252/211
f 77/93/77 76/92/76 99/115/99
f 154/181/154 153/180/153 74/90/74
f 174/201/174 108/124/108 97/113/97
f 175/203/175 174/201/174 97/113/97
