%YAML 1.1
%TAG !u! tag:unity3d.com,2011:
--- !u!687078895 &4343727234628468602
SpriteAtlas:
  m_ObjectHideFlags: 0
  m_CorrespondingSourceObject: {fileID: 0}
  m_PrefabInstance: {fileID: 0}
  m_PrefabAsset: {fileID: 0}
  m_Name: EndGameAtlas
  m_EditorData:
    serializedVersion: 2
    textureSettings:
      serializedVersion: 2
      anisoLevel: 1
      compressionQuality: 50
      maxTextureSize: 2048
      textureCompression: 0
      filterMode: 1
      generateMipMaps: 0
      readable: 0
      crunchedCompression: 0
      sRGB: 1
    platformSettings:
    - serializedVersion: 2
      m_BuildTarget: DefaultTexturePlatform
      m_MaxTextureSize: 2048
      m_ResizeAlgorithm: 0
      m_TextureFormat: -1
      m_TextureCompression: 1
      m_CompressionQuality: 50
      m_CrunchedCompression: 0
      m_AllowsAlphaSplitting: 0
      m_Overridden: 0
      m_AndroidETC2FallbackOverride: 0
    packingSettings:
      serializedVersion: 2
      padding: 4
      blockOffset: 1
      allowAlphaSplitting: 0
      enableRotation: 1
      enableTightPacking: 1
    variantMultiplier: 1
    packables:
    - {fileID: 2800000, guid: 7ef56331ec6b03942bc65b2b86b8e603, type: 3}
    - {fileID: 2800000, guid: 5bf345b6c5cd4f34cb72fa8f847cf777, type: 3}
    - {fileID: 2800000, guid: fa46b90326af2a348835a366323cf20b, type: 3}
    - {fileID: 2800000, guid: 4d15e6bde330e034585cf8f1ccfe894a, type: 3}
    - {fileID: 2800000, guid: 1fe9b0086330ef449be7509138207b43, type: 3}
    - {fileID: 2800000, guid: 9dec8689e4818614cb0d2cdb9129fa62, type: 3}
    - {fileID: 2800000, guid: 2fdb04c3989b1a5409cf0e6768664d6f, type: 3}
    - {fileID: 2800000, guid: c3c33e6df0fed844aa134051674fab99, type: 3}
    - {fileID: 2800000, guid: f650c2ad5aa5c2d49bfae3c2f4a251ae, type: 3}
    - {fileID: 2800000, guid: 1c83d95321fc35142a99c03df62e50f4, type: 3}
    - {fileID: 2800000, guid: 43af7bdbe2c3c5b429019750a29abd59, type: 3}
    - {fileID: 2800000, guid: e7899f1707d6a2842b688811d6db22db, type: 3}
    - {fileID: 2800000, guid: 61eed3a11b35c964b87dc5e85d2c981b, type: 3}
    - {fileID: 2800000, guid: 23b9521b4badf79428ce000217dbe050, type: 3}
    - {fileID: 2800000, guid: fb517cf3e70e16a49b8a72327b5f981c, type: 3}
    - {fileID: 2800000, guid: c7616ca406d14c74cae150fedb59c34d, type: 3}
    - {fileID: 2800000, guid: 1389dc285a791374fb34657266faa817, type: 3}
    - {fileID: 2800000, guid: 85b5098633429fa4595c45d6f005e46d, type: 3}
    - {fileID: 2800000, guid: 2625b547ba9b73240bab2d778b90113a, type: 3}
    - {fileID: 2800000, guid: 59c103029ad25284a8f4dc34f9354b9c, type: 3}
    - {fileID: 2800000, guid: 531bbe0e7d6294c409cf5c0d0da27cfc, type: 3}
    - {fileID: 2800000, guid: ed29b199b445e1047b0d81833bc30c3d, type: 3}
    - {fileID: 2800000, guid: a1bf638540b1d87489f1c8e247dd5f00, type: 3}
    - {fileID: 2800000, guid: 25b37ccf24325b542b8d4a7b6749b26d, type: 3}
    - {fileID: 2800000, guid: dcbe4b572146ab74c9d28f7d8731a758, type: 3}
    - {fileID: 2800000, guid: 6acc4a389ab83da48941e6e5a005115b, type: 3}
    - {fileID: 2800000, guid: 951bab66ee2999d4c871cc8b0ed6cc4c, type: 3}
    - {fileID: 2800000, guid: 10397169bf0722f40901c5f867bebc03, type: 3}
    - {fileID: 2800000, guid: fb502f1fe8856ce44884e9109560059c, type: 3}
    - {fileID: 2800000, guid: 0a27c9fb28f26314f927535e685cc0ab, type: 3}
    - {fileID: 2800000, guid: 8343467617af3dc47bca0d985144b1a3, type: 3}
    totalSpriteSurfaceArea: 1540096
    bindAsDefault: 1
  m_MasterAtlas: {fileID: 0}
  m_PackedSprites:
  - {fileID: 21300000, guid: 7ef56331ec6b03942bc65b2b86b8e603, type: 3}
  - {fileID: 21300000, guid: 61eed3a11b35c964b87dc5e85d2c981b, type: 3}
  - {fileID: 21300000, guid: 59c103029ad25284a8f4dc34f9354b9c, type: 3}
  - {fileID: 21300000, guid: fa46b90326af2a348835a366323cf20b, type: 3}
  - {fileID: 21300000, guid: 1c83d95321fc35142a99c03df62e50f4, type: 3}
  - {fileID: 21300000, guid: 2fdb04c3989b1a5409cf0e6768664d6f, type: 3}
  - {fileID: 21300000, guid: fb517cf3e70e16a49b8a72327b5f981c, type: 3}
  - {fileID: 21300000, guid: c7616ca406d14c74cae150fedb59c34d, type: 3}
  - {fileID: 21300000, guid: a1bf638540b1d87489f1c8e247dd5f00, type: 3}
  - {fileID: 21300000, guid: 951bab66ee2999d4c871cc8b0ed6cc4c, type: 3}
  - {fileID: 21300000, guid: 8343467617af3dc47bca0d985144b1a3, type: 3}
  - {fileID: 21300000, guid: 85b5098633429fa4595c45d6f005e46d, type: 3}
  - {fileID: 21300000, guid: 5bf345b6c5cd4f34cb72fa8f847cf777, type: 3}
  - {fileID: 21300000, guid: e7899f1707d6a2842b688811d6db22db, type: 3}
  - {fileID: 21300000, guid: 2625b547ba9b73240bab2d778b90113a, type: 3}
  - {fileID: 21300000, guid: dcbe4b572146ab74c9d28f7d8731a758, type: 3}
  - {fileID: 21300000, guid: 1fe9b0086330ef449be7509138207b43, type: 3}
  - {fileID: 21300000, guid: 1389dc285a791374fb34657266faa817, type: 3}
  - {fileID: 21300000, guid: 6acc4a389ab83da48941e6e5a005115b, type: 3}
  - {fileID: 21300000, guid: 10397169bf0722f40901c5f867bebc03, type: 3}
  - {fileID: 21300000, guid: 9dec8689e4818614cb0d2cdb9129fa62, type: 3}
  - {fileID: 21300000, guid: ed29b199b445e1047b0d81833bc30c3d, type: 3}
  - {fileID: 21300000, guid: 23b9521b4badf79428ce000217dbe050, type: 3}
  - {fileID: 21300000, guid: 43af7bdbe2c3c5b429019750a29abd59, type: 3}
  - {fileID: 21300000, guid: 0a27c9fb28f26314f927535e685cc0ab, type: 3}
  - {fileID: 21300000, guid: c3c33e6df0fed844aa134051674fab99, type: 3}
  - {fileID: 21300000, guid: f650c2ad5aa5c2d49bfae3c2f4a251ae, type: 3}
  - {fileID: 21300000, guid: 4d15e6bde330e034585cf8f1ccfe894a, type: 3}
  - {fileID: 21300000, guid: 531bbe0e7d6294c409cf5c0d0da27cfc, type: 3}
  - {fileID: 21300000, guid: fb502f1fe8856ce44884e9109560059c, type: 3}
  - {fileID: 21300000, guid: 25b37ccf24325b542b8d4a7b6749b26d, type: 3}
  m_PackedSpriteNamesToIndex:
  - End Game 8bit 01__00000
  - End Game 8bit 01__00012
  - End Game 8bit 01__00019
  - End Game 8bit 01__00002
  - End Game 8bit 01__00009
  - End Game 8bit 01__00006
  - End Game 8bit 01__00014
  - End Game 8bit 01__00015
  - End Game 8bit 01__00022
  - End Game 8bit 01__00026
  - End Game 8bit 01__00030
  - End Game 8bit 01__00017
  - End Game 8bit 01__00001
  - End Game 8bit 01__00011
  - End Game 8bit 01__00018
  - End Game 8bit 01__00024
  - End Game 8bit 01__00004
  - End Game 8bit 01__00016
  - End Game 8bit 01__00025
  - End Game 8bit 01__00027
  - End Game 8bit 01__00005
  - End Game 8bit 01__00021
  - End Game 8bit 01__00013
  - End Game 8bit 01__00010
  - End Game 8bit 01__00029
  - End Game 8bit 01__00007
  - End Game 8bit 01__00008
  - End Game 8bit 01__00003
  - End Game 8bit 01__00020
  - End Game 8bit 01__00028
  - End Game 8bit 01__00023
  m_Tag: EndGameAtlas
  m_IsVariant: 0
