%YAML 1.1
%TAG !u! tag:unity3d.com,2011:
--- !u!21 &2100000
Material:
  serializedVersion: 6
  m_ObjectHideFlags: 0
  m_CorrespondingSourceObject: {fileID: 0}
  m_PrefabInternal: {fileID: 0}
  m_Name: TCP2_Demo_Ground
  m_Shader: {fileID: 4800000, guid: 7cf6e0bd6774e2a438d4701ceb5e6bae, type: 3}
  m_ShaderKeywords: _EMISSION
  m_LightmapFlags: 1
  m_EnableInstancingVariants: 1
  m_DoubleSidedGI: 0
  m_CustomRenderQueue: -1
  stringTagMap: {}
  disabledShaderPasses: []
  m_SavedProperties:
    serializedVersion: 3
    m_TexEnvs:
    - _BlendTex1:
        m_Texture: {fileID: 2800000, guid: 5c5e55a9fbc4aa64a92b1555198f8bb8, type: 3}
        m_Scale: {x: 2, y: 2}
        m_Offset: {x: 0, y: 0}
    - _BlendTex2:
        m_Texture: {fileID: 2800000, guid: 379dbc64b9e961945bb85ccde59979cd, type: 3}
        m_Scale: {x: 0.75, y: 0.75}
        m_Offset: {x: 0, y: 0}
    - _BumpMap:
        m_Texture: {fileID: 2800000, guid: de3d69e834491a34e9aceb298acdefa2, type: 3}
        m_Scale: {x: 6, y: 6}
        m_Offset: {x: 0, y: 0}
    - _DetailAlbedoMap:
        m_Texture: {fileID: 0}
        m_Scale: {x: 1, y: 1}
        m_Offset: {x: 0, y: 0}
    - _DetailMask:
        m_Texture: {fileID: 0}
        m_Scale: {x: 1, y: 1}
        m_Offset: {x: 0, y: 0}
    - _DetailNormalMap:
        m_Texture: {fileID: 0}
        m_Scale: {x: 1, y: 1}
        m_Offset: {x: 0, y: 0}
    - _EmissionMap:
        m_Texture: {fileID: 0}
        m_Scale: {x: 1, y: 1}
        m_Offset: {x: 0, y: 0}
    - _MainTex:
        m_Texture: {fileID: 2800000, guid: 31943228e69a5b54992b5322327313e7, type: 3}
        m_Scale: {x: 6, y: 6}
        m_Offset: {x: 0, y: 0}
    - _MetallicGlossMap:
        m_Texture: {fileID: 0}
        m_Scale: {x: 1, y: 1}
        m_Offset: {x: 0, y: 0}
    - _NoTileNoiseTex:
        m_Texture: {fileID: 2800000, guid: c4210660884c17f4db192d9c5bf8de3b, type: 3}
        m_Scale: {x: 1, y: 1}
        m_Offset: {x: 0, y: 0}
    - _OcclusionMap:
        m_Texture: {fileID: 0}
        m_Scale: {x: 1, y: 1}
        m_Offset: {x: 0, y: 0}
    - _ParallaxMap:
        m_Texture: {fileID: 2800000, guid: 45fa99a31bbf30d43ad28f4aa56c342d, type: 3}
        m_Scale: {x: 1, y: 1}
        m_Offset: {x: 0, y: 0}
    - _Ramp:
        m_Texture: {fileID: 0}
        m_Scale: {x: 1, y: 1}
        m_Offset: {x: 0, y: 0}
    - _TexBlendMap:
        m_Texture: {fileID: 2800000, guid: 2ad1ed5a0f504b04b84a7cf3722abf1c, type: 3}
        m_Scale: {x: 1, y: 1}
        m_Offset: {x: 0, y: 0}
    m_Floats:
    - _BlendContrast: 1
    - _BumpScale: 1
    - _Cutoff: 0.5
    - _DetailNormalMapScale: 1
    - _DstBlend: 0
    - _GlossMapScale: 1
    - _Glossiness: 0.5
    - _GlossyReflections: 1
    - _Metallic: 0
    - _Mode: 0
    - _OcclusionStrength: 1
    - _Parallax: 0.0312
    - _RampSmooth: 0.5
    - _RampSmoothDir: 0.5
    - _RampSmoothPoint: 0.5
    - _RampSmoothSpot: 0.15
    - _RampThreshold: 0.5
    - _RampThresholdDir: 0.5
    - _RampThresholdPoint: 0.5
    - _RampThresholdSpot: 0.5
    - _Shadow_HSV_H: -10
    - _Shadow_HSV_S: 0
    - _Shadow_HSV_V: 0
    - _SmoothnessTextureChannel: 0
    - _SpecularHighlights: 1
    - _SrcBlend: 1
    - _UVSec: 0
    - _ZWrite: 1
    - __BeginGroup_OtherLights: 1
    - __EndGroup: 0
    - __dummy__: 0
    m_Colors:
    - _Color: {r: 1, g: 1, b: 1, a: 1}
    - _EmissionColor: {r: 0, g: 0, b: 0, a: 1}
    - _HColor: {r: 0.9411765, g: 0.9411765, b: 0.9411765, a: 1}
    - _SColor: {r: 0.63235295, g: 0.63235295, b: 0.63235295, a: 1}
    - _VColorBlendOffset: {r: 1, g: 0.5, b: 0, a: 0}
    - _VColorBlendSmooth: {r: 0.3, g: 0.65, b: 0.25, a: 0.25}
