%YAML 1.1
%TAG !u! tag:unity3d.com,2011:
--- !u!74 &7400000
AnimationClip:
  m_ObjectHideFlags: 0
  m_CorrespondingSourceObject: {fileID: 0}
  m_PrefabInternal: {fileID: 0}
  m_Name: RobinScoreUIAnimation
  serializedVersion: 6
  m_Legacy: 0
  m_Compressed: 0
  m_UseHighQualityCurve: 1
  m_RotationCurves: []
  m_CompressedRotationCurves: []
  m_EulerCurves: []
  m_PositionCurves: []
  m_ScaleCurves: []
  m_FloatCurves: []
  m_PPtrCurves:
  - curve:
    - time: 0
      value: {fileID: 21300000, guid: 4d8b4443b6ae1ee4b8cfe88a603cb135, type: 3}
    - time: 0.1
      value: {fileID: 21300000, guid: 28f5fd6c0e5a45648895f1a09b1c858f, type: 3}
    - time: 0.2
      value: {fileID: 21300000, guid: 68410f42c4382bb4cb6cc69375ada37a, type: 3}
    - time: 0.3
      value: {fileID: 21300000, guid: 3465337316e6cc34cb6b8c08ff7d3bc5, type: 3}
    - time: 0.4
      value: {fileID: 21300000, guid: e79ee78f3c481d041913ca3ccab3d3b4, type: 3}
    - time: 0.5
      value: {fileID: 21300000, guid: 7721f9f5db4bd334eb06d6d2d9a0c6b4, type: 3}
    - time: 0.6
      value: {fileID: 21300000, guid: fcbd229e2c857ef41a908e2581d87fd7, type: 3}
    - time: 0.7
      value: {fileID: 21300000, guid: d5a7ca8ac8757b440a907580dcef2f2b, type: 3}
    - time: 0.8
      value: {fileID: 21300000, guid: 54886736d2073f34e804bd1946037722, type: 3}
    - time: 0.9
      value: {fileID: 21300000, guid: 1fdf48874592545418be22dac801c627, type: 3}
    - time: 1
      value: {fileID: 21300000, guid: 20ce8b7a9b214094ca6509163ca27299, type: 3}
    - time: 1.1
      value: {fileID: 21300000, guid: b9076eb3323511d49815bcc41468404e, type: 3}
    - time: 1.2
      value: {fileID: 21300000, guid: b7d472bc81edba24d8c51edd985dd5e0, type: 3}
    - time: 1.3
      value: {fileID: 21300000, guid: e4d2bc775d4f16643a9ae6809a9c6c54, type: 3}
    - time: 1.4
      value: {fileID: 21300000, guid: a1bae1fc49f75d0438b5c6e45db56d45, type: 3}
    - time: 1.5
      value: {fileID: 21300000, guid: 739f2e1f5e778aa42a31bfb940f70a7a, type: 3}
    - time: 1.6
      value: {fileID: 21300000, guid: e9eb69e1d48991049806ba0f8b636d53, type: 3}
    - time: 1.7
      value: {fileID: 21300000, guid: e3f290a67bebd9e4dabcd78a8b8d7900, type: 3}
    - time: 1.8
      value: {fileID: 21300000, guid: e2bf8fbd4b167cc47b33651d421e9360, type: 3}
    - time: 1.9
      value: {fileID: 21300000, guid: 7d918cb944d7b24438c82a6ead4b640b, type: 3}
    - time: 2
      value: {fileID: 21300000, guid: 2ea56a50cfb30b0499efa62fcb1c999d, type: 3}
    - time: 2.1
      value: {fileID: 21300000, guid: f7b1efe274e8c0b4ab3f9fe216dba02e, type: 3}
    - time: 2.2
      value: {fileID: 21300000, guid: 4e165ac83dcd87d4888c420d4074d63e, type: 3}
    - time: 2.3
      value: {fileID: 21300000, guid: 239bfac5b512c144695383b01e2e7bce, type: 3}
    - time: 2.4
      value: {fileID: 21300000, guid: d212a9cb6471ec746ba31bca12ec90fc, type: 3}
    - time: 2.5
      value: {fileID: 21300000, guid: a94b6b5d11198194c985267ae168fc26, type: 3}
    - time: 2.6
      value: {fileID: 21300000, guid: 094ef6500995b2148875cecf0aee8cb6, type: 3}
    - time: 2.7
      value: {fileID: 21300000, guid: c7aca71a628748047b178cc72f16a7a0, type: 3}
    - time: 2.8
      value: {fileID: 21300000, guid: 60691005b95ebd1489faea003d2366e0, type: 3}
    - time: 2.9
      value: {fileID: 21300000, guid: dfb8e06a52fc4054ba262769b9cf2bb9, type: 3}
    attribute: m_Sprite
    path: 
    classID: 114
    script: {fileID: -765806418, guid: f70555f144d8491a825f0804e09c671c, type: 3}
  m_SampleRate: 10
  m_WrapMode: 0
  m_Bounds:
    m_Center: {x: 0, y: 0, z: 0}
    m_Extent: {x: 0, y: 0, z: 0}
  m_ClipBindingConstant:
    genericBindings:
    - serializedVersion: 2
      path: 0
      attribute: 2015549526
      script: {fileID: -765806418, guid: f70555f144d8491a825f0804e09c671c, type: 3}
      typeID: 114
      customType: 0
      isPPtrCurve: 1
    pptrCurveMapping:
    - {fileID: 21300000, guid: 4d8b4443b6ae1ee4b8cfe88a603cb135, type: 3}
    - {fileID: 21300000, guid: 28f5fd6c0e5a45648895f1a09b1c858f, type: 3}
    - {fileID: 21300000, guid: 68410f42c4382bb4cb6cc69375ada37a, type: 3}
    - {fileID: 21300000, guid: 3465337316e6cc34cb6b8c08ff7d3bc5, type: 3}
    - {fileID: 21300000, guid: e79ee78f3c481d041913ca3ccab3d3b4, type: 3}
    - {fileID: 21300000, guid: 7721f9f5db4bd334eb06d6d2d9a0c6b4, type: 3}
    - {fileID: 21300000, guid: fcbd229e2c857ef41a908e2581d87fd7, type: 3}
    - {fileID: 21300000, guid: d5a7ca8ac8757b440a907580dcef2f2b, type: 3}
    - {fileID: 21300000, guid: 54886736d2073f34e804bd1946037722, type: 3}
    - {fileID: 21300000, guid: 1fdf48874592545418be22dac801c627, type: 3}
    - {fileID: 21300000, guid: 20ce8b7a9b214094ca6509163ca27299, type: 3}
    - {fileID: 21300000, guid: b9076eb3323511d49815bcc41468404e, type: 3}
    - {fileID: 21300000, guid: b7d472bc81edba24d8c51edd985dd5e0, type: 3}
    - {fileID: 21300000, guid: e4d2bc775d4f16643a9ae6809a9c6c54, type: 3}
    - {fileID: 21300000, guid: a1bae1fc49f75d0438b5c6e45db56d45, type: 3}
    - {fileID: 21300000, guid: 739f2e1f5e778aa42a31bfb940f70a7a, type: 3}
    - {fileID: 21300000, guid: e9eb69e1d48991049806ba0f8b636d53, type: 3}
    - {fileID: 21300000, guid: e3f290a67bebd9e4dabcd78a8b8d7900, type: 3}
    - {fileID: 21300000, guid: e2bf8fbd4b167cc47b33651d421e9360, type: 3}
    - {fileID: 21300000, guid: 7d918cb944d7b24438c82a6ead4b640b, type: 3}
    - {fileID: 21300000, guid: 2ea56a50cfb30b0499efa62fcb1c999d, type: 3}
    - {fileID: 21300000, guid: f7b1efe274e8c0b4ab3f9fe216dba02e, type: 3}
    - {fileID: 21300000, guid: 4e165ac83dcd87d4888c420d4074d63e, type: 3}
    - {fileID: 21300000, guid: 239bfac5b512c144695383b01e2e7bce, type: 3}
    - {fileID: 21300000, guid: d212a9cb6471ec746ba31bca12ec90fc, type: 3}
    - {fileID: 21300000, guid: a94b6b5d11198194c985267ae168fc26, type: 3}
    - {fileID: 21300000, guid: 094ef6500995b2148875cecf0aee8cb6, type: 3}
    - {fileID: 21300000, guid: c7aca71a628748047b178cc72f16a7a0, type: 3}
    - {fileID: 21300000, guid: 60691005b95ebd1489faea003d2366e0, type: 3}
    - {fileID: 21300000, guid: dfb8e06a52fc4054ba262769b9cf2bb9, type: 3}
  m_AnimationClipSettings:
    serializedVersion: 2
    m_AdditiveReferencePoseClip: {fileID: 0}
    m_AdditiveReferencePoseTime: 0
    m_StartTime: 0
    m_StopTime: 3
    m_OrientationOffsetY: 0
    m_Level: 0
    m_CycleOffset: 0
    m_HasAdditiveReferencePose: 0
    m_LoopTime: 1
    m_LoopBlend: 0
    m_LoopBlendOrientation: 0
    m_LoopBlendPositionY: 0
    m_LoopBlendPositionXZ: 0
    m_KeepOriginalOrientation: 0
    m_KeepOriginalPositionY: 1
    m_KeepOriginalPositionXZ: 0
    m_HeightFromFeet: 0
    m_Mirror: 0
  m_EditorCurves: []
  m_EulerEditorCurves: []
  m_HasGenericRootTransform: 0
  m_HasMotionFloatCurves: 0
  m_GenerateMotionCurves: 0
  m_Events: []
